Lab 1 331/Full Rectifier circuits/Bridge With Filter/tek0001.csv

Model,MSO3012
Firmware Version,2.40

Waveform Type,ANALOG,
Point Format,Y,
Horizontal Units,s,
Horizontal Scale,0.004,
Horizontal Delay,0,
Sample Interval,4e-06,
Record Length,10000,
Gating,0.0% to 100.0%,
Probe Attenuation,1,
Vertical Units,V,
Vertical Offset,0,
Vertical Scale,2,
Vertical Position,2,
,,
,,
,,
Label,,
TIME,CH1,CH2
-2.0000e-02,-1.6975,1.38031
-1.9996e-02,-1.69312,1.38531
-1.9992e-02,-1.68906,1.39094
-1.9988e-02,-1.68094,1.39688
-1.9984e-02,-1.67563,1.40187
-1.9980e-02,-1.67219,1.40094
-1.9976e-02,-1.67,1.40813
-1.9972e-02,-1.66406,1.41219
-1.9968e-02,-1.65844,1.41469
-1.9964e-02,-1.65531,1.41625
-1.9960e-02,-1.65437,1.42031
-1.9956e-02,-1.64844,1.4275
-1.9952e-02,-1.64438,1.43031
-1.9948e-02,-1.63969,1.43312
-1.9944e-02,-1.63719,1.43344
-1.9940e-02,-1.63469,1.43844
-1.9936e-02,-1.6325,1.44125
-1.9932e-02,-1.62812,1.44531
-1.9928e-02,-1.625,1.44875
-1.9924e-02,-1.62438,1.45187
-1.9920e-02,-1.62,1.45531
-1.9916e-02,-1.61781,1.45437
-1.9912e-02,-1.61375,1.45844
-1.9908e-02,-1.61062,1.46031
-1.9904e-02,-1.60969,1.46188
-1.9900e-02,-1.60875,1.46344
-1.9896e-02,-1.60156,1.4675
-1.9892e-02,-1.60312,1.46813
-1.9888e-02,-1.59906,1.47094
-1.9884e-02,-1.6,1.47219
-1.9880e-02,-1.59594,1.47406
-1.9876e-02,-1.5925,1.47906
-1.9872e-02,-1.58937,1.48062
-1.9868e-02,-1.59,1.48062
-1.9864e-02,-1.58594,1.48531
-1.9860e-02,-1.57969,1.48531
-1.9856e-02,-1.57969,1.48844
-1.9852e-02,-1.57937,1.49
-1.9848e-02,-1.57656,1.49125
-1.9844e-02,-1.57469,1.49281
-1.9840e-02,-1.57563,1.49437
-1.9836e-02,-1.56906,1.49531
-1.9832e-02,-1.56969,1.4975
-1.9828e-02,-1.57063,1.49906
-1.9824e-02,-1.56562,1.50219
-1.9820e-02,-1.56438,1.50344
-1.9816e-02,-1.56344,1.50406
-1.9812e-02,-1.5625,1.50406
-1.9808e-02,-1.55844,1.50469
-1.9804e-02,-1.55625,1.50562
-1.9800e-02,-1.55344,1.50719
-1.9796e-02,-1.55375,1.50406
-1.9792e-02,-1.55344,1.50875
-1.9788e-02,-1.55125,1.50969
-1.9784e-02,-1.54969,1.51125
-1.9780e-02,-1.54781,1.51281
-1.9776e-02,-1.54781,1.51375
-1.9772e-02,-1.54688,1.51375
-1.9768e-02,-1.54562,1.51719
-1.9764e-02,-1.54375,1.51875
-1.9760e-02,-1.54375,1.51969
-1.9756e-02,-1.54562,1.51969
-1.9752e-02,-1.54469,1.51969
-1.9748e-02,-1.54125,1.52094
-1.9744e-02,-1.54125,1.51938
-1.9740e-02,-1.53969,1.51969
-1.9736e-02,-1.54219,1.52094
-1.9732e-02,-1.53969,1.5225
-1.9728e-02,-1.53656,1.52188
-1.9724e-02,-1.53812,1.52281
-1.9720e-02,-1.53969,1.5225
-1.9716e-02,-1.53719,1.52375
-1.9712e-02,-1.535,1.52937
-1.9708e-02,-1.53094,1.5275
-1.9704e-02,-1.53187,1.52594
-1.9700e-02,-1.5325,1.52687
-1.9696e-02,-1.53063,1.52687
-1.9692e-02,-1.5275,1.525
-1.9688e-02,-1.52656,1.52531
-1.9684e-02,-1.52781,1.52687
-1.9680e-02,-1.52656,1.5275
-1.9676e-02,-1.52531,1.53
-1.9672e-02,-1.52031,1.52906
-1.9668e-02,-1.5225,1.53063
-1.9664e-02,-1.52188,1.53063
-1.9660e-02,-1.52375,1.52937
-1.9656e-02,-1.51875,1.53063
-1.9652e-02,-1.51625,1.53313
-1.9648e-02,-1.51875,1.53156
-1.9644e-02,-1.52031,1.53344
-1.9640e-02,-1.51844,1.53156
-1.9636e-02,-1.51781,1.53344
-1.9632e-02,-1.51375,1.5325
-1.9628e-02,-1.51687,1.53313
-1.9624e-02,-1.51531,1.53563
-1.9620e-02,-1.51687,1.5375
-1.9616e-02,-1.51125,1.53563
-1.9612e-02,-1.51219,1.53719
-1.9608e-02,-1.51469,1.54062
-1.9604e-02,-1.51063,1.54062
-1.9600e-02,-1.50813,1.53906
-1.9596e-02,-1.50719,1.53656
-1.9592e-02,-1.50562,1.53563
-1.9588e-02,-1.50906,1.53812
-1.9584e-02,-1.50813,1.5375
-1.9580e-02,-1.50656,1.53469
-1.9576e-02,-1.50719,1.53656
-1.9572e-02,-1.50906,1.53906
-1.9568e-02,-1.50719,1.53719
-1.9564e-02,-1.50562,1.53969
-1.9560e-02,-1.50562,1.53969
-1.9556e-02,-1.50344,1.5375
-1.9552e-02,-1.505,1.54
-1.9548e-02,-1.505,1.54062
-1.9544e-02,-1.50344,1.54281
-1.9540e-02,-1.50219,1.54062
-1.9536e-02,-1.50344,1.54125
-1.9532e-02,-1.50656,1.54312
-1.9528e-02,-1.50469,1.54156
-1.9524e-02,-1.5025,1.54062
-1.9520e-02,-1.505,1.53906
-1.9516e-02,-1.50719,1.54219
-1.9512e-02,-1.50625,1.53906
-1.9508e-02,-1.50156,1.54062
-1.9504e-02,-1.50406,1.54125
-1.9500e-02,-1.50312,1.53969
-1.9496e-02,-1.50625,1.53719
-1.9492e-02,-1.50406,1.53969
-1.9488e-02,-1.5025,1.53969
-1.9484e-02,-1.50312,1.53969
-1.9480e-02,-1.50344,1.53875
-1.9476e-02,-1.50344,1.5375
-1.9472e-02,-1.50406,1.53906
-1.9468e-02,-1.50156,1.5375
-1.9464e-02,-1.50219,1.53906
-1.9460e-02,-1.5025,1.54125
-1.9456e-02,-1.50062,1.53969
-1.9452e-02,-1.49938,1.53812
-1.9448e-02,-1.49938,1.54125
-1.9444e-02,-1.5025,1.54062
-1.9440e-02,-1.5,1.54469
-1.9436e-02,-1.5,1.54375
-1.9432e-02,-1.49812,1.54312
-1.9428e-02,-1.5,1.54062
-1.9424e-02,-1.50094,1.54281
-1.9420e-02,-1.5025,1.54375
-1.9416e-02,-1.49687,1.54156
-1.9412e-02,-1.49344,1.54375
-1.9408e-02,-1.4975,1.54469
-1.9404e-02,-1.4975,1.54281
-1.9400e-02,-1.495,1.54281
-1.9396e-02,-1.49437,1.54219
-1.9392e-02,-1.49344,1.54156
-1.9388e-02,-1.49437,1.54281
-1.9384e-02,-1.495,1.53969
-1.9380e-02,-1.49406,1.54281
-1.9376e-02,-1.49187,1.54156
-1.9372e-02,-1.49125,1.54375
-1.9368e-02,-1.49406,1.54
-1.9364e-02,-1.49344,1.54156
-1.9360e-02,-1.49531,1.54
-1.9356e-02,-1.49406,1.54312
-1.9352e-02,-1.49594,1.54406
-1.9348e-02,-1.49594,1.54156
-1.9344e-02,-1.49094,1.54312
-1.9340e-02,-1.49094,1.54062
-1.9336e-02,-1.4925,1.53906
-1.9332e-02,-1.49531,1.54
-1.9328e-02,-1.49656,1.53875
-1.9324e-02,-1.49406,1.53969
-1.9320e-02,-1.49094,1.54125
-1.9316e-02,-1.49125,1.54281
-1.9312e-02,-1.4925,1.54375
-1.9308e-02,-1.49281,1.54281
-1.9304e-02,-1.48937,1.54062
-1.9300e-02,-1.48781,1.54125
-1.9296e-02,-1.49125,1.54125
-1.9292e-02,-1.49,1.53969
-1.9288e-02,-1.49125,1.53875
-1.9284e-02,-1.48781,1.53906
-1.9280e-02,-1.48875,1.53812
-1.9276e-02,-1.48875,1.53719
-1.9272e-02,-1.48687,1.53875
-1.9268e-02,-1.48438,1.53812
-1.9264e-02,-1.48594,1.53812
-1.9260e-02,-1.48625,1.53969
-1.9256e-02,-1.48844,1.54062
-1.9252e-02,-1.48687,1.54
-1.9248e-02,-1.48781,1.53875
-1.9244e-02,-1.48531,1.54125
-1.9240e-02,-1.48687,1.54
-1.9236e-02,-1.48781,1.54062
-1.9232e-02,-1.48781,1.54
-1.9228e-02,-1.48594,1.54
-1.9224e-02,-1.48625,1.53812
-1.9220e-02,-1.48937,1.53719
-1.9216e-02,-1.48844,1.5375
-1.9212e-02,-1.48469,1.54
-1.9208e-02,-1.48594,1.54062
-1.9204e-02,-1.48625,1.53906
-1.9200e-02,-1.48594,1.53719
-1.9196e-02,-1.48687,1.53875
-1.9192e-02,-1.48438,1.53719
-1.9188e-02,-1.48531,1.53875
-1.9184e-02,-1.48531,1.53906
-1.9180e-02,-1.48687,1.5375
-1.9176e-02,-1.48531,1.53969
-1.9172e-02,-1.48438,1.53969
-1.9168e-02,-1.48687,1.53875
-1.9164e-02,-1.48469,1.53812
-1.9160e-02,-1.48438,1.5375
-1.9156e-02,-1.48125,1.53875
-1.9152e-02,-1.48281,1.53812
-1.9148e-02,-1.48219,1.53969
-1.9144e-02,-1.48125,1.53656
-1.9140e-02,-1.48188,1.53875
-1.9136e-02,-1.48062,1.53719
-1.9132e-02,-1.48031,1.535
-1.9128e-02,-1.48062,1.5375
-1.9124e-02,-1.48125,1.53656
-1.9120e-02,-1.48125,1.5375
-1.9116e-02,-1.47719,1.53719
-1.9112e-02,-1.47906,1.53594
-1.9108e-02,-1.47906,1.53563
-1.9104e-02,-1.47906,1.53719
-1.9100e-02,-1.47625,1.54
-1.9096e-02,-1.47781,1.53969
-1.9092e-02,-1.47719,1.53906
-1.9088e-02,-1.47969,1.53875
-1.9084e-02,-1.47781,1.53594
-1.9080e-02,-1.47969,1.53594
-1.9076e-02,-1.48219,1.53406
-1.9072e-02,-1.48125,1.53406
-1.9068e-02,-1.47969,1.53594
-1.9064e-02,-1.47719,1.53063
-1.9060e-02,-1.47812,1.53156
-1.9056e-02,-1.47906,1.53187
-1.9052e-02,-1.48062,1.5325
-1.9048e-02,-1.47875,1.53187
-1.9044e-02,-1.47812,1.53313
-1.9040e-02,-1.47906,1.5325
-1.9036e-02,-1.47812,1.53563
-1.9032e-02,-1.47969,1.53563
-1.9028e-02,-1.47906,1.53563
-1.9024e-02,-1.47656,1.53656
-1.9020e-02,-1.47719,1.53563
-1.9016e-02,-1.47656,1.53406
-1.9012e-02,-1.47906,1.53469
-1.9008e-02,-1.47625,1.53344
-1.9004e-02,-1.475,1.53344
-1.9000e-02,-1.47875,1.53313
-1.8996e-02,-1.47906,1.53344
-1.8992e-02,-1.47406,1.53313
-1.8988e-02,-1.47562,1.53
-1.8984e-02,-1.47469,1.53063
-1.8980e-02,-1.47562,1.53156
-1.8976e-02,-1.475,1.5325
-1.8972e-02,-1.47469,1.53094
-1.8968e-02,-1.47375,1.53344
-1.8964e-02,-1.47406,1.53594
-1.8960e-02,-1.47469,1.535
-1.8956e-02,-1.47156,1.5325
-1.8952e-02,-1.47406,1.53344
-1.8948e-02,-1.47375,1.535
-1.8944e-02,-1.4725,1.53656
-1.8940e-02,-1.4725,1.53594
-1.8936e-02,-1.47063,1.53719
-1.8932e-02,-1.46813,1.53656
-1.8928e-02,-1.47094,1.53719
-1.8924e-02,-1.46844,1.53875
-1.8920e-02,-1.46687,1.54125
-1.8916e-02,-1.46188,1.54
-1.8912e-02,-1.46,1.54312
-1.8908e-02,-1.46094,1.54469
-1.8904e-02,-1.45688,1.54969
-1.8900e-02,-1.44719,1.55531
-1.8896e-02,-1.43969,1.56156
-1.8892e-02,-1.43719,1.56562
-1.8888e-02,-1.43094,1.57125
-1.8884e-02,-1.42344,1.57875
-1.8880e-02,-1.41219,1.58531
-1.8876e-02,-1.40719,1.59344
-1.8872e-02,-1.39781,1.6025
-1.8868e-02,-1.39344,1.61125
-1.8864e-02,-1.38313,1.61844
-1.8860e-02,-1.37156,1.63
-1.8856e-02,-1.36406,1.64062
-1.8852e-02,-1.35219,1.64938
-1.8848e-02,-1.34313,1.66063
-1.8844e-02,-1.33031,1.67312
-1.8840e-02,-1.31562,1.68531
-1.8836e-02,-1.3075,1.69719
-1.8832e-02,-1.29688,1.70719
-1.8828e-02,-1.28469,1.71875
-1.8824e-02,-1.27344,1.73312
-1.8820e-02,-1.26281,1.74063
-1.8816e-02,-1.25438,1.75438
-1.8812e-02,-1.24313,1.76313
-1.8808e-02,-1.22844,1.77687
-1.8804e-02,-1.21656,1.78687
-1.8800e-02,-1.20281,1.79812
-1.8796e-02,-1.19125,1.80812
-1.8792e-02,-1.18625,1.815
-1.8788e-02,-1.17344,1.82594
-1.8784e-02,-1.16094,1.83969
-1.8780e-02,-1.15219,1.85
-1.8776e-02,-1.13937,1.86219
-1.8772e-02,-1.12688,1.87125
-1.8768e-02,-1.115,1.8825
-1.8764e-02,-1.105,1.89562
-1.8760e-02,-1.09375,1.90625
-1.8756e-02,-1.08625,1.91688
-1.8752e-02,-1.07187,1.9275
-1.8748e-02,-1.05969,1.93781
-1.8744e-02,-1.04812,1.95
-1.8740e-02,-1.03906,1.96062
-1.8736e-02,-1.03094,1.97187
-1.8732e-02,-1.015,1.98281
-1.8728e-02,-1.00656,1.99219
-1.8724e-02,-0.997187,2.00031
-1.8720e-02,-0.984687,2.01187
-1.8716e-02,-0.974063,2.02313
-1.8712e-02,-0.959687,2.03313
-1.8708e-02,-0.950937,2.04344
-1.8704e-02,-0.94,2.05344
-1.8700e-02,-0.930312,2.06562
-1.8696e-02,-0.918125,2.07594
-1.8692e-02,-0.905312,2.08656
-1.8688e-02,-0.896875,2.09625
-1.8684e-02,-0.886563,2.10938
-1.8680e-02,-0.875312,2.12062
-1.8676e-02,-0.864688,2.13281
-1.8672e-02,-0.853125,2.14406
-1.8668e-02,-0.8425,2.15656
-1.8664e-02,-0.832187,2.16938
-1.8660e-02,-0.82,2.17687
-1.8656e-02,-0.806875,2.18344
-1.8652e-02,-0.795313,2.19469
-1.8648e-02,-0.786563,2.20781
-1.8644e-02,-0.77625,2.21812
-1.8640e-02,-0.762188,2.23031
-1.8636e-02,-0.750625,2.24
-1.8632e-02,-0.737188,2.25469
-1.8628e-02,-0.72875,2.26375
-1.8624e-02,-0.715313,2.27406
-1.8620e-02,-0.70375,2.28313
-1.8616e-02,-0.69375,2.29563
-1.8612e-02,-0.681563,2.30594
-1.8608e-02,-0.67625,2.31187
-1.8604e-02,-0.661563,2.32531
-1.8600e-02,-0.648438,2.33688
-1.8596e-02,-0.641875,2.3475
-1.8592e-02,-0.631562,2.35531
-1.8588e-02,-0.624062,2.36437
-1.8584e-02,-0.605625,2.37906
-1.8580e-02,-0.594062,2.39187
-1.8576e-02,-0.584375,2.405
-1.8572e-02,-0.574375,2.415
-1.8568e-02,-0.560938,2.42687
-1.8564e-02,-0.550312,2.43656
-1.8560e-02,-0.539687,2.44719
-1.8556e-02,-0.529688,2.45625
-1.8552e-02,-0.519375,2.46844
-1.8548e-02,-0.505313,2.48
-1.8544e-02,-0.491875,2.49281
-1.8540e-02,-0.48375,2.49844
-1.8536e-02,-0.474687,2.50812
-1.8532e-02,-0.458438,2.52031
-1.8528e-02,-0.44875,2.52625
-1.8524e-02,-0.44125,2.53344
-1.8520e-02,-0.433125,2.54563
-1.8516e-02,-0.426562,2.55531
-1.8512e-02,-0.412187,2.57
-1.8508e-02,-0.399062,2.58062
-1.8504e-02,-0.390312,2.58937
-1.8500e-02,-0.37875,2.59781
-1.8496e-02,-0.369687,2.61156
-1.8492e-02,-0.358437,2.61813
-1.8488e-02,-0.347187,2.62844
-1.8484e-02,-0.339688,2.63906
-1.8480e-02,-0.333125,2.64781
-1.8476e-02,-0.32,2.66094
-1.8472e-02,-0.308125,2.66844
-1.8468e-02,-0.3,2.67812
-1.8464e-02,-0.291562,2.69031
-1.8460e-02,-0.285937,2.69781
-1.8456e-02,-0.274062,2.70562
-1.8452e-02,-0.264063,2.71531
-1.8448e-02,-0.254375,2.72125
-1.8444e-02,-0.24625,2.73406
-1.8440e-02,-0.230938,2.74562
-1.8436e-02,-0.217812,2.75687
-1.8432e-02,-0.2075,2.76687
-1.8428e-02,-0.196562,2.77656
-1.8424e-02,-0.187187,2.78875
-1.8420e-02,-0.177812,2.79656
-1.8416e-02,-0.168438,2.80156
-1.8412e-02,-0.157812,2.81281
-1.8408e-02,-0.148125,2.82187
-1.8404e-02,-0.136562,2.83312
-1.8400e-02,-0.1275,2.84375
-1.8396e-02,-0.119375,2.85187
-1.8392e-02,-0.108125,2.86156
-1.8388e-02,-0.104062,2.86906
-1.8384e-02,-0.09375,2.87875
-1.8380e-02,-0.0871875,2.88781
-1.8376e-02,-0.078125,2.89687
-1.8372e-02,-0.07,2.90656
-1.8368e-02,-0.0609375,2.91469
-1.8364e-02,-0.0471875,2.925
-1.8360e-02,-0.035,2.93625
-1.8356e-02,-0.0246875,2.94313
-1.8352e-02,-0.0178125,2.95437
-1.8348e-02,-0.0065625,2.96344
-1.8344e-02,0.0025,2.96812
-1.8340e-02,0.01125,2.97687
-1.8336e-02,0.021875,2.98906
-1.8332e-02,0.0334375,2.99719
-1.8328e-02,0.045625,3.00719
-1.8324e-02,0.0559375,3.01625
-1.8320e-02,0.061875,3.02687
-1.8316e-02,0.070625,3.03781
-1.8312e-02,0.079375,3.04469
-1.8308e-02,0.08625,3.05281
-1.8304e-02,0.091875,3.06
-1.8300e-02,0.10125,3.06875
-1.8296e-02,0.11125,3.07844
-1.8292e-02,0.121875,3.08906
-1.8288e-02,0.136563,3.09906
-1.8284e-02,0.15,3.10938
-1.8280e-02,0.155938,3.11625
-1.8276e-02,0.16625,3.12844
-1.8272e-02,0.173125,3.13531
-1.8268e-02,0.18125,3.14125
-1.8264e-02,0.193125,3.15094
-1.8260e-02,0.197188,3.15813
-1.8256e-02,0.207187,3.16656
-1.8252e-02,0.219375,3.17781
-1.8248e-02,0.228438,3.18344
-1.8244e-02,0.237813,3.1925
-1.8240e-02,0.239375,3.20156
-1.8236e-02,0.246875,3.20969
-1.8232e-02,0.254062,3.215
-1.8228e-02,0.259688,3.21937
-1.8224e-02,0.26625,3.225
-1.8220e-02,0.270625,3.23
-1.8216e-02,0.278437,3.23531
-1.8212e-02,0.288437,3.23969
-1.8208e-02,0.295,3.24938
-1.8204e-02,0.300625,3.25406
-1.8200e-02,0.307812,3.26
-1.8196e-02,0.314375,3.26562
-1.8192e-02,0.321875,3.26938
-1.8188e-02,0.325625,3.27625
-1.8184e-02,0.325938,3.2825
-1.8180e-02,0.336875,3.2875
-1.8176e-02,0.344375,3.29375
-1.8172e-02,0.346875,3.29969
-1.8168e-02,0.3525,3.29969
-1.8164e-02,0.3525,3.30469
-1.8160e-02,0.359687,3.31125
-1.8156e-02,0.36625,3.31531
-1.8152e-02,0.372187,3.32094
-1.8148e-02,0.373438,3.31937
-1.8144e-02,0.374375,3.325
-1.8140e-02,0.383438,3.3275
-1.8136e-02,0.386563,3.33312
-1.8132e-02,0.3925,3.33844
-1.8128e-02,0.39625,3.345
-1.8124e-02,0.405938,3.35344
-1.8120e-02,0.415,3.35594
-1.8116e-02,0.415938,3.36062
-1.8112e-02,0.419062,3.36531
-1.8108e-02,0.423438,3.37094
-1.8104e-02,0.428125,3.37094
-1.8100e-02,0.429688,3.3775
-1.8096e-02,0.43625,3.38
-1.8092e-02,0.435313,3.385
-1.8088e-02,0.4425,3.38969
-1.8084e-02,0.449063,3.3925
-1.8080e-02,0.455,3.39781
-1.8076e-02,0.456563,3.40031
-1.8072e-02,0.459062,3.40469
-1.8068e-02,0.465313,3.4075
-1.8064e-02,0.470937,3.40875
-1.8060e-02,0.469688,3.41188
-1.8056e-02,0.469688,3.41437
-1.8052e-02,0.474375,3.41656
-1.8048e-02,0.481875,3.42094
-1.8044e-02,0.488437,3.425
-1.8040e-02,0.489063,3.42719
-1.8036e-02,0.49375,3.43219
-1.8032e-02,0.49875,3.43844
-1.8028e-02,0.502187,3.44
-1.8024e-02,0.506875,3.44125
-1.8020e-02,0.508438,3.44656
-1.8016e-02,0.509375,3.45063
-1.8012e-02,0.514375,3.45344
-1.8008e-02,0.515937,3.45719
-1.8004e-02,0.518125,3.46031
-1.8000e-02,0.522188,3.46281
-1.7996e-02,0.524063,3.46312
-1.7992e-02,0.529688,3.46781
-1.7988e-02,0.532813,3.47031
-1.7984e-02,0.532813,3.47438
-1.7980e-02,0.53625,3.475
-1.7976e-02,0.540938,3.47938
-1.7972e-02,0.5475,3.4825
-1.7968e-02,0.5425,3.48188
-1.7964e-02,0.544062,3.48313
-1.7960e-02,0.545313,3.48562
-1.7956e-02,0.5475,3.48594
-1.7952e-02,0.5525,3.4875
-1.7948e-02,0.555,3.49156
-1.7944e-02,0.55875,3.49688
-1.7940e-02,0.55875,3.49969
-1.7936e-02,0.567813,3.50219
-1.7932e-02,0.570312,3.505
-1.7928e-02,0.571875,3.50687
-1.7924e-02,0.57375,3.51187
-1.7920e-02,0.577813,3.51437
-1.7916e-02,0.578437,3.51437
-1.7912e-02,0.581563,3.51719
-1.7908e-02,0.583125,3.51844
-1.7904e-02,0.584062,3.52
-1.7900e-02,0.584688,3.52
-1.7896e-02,0.5875,3.52406
-1.7892e-02,0.59,3.52531
-1.7888e-02,0.593125,3.52781
-1.7884e-02,0.595625,3.52937
-1.7880e-02,0.602188,3.53375
-1.7876e-02,0.600313,3.53469
-1.7872e-02,0.601875,3.53688
-1.7868e-02,0.600937,3.53844
-1.7864e-02,0.602812,3.53781
-1.7860e-02,0.602812,3.5375
-1.7856e-02,0.60375,3.54094
-1.7852e-02,0.605,3.53875
-1.7848e-02,0.604375,3.54406
-1.7844e-02,0.60625,3.5475
-1.7840e-02,0.611562,3.545
-1.7836e-02,0.607813,3.54656
-1.7832e-02,0.610313,3.54688
-1.7828e-02,0.611875,3.54844
-1.7824e-02,0.614063,3.54969
-1.7820e-02,0.615,3.55219
-1.7816e-02,0.613125,3.55219
-1.7812e-02,0.615,3.5525
-1.7808e-02,0.618437,3.5525
-1.7804e-02,0.619063,3.55625
-1.7800e-02,0.618437,3.55906
-1.7796e-02,0.619688,3.55906
-1.7792e-02,0.62,3.55812
-1.7788e-02,0.623125,3.56062
-1.7784e-02,0.62875,3.56188
-1.7780e-02,0.626563,3.56469
-1.7776e-02,0.627187,3.56219
-1.7772e-02,0.631875,3.56531
-1.7768e-02,0.633438,3.56438
-1.7764e-02,0.634375,3.56688
-1.7760e-02,0.632187,3.56688
-1.7756e-02,0.63125,3.56844
-1.7752e-02,0.638438,3.56719
-1.7748e-02,0.637812,3.56781
-1.7744e-02,0.640313,3.57094
-1.7740e-02,0.638438,3.57687
-1.7736e-02,0.64,3.57437
-1.7732e-02,0.645,3.57531
-1.7728e-02,0.645,3.57937
-1.7724e-02,0.644063,3.57812
-1.7720e-02,0.642812,3.58094
-1.7716e-02,0.641875,3.58062
-1.7712e-02,0.646562,3.58062
-1.7708e-02,0.649687,3.585
-1.7704e-02,0.645938,3.58469
-1.7700e-02,0.648125,3.58719
-1.7696e-02,0.649063,3.58812
-1.7692e-02,0.648125,3.59031
-1.7688e-02,0.6475,3.59219
-1.7684e-02,0.650938,3.59219
-1.7680e-02,0.65375,3.59469
-1.7676e-02,0.655625,3.59625
-1.7672e-02,0.658125,3.59531
-1.7668e-02,0.654063,3.59875
-1.7664e-02,0.655625,3.59938
-1.7660e-02,0.657813,3.59781
-1.7656e-02,0.658125,3.60094
-1.7652e-02,0.65875,3.60188
-1.7648e-02,0.659063,3.6025
-1.7644e-02,0.658125,3.59938
-1.7640e-02,0.660312,3.60438
-1.7636e-02,0.659688,3.60844
-1.7632e-02,0.66125,3.6075
-1.7628e-02,0.660625,3.61187
-1.7624e-02,0.660625,3.61156
-1.7620e-02,0.662813,3.60906
-1.7616e-02,0.663125,3.61
-1.7612e-02,0.662187,3.61313
-1.7608e-02,0.663125,3.615
-1.7604e-02,0.664688,3.61313
-1.7600e-02,0.667187,3.61719
-1.7596e-02,0.66625,3.61656
-1.7592e-02,0.66625,3.61875
-1.7588e-02,0.665938,3.61906
-1.7584e-02,0.667187,3.62062
-1.7580e-02,0.67125,3.61875
-1.7576e-02,0.667813,3.62125
-1.7572e-02,0.665312,3.62156
-1.7568e-02,0.669375,3.62469
-1.7564e-02,0.672813,3.62469
-1.7560e-02,0.669375,3.62375
-1.7556e-02,0.670937,3.62719
-1.7552e-02,0.671875,3.62688
-1.7548e-02,0.671875,3.63125
-1.7544e-02,0.675,3.63125
-1.7540e-02,0.672813,3.63031
-1.7536e-02,0.671875,3.63219
-1.7532e-02,0.675313,3.63375
-1.7528e-02,0.674375,3.63187
-1.7524e-02,0.675,3.63344
-1.7520e-02,0.672813,3.63625
-1.7516e-02,0.67125,3.63844
-1.7512e-02,0.676875,3.63781
-1.7508e-02,0.680625,3.64031
-1.7504e-02,0.6775,3.63937
-1.7500e-02,0.678438,3.64438
-1.7496e-02,0.678438,3.64344
-1.7492e-02,0.683125,3.645
-1.7488e-02,0.679375,3.64438
-1.7484e-02,0.68,3.64594
-1.7480e-02,0.679375,3.64719
-1.7476e-02,0.68,3.6475
-1.7472e-02,0.683125,3.65062
-1.7468e-02,0.684063,3.65
-1.7464e-02,0.681563,3.65219
-1.7460e-02,0.681563,3.65125
-1.7456e-02,0.681563,3.6525
-1.7452e-02,0.6825,3.65375
-1.7448e-02,0.682188,3.65375
-1.7444e-02,0.678438,3.65469
-1.7440e-02,0.680937,3.65156
-1.7436e-02,0.6825,3.65656
-1.7432e-02,0.682188,3.65531
-1.7428e-02,0.682188,3.65719
-1.7424e-02,0.679375,3.65875
-1.7420e-02,0.6825,3.65875
-1.7416e-02,0.683438,3.66188
-1.7412e-02,0.684063,3.66344
-1.7408e-02,0.682188,3.66531
-1.7404e-02,0.684063,3.66531
-1.7400e-02,0.685625,3.66781
-1.7396e-02,0.6875,3.66938
-1.7392e-02,0.684687,3.67
-1.7388e-02,0.689063,3.67188
-1.7384e-02,0.689687,3.67437
-1.7380e-02,0.687188,3.67344
-1.7376e-02,0.6875,3.67656
-1.7372e-02,0.690313,3.67969
-1.7368e-02,0.690313,3.67656
-1.7364e-02,0.690313,3.68
-1.7360e-02,0.693125,3.67813
-1.7356e-02,0.693125,3.68
-1.7352e-02,0.690313,3.68063
-1.7348e-02,0.692188,3.6825
-1.7344e-02,0.694375,3.67813
-1.7340e-02,0.692188,3.68156
-1.7336e-02,0.690313,3.68406
-1.7332e-02,0.689063,3.68562
-1.7328e-02,0.690625,3.68406
-1.7324e-02,0.692188,3.685
-1.7320e-02,0.692813,3.68562
-1.7316e-02,0.691562,3.68719
-1.7312e-02,0.693125,3.69062
-1.7308e-02,0.69625,3.68969
-1.7304e-02,0.694687,3.69125
-1.7300e-02,0.693125,3.69375
-1.7296e-02,0.691562,3.69625
-1.7292e-02,0.694375,3.69781
-1.7288e-02,0.696875,3.69719
-1.7284e-02,0.69625,3.69875
-1.7280e-02,0.694375,3.69594
-1.7276e-02,0.693125,3.70125
-1.7272e-02,0.697188,3.69937
-1.7268e-02,0.698437,3.70125
-1.7264e-02,0.697813,3.70187
-1.7260e-02,0.694375,3.705
-1.7256e-02,0.692188,3.70125
-1.7252e-02,0.694687,3.70437
-1.7248e-02,0.695625,3.70531
