Report/Part 1.4/Full Rectifier circuits/Bridge With Filter/tek0000.csv

Model,MSO3012
Firmware Version,2.40

Waveform Type,ANALOG,
Point Format,Y,
Horizontal Units,s,
Horizontal Scale,0.004,
Horizontal Delay,0,
Sample Interval,4e-06,
Record Length,10000,
Gating,0.0% to 100.0%,
Probe Attenuation,1,
Vertical Units,V,
Vertical Offset,0,
Vertical Scale,2,
Vertical Position,2,
,,
,,
,,
Label,,
TIME,CH1,CH2
-2.0000e-02,-1.72031,1.35531
-1.9996e-02,-1.71188,1.36125
-1.9992e-02,-1.70469,1.36813
-1.9988e-02,-1.70125,1.37219
-1.9984e-02,-1.69719,1.37719
-1.9980e-02,-1.6925,1.38125
-1.9976e-02,-1.68625,1.38563
-1.9972e-02,-1.68187,1.39187
-1.9968e-02,-1.67531,1.39281
-1.9964e-02,-1.67281,1.40062
-1.9960e-02,-1.66906,1.40312
-1.9956e-02,-1.66344,1.40813
-1.9952e-02,-1.65844,1.41281
-1.9948e-02,-1.655,1.41562
-1.9944e-02,-1.65187,1.42031
-1.9940e-02,-1.64781,1.42687
-1.9936e-02,-1.64312,1.42844
-1.9932e-02,-1.64219,1.435
-1.9928e-02,-1.64031,1.43812
-1.9924e-02,-1.635,1.43906
-1.9920e-02,-1.63094,1.43906
-1.9916e-02,-1.63,1.44312
-1.9912e-02,-1.62594,1.44531
-1.9908e-02,-1.62438,1.44781
-1.9904e-02,-1.61937,1.45063
-1.9900e-02,-1.61844,1.45594
-1.9896e-02,-1.61469,1.45625
-1.9892e-02,-1.61187,1.46344
-1.9888e-02,-1.61031,1.46344
-1.9884e-02,-1.60562,1.46656
-1.9880e-02,-1.60219,1.46813
-1.9876e-02,-1.60094,1.46656
-1.9872e-02,-1.59906,1.46813
-1.9868e-02,-1.59813,1.47
-1.9864e-02,-1.595,1.47469
-1.9860e-02,-1.59187,1.47562
-1.9856e-02,-1.58875,1.47969
-1.9852e-02,-1.59,1.47969
-1.9848e-02,-1.58469,1.47875
-1.9844e-02,-1.58438,1.48281
-1.9840e-02,-1.58125,1.48469
-1.9836e-02,-1.57812,1.48375
-1.9832e-02,-1.57875,1.49
-1.9828e-02,-1.57531,1.48781
-1.9824e-02,-1.57125,1.49031
-1.9820e-02,-1.57125,1.4925
-1.9816e-02,-1.57156,1.49406
-1.9812e-02,-1.57,1.49531
-1.9808e-02,-1.56656,1.495
-1.9804e-02,-1.56562,1.49938
-1.9800e-02,-1.565,1.5
-1.9796e-02,-1.5625,1.50094
-1.9792e-02,-1.56094,1.50062
-1.9788e-02,-1.56,1.50219
-1.9784e-02,-1.55937,1.50312
-1.9780e-02,-1.55844,1.505
-1.9776e-02,-1.55594,1.50562
-1.9772e-02,-1.55437,1.50719
-1.9768e-02,-1.55187,1.5075
-1.9764e-02,-1.55094,1.51313
-1.9760e-02,-1.55187,1.51063
-1.9756e-02,-1.55375,1.51031
-1.9752e-02,-1.54875,1.51219
-1.9748e-02,-1.54625,1.51313
-1.9744e-02,-1.54719,1.51219
-1.9740e-02,-1.54688,1.51781
-1.9736e-02,-1.54406,1.51781
-1.9732e-02,-1.54156,1.51719
-1.9728e-02,-1.54,1.51938
-1.9724e-02,-1.54219,1.51969
-1.9720e-02,-1.53875,1.525
-1.9716e-02,-1.53594,1.52375
-1.9712e-02,-1.53875,1.525
-1.9708e-02,-1.53656,1.5225
-1.9704e-02,-1.53594,1.52188
-1.9700e-02,-1.535,1.52656
-1.9696e-02,-1.53563,1.52781
-1.9692e-02,-1.53344,1.52781
-1.9688e-02,-1.535,1.52906
-1.9684e-02,-1.53187,1.52844
-1.9680e-02,-1.53063,1.5275
-1.9676e-02,-1.52906,1.52937
-1.9672e-02,-1.53,1.5275
-1.9668e-02,-1.53063,1.52844
-1.9664e-02,-1.52844,1.52844
-1.9660e-02,-1.5275,1.53
-1.9656e-02,-1.52438,1.53094
-1.9652e-02,-1.52531,1.53156
-1.9648e-02,-1.525,1.53156
-1.9644e-02,-1.5225,1.53406
-1.9640e-02,-1.51938,1.53313
-1.9636e-02,-1.52031,1.53187
-1.9632e-02,-1.51938,1.53594
-1.9628e-02,-1.51844,1.53563
-1.9624e-02,-1.51625,1.53594
-1.9620e-02,-1.51375,1.53344
-1.9616e-02,-1.51875,1.53406
-1.9612e-02,-1.51844,1.53656
-1.9608e-02,-1.51562,1.53469
-1.9604e-02,-1.51437,1.53656
-1.9600e-02,-1.51219,1.53875
-1.9596e-02,-1.51281,1.535
-1.9592e-02,-1.51281,1.53406
-1.9588e-02,-1.51156,1.53469
-1.9584e-02,-1.51281,1.53313
-1.9580e-02,-1.51125,1.53344
-1.9576e-02,-1.51125,1.53594
-1.9572e-02,-1.51031,1.5375
-1.9568e-02,-1.5075,1.53563
-1.9564e-02,-1.50906,1.5375
-1.9560e-02,-1.51125,1.5375
-1.9556e-02,-1.50906,1.53969
-1.9552e-02,-1.50813,1.53906
-1.9548e-02,-1.50875,1.53875
-1.9544e-02,-1.50625,1.53812
-1.9540e-02,-1.50906,1.53969
-1.9536e-02,-1.50906,1.53656
-1.9532e-02,-1.50719,1.53656
-1.9528e-02,-1.50344,1.53812
-1.9524e-02,-1.50469,1.53812
-1.9520e-02,-1.505,1.54
-1.9516e-02,-1.50344,1.54156
-1.9512e-02,-1.5025,1.54062
-1.9508e-02,-1.50219,1.53969
-1.9504e-02,-1.50406,1.54062
-1.9500e-02,-1.50312,1.54062
-1.9496e-02,-1.50219,1.54125
-1.9492e-02,-1.49938,1.53906
-1.9488e-02,-1.50156,1.53969
-1.9484e-02,-1.50062,1.53969
-1.9480e-02,-1.50219,1.54
-1.9476e-02,-1.50062,1.53719
-1.9472e-02,-1.5,1.5375
-1.9468e-02,-1.49938,1.53812
-1.9464e-02,-1.5,1.53969
-1.9460e-02,-1.49812,1.53906
-1.9456e-02,-1.49656,1.54
-1.9452e-02,-1.49812,1.54062
-1.9448e-02,-1.49938,1.54062
-1.9444e-02,-1.5,1.54
-1.9440e-02,-1.49844,1.53969
-1.9436e-02,-1.49594,1.54219
-1.9432e-02,-1.4975,1.54281
-1.9428e-02,-1.49812,1.54125
-1.9424e-02,-1.4975,1.54062
-1.9420e-02,-1.4975,1.54219
-1.9416e-02,-1.49844,1.53969
-1.9412e-02,-1.49844,1.53906
-1.9408e-02,-1.49906,1.54281
-1.9404e-02,-1.5,1.54062
-1.9400e-02,-1.49406,1.54
-1.9396e-02,-1.49344,1.54125
-1.9392e-02,-1.49594,1.54
-1.9388e-02,-1.495,1.54156
-1.9384e-02,-1.4975,1.53969
-1.9380e-02,-1.49344,1.53969
-1.9376e-02,-1.495,1.53875
-1.9372e-02,-1.49844,1.54125
-1.9368e-02,-1.49594,1.53906
-1.9364e-02,-1.49531,1.54125
-1.9360e-02,-1.49281,1.54062
-1.9356e-02,-1.4975,1.54062
-1.9352e-02,-1.4975,1.54062
-1.9348e-02,-1.49406,1.5375
-1.9344e-02,-1.49437,1.53875
-1.9340e-02,-1.49656,1.54062
-1.9336e-02,-1.49656,1.54
-1.9332e-02,-1.49531,1.53812
-1.9328e-02,-1.49594,1.53875
-1.9324e-02,-1.495,1.54
-1.9320e-02,-1.49531,1.53969
-1.9316e-02,-1.49656,1.54156
-1.9312e-02,-1.495,1.53812
-1.9308e-02,-1.49437,1.53875
-1.9304e-02,-1.49344,1.53875
-1.9300e-02,-1.49281,1.53969
-1.9296e-02,-1.4925,1.53719
-1.9292e-02,-1.49,1.54062
-1.9288e-02,-1.49094,1.5375
-1.9284e-02,-1.49281,1.53812
-1.9280e-02,-1.49125,1.53906
-1.9276e-02,-1.49281,1.53906
-1.9272e-02,-1.49281,1.53969
-1.9268e-02,-1.49125,1.5375
-1.9264e-02,-1.49281,1.53906
-1.9260e-02,-1.4925,1.53906
-1.9256e-02,-1.49094,1.53875
-1.9252e-02,-1.49031,1.54281
-1.9248e-02,-1.49031,1.54312
-1.9244e-02,-1.48937,1.54156
-1.9240e-02,-1.48937,1.54
-1.9236e-02,-1.48844,1.53906
-1.9232e-02,-1.48781,1.53875
-1.9228e-02,-1.49,1.53875
-1.9224e-02,-1.4925,1.53563
-1.9220e-02,-1.49187,1.53594
-1.9216e-02,-1.48937,1.53563
-1.9212e-02,-1.48781,1.53656
-1.9208e-02,-1.49,1.53563
-1.9204e-02,-1.48875,1.53469
-1.9200e-02,-1.49,1.53594
-1.9196e-02,-1.48687,1.5375
-1.9192e-02,-1.48875,1.5375
-1.9188e-02,-1.49094,1.5375
-1.9184e-02,-1.49125,1.53344
-1.9180e-02,-1.48937,1.53344
-1.9176e-02,-1.48719,1.53719
-1.9172e-02,-1.48781,1.535
-1.9168e-02,-1.49,1.53406
-1.9164e-02,-1.48687,1.53656
-1.9160e-02,-1.48469,1.53313
-1.9156e-02,-1.48687,1.53187
-1.9152e-02,-1.48687,1.53469
-1.9148e-02,-1.48594,1.53656
-1.9144e-02,-1.48219,1.53656
-1.9140e-02,-1.48312,1.53719
-1.9136e-02,-1.48188,1.53406
-1.9132e-02,-1.48469,1.53719
-1.9128e-02,-1.48375,1.5375
-1.9124e-02,-1.48281,1.53594
-1.9120e-02,-1.47875,1.53563
-1.9116e-02,-1.48031,1.535
-1.9112e-02,-1.48125,1.53563
-1.9108e-02,-1.48219,1.53594
-1.9104e-02,-1.47875,1.53406
-1.9100e-02,-1.48219,1.53313
-1.9096e-02,-1.48219,1.53156
-1.9092e-02,-1.48188,1.5325
-1.9088e-02,-1.48062,1.53187
-1.9084e-02,-1.47906,1.52844
-1.9080e-02,-1.48219,1.53156
-1.9076e-02,-1.48219,1.53094
-1.9072e-02,-1.48125,1.53187
-1.9068e-02,-1.48031,1.52937
-1.9064e-02,-1.48062,1.52937
-1.9060e-02,-1.48312,1.53
-1.9056e-02,-1.48219,1.52781
-1.9052e-02,-1.48188,1.52937
-1.9048e-02,-1.47906,1.53094
-1.9044e-02,-1.47906,1.52937
-1.9040e-02,-1.48125,1.53094
-1.9036e-02,-1.47875,1.52844
-1.9032e-02,-1.47812,1.5325
-1.9028e-02,-1.47656,1.53094
-1.9024e-02,-1.47875,1.53156
-1.9020e-02,-1.47781,1.53187
-1.9016e-02,-1.47812,1.5325
-1.9012e-02,-1.47719,1.52844
-1.9008e-02,-1.47656,1.53063
-1.9004e-02,-1.47781,1.52937
-1.9000e-02,-1.47969,1.53
-1.8996e-02,-1.47812,1.53063
-1.8992e-02,-1.47625,1.53063
-1.8988e-02,-1.47875,1.53
-1.8984e-02,-1.47812,1.53187
-1.8980e-02,-1.47906,1.53313
-1.8976e-02,-1.47906,1.53187
-1.8972e-02,-1.47812,1.52906
-1.8968e-02,-1.47781,1.52937
-1.8964e-02,-1.47875,1.53063
-1.8960e-02,-1.47656,1.52937
-1.8956e-02,-1.47781,1.52781
-1.8952e-02,-1.47562,1.53187
-1.8948e-02,-1.47562,1.52906
-1.8944e-02,-1.47562,1.53094
-1.8940e-02,-1.47625,1.52844
-1.8936e-02,-1.47469,1.53
-1.8932e-02,-1.47406,1.53063
-1.8928e-02,-1.47406,1.53406
-1.8924e-02,-1.47375,1.53313
-1.8920e-02,-1.47219,1.53156
-1.8916e-02,-1.47,1.52937
-1.8912e-02,-1.46906,1.53344
-1.8908e-02,-1.46906,1.53187
-1.8904e-02,-1.46562,1.53406
-1.8900e-02,-1.46094,1.53344
-1.8896e-02,-1.46031,1.53875
-1.8892e-02,-1.45844,1.54406
-1.8888e-02,-1.45469,1.54969
-1.8884e-02,-1.44719,1.55187
-1.8880e-02,-1.44375,1.55781
-1.8876e-02,-1.43906,1.56406
-1.8872e-02,-1.4325,1.57063
-1.8868e-02,-1.42344,1.57625
-1.8864e-02,-1.41406,1.58469
-1.8860e-02,-1.40969,1.59437
-1.8856e-02,-1.39938,1.60094
-1.8852e-02,-1.39187,1.60875
-1.8848e-02,-1.38219,1.61719
-1.8844e-02,-1.37344,1.62844
-1.8840e-02,-1.36344,1.63875
-1.8836e-02,-1.35719,1.64719
-1.8832e-02,-1.34656,1.65844
-1.8828e-02,-1.33281,1.66969
-1.8824e-02,-1.32437,1.68125
-1.8820e-02,-1.31469,1.69156
-1.8816e-02,-1.30313,1.70531
-1.8812e-02,-1.29094,1.71594
-1.8808e-02,-1.2775,1.72437
-1.8804e-02,-1.26656,1.73312
-1.8800e-02,-1.25687,1.74375
-1.8796e-02,-1.24562,1.755
-1.8792e-02,-1.235,1.76562
-1.8788e-02,-1.22313,1.77875
-1.8784e-02,-1.2125,1.79312
-1.8780e-02,-1.20187,1.80313
-1.8776e-02,-1.19125,1.81219
-1.8772e-02,-1.17719,1.82031
-1.8768e-02,-1.16625,1.83219
-1.8764e-02,-1.15687,1.84344
-1.8760e-02,-1.145,1.85438
-1.8756e-02,-1.12938,1.86563
-1.8752e-02,-1.12031,1.87844
-1.8748e-02,-1.10812,1.89
-1.8744e-02,-1.09844,1.90156
-1.8740e-02,-1.08781,1.91344
-1.8736e-02,-1.07406,1.92344
-1.8732e-02,-1.06219,1.93375
-1.8728e-02,-1.05125,1.94375
-1.8724e-02,-1.04094,1.95594
-1.8720e-02,-1.02625,1.96563
-1.8716e-02,-1.0125,1.97875
-1.8712e-02,-1.005,1.98656
-1.8708e-02,-0.99625,1.99406
-1.8704e-02,-0.985625,2.00625
-1.8700e-02,-0.975312,2.02
-1.8696e-02,-0.962813,2.03219
-1.8692e-02,-0.9525,2.04125
-1.8688e-02,-0.9425,2.05344
-1.8684e-02,-0.927812,2.06562
-1.8680e-02,-0.915625,2.07781
-1.8676e-02,-0.902813,2.08844
-1.8672e-02,-0.897187,2.09969
-1.8668e-02,-0.884688,2.1125
-1.8664e-02,-0.872812,2.12156
-1.8660e-02,-0.859687,2.12906
-1.8656e-02,-0.8525,2.14094
-1.8652e-02,-0.8425,2.15313
-1.8648e-02,-0.832187,2.16125
-1.8644e-02,-0.819688,2.1725
-1.8640e-02,-0.811562,2.18312
-1.8636e-02,-0.79875,2.19406
-1.8632e-02,-0.7875,2.20688
-1.8628e-02,-0.775,2.21594
-1.8624e-02,-0.765312,2.23031
-1.8620e-02,-0.7525,2.24156
-1.8616e-02,-0.743437,2.25156
-1.8612e-02,-0.732813,2.25875
-1.8608e-02,-0.719062,2.26844
-1.8604e-02,-0.707187,2.28062
-1.8600e-02,-0.697188,2.29312
-1.8596e-02,-0.686562,2.3025
-1.8592e-02,-0.673437,2.31406
-1.8588e-02,-0.659687,2.32281
-1.8584e-02,-0.648438,2.33688
-1.8580e-02,-0.64125,2.3425
-1.8576e-02,-0.633125,2.35
-1.8572e-02,-0.62,2.36187
-1.8568e-02,-0.60625,2.375
-1.8564e-02,-0.5975,2.38719
-1.8560e-02,-0.586875,2.39844
-1.8556e-02,-0.577812,2.41
-1.8552e-02,-0.566562,2.41969
-1.8548e-02,-0.555,2.42938
-1.8544e-02,-0.545313,2.44062
-1.8540e-02,-0.536563,2.45156
-1.8536e-02,-0.524375,2.46031
-1.8532e-02,-0.510312,2.47031
-1.8528e-02,-0.500625,2.48156
-1.8524e-02,-0.489375,2.49437
-1.8520e-02,-0.479687,2.50344
-1.8516e-02,-0.466562,2.51406
-1.8512e-02,-0.455312,2.52375
-1.8508e-02,-0.444375,2.53594
-1.8504e-02,-0.437812,2.54406
-1.8500e-02,-0.424375,2.55531
-1.8496e-02,-0.410625,2.56344
-1.8492e-02,-0.399062,2.57469
-1.8488e-02,-0.390312,2.58719
-1.8484e-02,-0.38125,2.595
-1.8480e-02,-0.368125,2.6075
-1.8476e-02,-0.356875,2.61813
-1.8472e-02,-0.350312,2.62781
-1.8468e-02,-0.343125,2.63687
-1.8464e-02,-0.331562,2.64875
-1.8460e-02,-0.32,2.65781
-1.8456e-02,-0.309063,2.66906
-1.8452e-02,-0.300937,2.67969
-1.8448e-02,-0.2925,2.68844
-1.8444e-02,-0.279375,2.69937
-1.8440e-02,-0.27125,2.70406
-1.8436e-02,-0.261875,2.71125
-1.8432e-02,-0.255937,2.72094
-1.8428e-02,-0.24875,2.72938
-1.8424e-02,-0.230625,2.73813
-1.8420e-02,-0.216875,2.75031
-1.8416e-02,-0.205625,2.76187
-1.8412e-02,-0.199375,2.77219
-1.8408e-02,-0.18875,2.78219
-1.8404e-02,-0.17875,2.78937
-1.8400e-02,-0.166875,2.79812
-1.8396e-02,-0.159375,2.80563
-1.8392e-02,-0.150625,2.81625
-1.8388e-02,-0.140625,2.82844
-1.8384e-02,-0.131562,2.83656
-1.8380e-02,-0.12125,2.84781
-1.8376e-02,-0.112188,2.85781
-1.8372e-02,-0.101562,2.86406
-1.8368e-02,-0.0925,2.87375
-1.8364e-02,-0.0853125,2.88219
-1.8360e-02,-0.075625,2.89187
-1.8356e-02,-0.07,2.9
-1.8352e-02,-0.056875,2.91031
-1.8348e-02,-0.04375,2.91875
-1.8344e-02,-0.035625,2.93219
-1.8340e-02,-0.0278125,2.93812
-1.8336e-02,-0.0196875,2.94531
-1.8332e-02,-0.008125,2.955
-1.8328e-02,0.00375,2.96656
-1.8324e-02,0.0121875,2.97406
-1.8320e-02,0.0171875,2.98219
-1.8316e-02,0.029375,2.99406
-1.8312e-02,0.0428125,3.00375
-1.8308e-02,0.0559375,3.01344
-1.8304e-02,0.063125,3.02344
-1.8300e-02,0.070625,3.0325
-1.8296e-02,0.0809375,3.03969
-1.8292e-02,0.0890625,3.04469
-1.8288e-02,0.095625,3.05125
-1.8284e-02,0.10375,3.05844
-1.8280e-02,0.11125,3.0675
-1.8276e-02,0.121875,3.07625
-1.8272e-02,0.13625,3.09313
-1.8268e-02,0.14625,3.10219
-1.8264e-02,0.156875,3.11375
-1.8260e-02,0.16625,3.12094
-1.8256e-02,0.177812,3.13063
-1.8252e-02,0.184375,3.13375
-1.8248e-02,0.191562,3.14625
-1.8244e-02,0.199063,3.15437
-1.8240e-02,0.20875,3.16
-1.8236e-02,0.219062,3.16875
-1.8232e-02,0.227188,3.17844
-1.8228e-02,0.23375,3.18531
-1.8224e-02,0.241875,3.19219
-1.8220e-02,0.252813,3.1975
-1.8216e-02,0.259688,3.20531
-1.8212e-02,0.263125,3.21125
-1.8208e-02,0.26875,3.22
-1.8204e-02,0.27375,3.2225
-1.8200e-02,0.284375,3.23125
-1.8196e-02,0.292187,3.23625
-1.8192e-02,0.298125,3.24625
-1.8188e-02,0.304375,3.25312
-1.8184e-02,0.308438,3.25812
-1.8180e-02,0.315938,3.26406
-1.8176e-02,0.324063,3.26781
-1.8172e-02,0.325938,3.27344
-1.8168e-02,0.33,3.27875
-1.8164e-02,0.342812,3.285
-1.8160e-02,0.345313,3.28844
-1.8156e-02,0.349375,3.29219
-1.8152e-02,0.351562,3.29812
-1.8148e-02,0.358437,3.30281
-1.8144e-02,0.366562,3.30625
-1.8140e-02,0.37125,3.31281
-1.8136e-02,0.372187,3.32
-1.8132e-02,0.372813,3.32
-1.8128e-02,0.374688,3.32313
-1.8124e-02,0.3825,3.32469
-1.8120e-02,0.386875,3.33156
-1.8116e-02,0.390937,3.33719
-1.8112e-02,0.397188,3.34125
-1.8108e-02,0.40625,3.34781
-1.8104e-02,0.414375,3.35312
-1.8100e-02,0.4175,3.35719
-1.8096e-02,0.419062,3.36
-1.8092e-02,0.427188,3.36719
-1.8088e-02,0.429688,3.36625
-1.8084e-02,0.433125,3.37031
-1.8080e-02,0.435313,3.37281
-1.8076e-02,0.435625,3.3775
-1.8072e-02,0.443437,3.38
-1.8068e-02,0.449063,3.38312
-1.8064e-02,0.451563,3.38656
-1.8060e-02,0.454688,3.39312
-1.8056e-02,0.459688,3.39531
-1.8052e-02,0.464688,3.40031
-1.8048e-02,0.470937,3.40281
-1.8044e-02,0.472812,3.40687
-1.8040e-02,0.472188,3.40937
-1.8036e-02,0.47625,3.41344
-1.8032e-02,0.485,3.41656
-1.8028e-02,0.485,3.42063
-1.8024e-02,0.485625,3.4225
-1.8020e-02,0.4875,3.42625
-1.8016e-02,0.497813,3.43063
-1.8012e-02,0.501875,3.43312
-1.8008e-02,0.505313,3.43781
-1.8004e-02,0.506875,3.44094
-1.8000e-02,0.514375,3.44188
-1.7996e-02,0.515937,3.44437
-1.7992e-02,0.52,3.44906
-1.7988e-02,0.520938,3.45469
-1.7984e-02,0.52375,3.45469
-1.7980e-02,0.527813,3.45969
-1.7976e-02,0.53125,3.46312
-1.7972e-02,0.53625,3.46687
-1.7968e-02,0.536875,3.46937
-1.7964e-02,0.540938,3.47187
-1.7960e-02,0.546563,3.47375
-1.7956e-02,0.5475,3.47594
-1.7952e-02,0.548438,3.47938
-1.7948e-02,0.549375,3.48
-1.7944e-02,0.549375,3.48156
-1.7940e-02,0.554062,3.48313
-1.7936e-02,0.55625,3.48656
-1.7932e-02,0.555625,3.48719
-1.7928e-02,0.5575,3.48969
-1.7924e-02,0.562812,3.49219
-1.7920e-02,0.56875,3.49875
-1.7916e-02,0.566875,3.50219
-1.7912e-02,0.567188,3.50438
-1.7908e-02,0.570938,3.50375
-1.7904e-02,0.574375,3.50594
-1.7900e-02,0.579063,3.50594
-1.7896e-02,0.579375,3.5075
-1.7892e-02,0.579375,3.51
-1.7888e-02,0.584688,3.51187
-1.7884e-02,0.586563,3.51344
-1.7880e-02,0.5875,3.51562
-1.7876e-02,0.5875,3.51719
-1.7872e-02,0.59125,3.52125
-1.7868e-02,0.593125,3.52156
-1.7864e-02,0.59625,3.52469
-1.7860e-02,0.59875,3.52562
-1.7856e-02,0.600313,3.52531
-1.7852e-02,0.603438,3.52969
-1.7848e-02,0.605313,3.52969
-1.7844e-02,0.606875,3.53063
-1.7840e-02,0.605313,3.53375
-1.7836e-02,0.60625,3.53344
-1.7832e-02,0.608437,3.53375
-1.7828e-02,0.61,3.53281
-1.7824e-02,0.610313,3.53531
-1.7820e-02,0.609063,3.5375
-1.7816e-02,0.610938,3.54094
-1.7812e-02,0.615,3.54188
-1.7808e-02,0.618125,3.5425
-1.7804e-02,0.618437,3.54438
-1.7800e-02,0.619063,3.54594
-1.7796e-02,0.6225,3.54906
-1.7792e-02,0.623125,3.54906
-1.7788e-02,0.624688,3.55313
-1.7784e-02,0.624688,3.5525
-1.7780e-02,0.623125,3.555
-1.7776e-02,0.625625,3.5525
-1.7772e-02,0.630313,3.55563
-1.7768e-02,0.629375,3.55719
-1.7764e-02,0.629375,3.55906
-1.7760e-02,0.631875,3.55875
-1.7756e-02,0.63125,3.55875
-1.7752e-02,0.634375,3.56219
-1.7748e-02,0.633438,3.56219
-1.7744e-02,0.63125,3.56375
-1.7740e-02,0.635937,3.56531
-1.7736e-02,0.638438,3.56594
-1.7732e-02,0.636875,3.56844
-1.7728e-02,0.635937,3.57094
-1.7724e-02,0.64,3.57094
-1.7720e-02,0.64,3.57125
-1.7716e-02,0.641875,3.5725
-1.7712e-02,0.641875,3.57125
-1.7708e-02,0.64,3.575
-1.7704e-02,0.645938,3.57656
-1.7700e-02,0.645938,3.57687
-1.7696e-02,0.649687,3.57937
-1.7692e-02,0.648125,3.58344
-1.7688e-02,0.646562,3.58312
-1.7684e-02,0.65,3.58469
-1.7680e-02,0.648125,3.585
-1.7676e-02,0.650625,3.58656
-1.7672e-02,0.6475,3.58719
-1.7668e-02,0.646875,3.58875
-1.7664e-02,0.651562,3.59063
-1.7660e-02,0.651562,3.58875
-1.7656e-02,0.651562,3.59219
-1.7652e-02,0.651562,3.59219
-1.7648e-02,0.6525,3.59313
-1.7644e-02,0.654063,3.59156
-1.7640e-02,0.654063,3.59219
-1.7636e-02,0.654063,3.59437
-1.7632e-02,0.65625,3.59469
-1.7628e-02,0.65875,3.59781
-1.7624e-02,0.659063,3.59719
-1.7620e-02,0.661875,3.60031
-1.7616e-02,0.657188,3.60125
-1.7612e-02,0.660625,3.59969
-1.7608e-02,0.66125,3.60281
-1.7604e-02,0.665312,3.6025
-1.7600e-02,0.662813,3.60656
-1.7596e-02,0.66375,3.60375
-1.7592e-02,0.665938,3.60656
-1.7588e-02,0.667187,3.60906
-1.7584e-02,0.667187,3.60906
-1.7580e-02,0.666875,3.61344
-1.7576e-02,0.666875,3.61187
-1.7572e-02,0.668438,3.615
-1.7568e-02,0.666875,3.61594
-1.7564e-02,0.668438,3.61719
-1.7560e-02,0.670313,3.6175
-1.7556e-02,0.670313,3.62062
-1.7552e-02,0.670937,3.62219
-1.7548e-02,0.67,3.62125
-1.7544e-02,0.670313,3.62125
-1.7540e-02,0.673438,3.62375
-1.7536e-02,0.671875,3.62469
-1.7532e-02,0.675,3.62375
-1.7528e-02,0.675313,3.62469
-1.7524e-02,0.6725,3.62469
-1.7520e-02,0.671875,3.62688
-1.7516e-02,0.674375,3.62938
-1.7512e-02,0.6775,3.62938
-1.7508e-02,0.675313,3.63187
-1.7504e-02,0.674062,3.63031
-1.7500e-02,0.675937,3.63031
-1.7496e-02,0.679375,3.63219
-1.7492e-02,0.679375,3.63437
-1.7488e-02,0.678438,3.63344
-1.7484e-02,0.678125,3.63437
-1.7480e-02,0.6775,3.63594
-1.7476e-02,0.681563,3.63906
-1.7472e-02,0.68,3.63687
-1.7468e-02,0.681563,3.64
-1.7464e-02,0.682188,3.64031
-1.7460e-02,0.683125,3.64312
-1.7456e-02,0.683125,3.64438
-1.7452e-02,0.683125,3.64438
-1.7448e-02,0.682188,3.64594
-1.7444e-02,0.683125,3.64594
-1.7440e-02,0.680937,3.64812
-1.7436e-02,0.6825,3.64969
-1.7432e-02,0.68,3.64719
-1.7428e-02,0.6825,3.64906
-1.7424e-02,0.683125,3.65062
-1.7420e-02,0.685,3.65375
-1.7416e-02,0.687188,3.6525
-1.7412e-02,0.684063,3.6525
-1.7408e-02,0.685625,3.65469
-1.7404e-02,0.684687,3.65469
-1.7400e-02,0.687188,3.65563
-1.7396e-02,0.6875,3.65531
-1.7392e-02,0.685,3.65563
-1.7388e-02,0.68875,3.65656
-1.7384e-02,0.688125,3.65563
-1.7380e-02,0.68875,3.65937
-1.7376e-02,0.688125,3.66188
-1.7372e-02,0.69125,3.66375
-1.7368e-02,0.692188,3.66469
-1.7364e-02,0.694687,3.66625
-1.7360e-02,0.693125,3.6675
-1.7356e-02,0.689687,3.67094
-1.7352e-02,0.693125,3.66875
-1.7348e-02,0.69375,3.66938
-1.7344e-02,0.695625,3.66844
-1.7340e-02,0.691562,3.67406
-1.7336e-02,0.690625,3.675
-1.7332e-02,0.692813,3.67344
-1.7328e-02,0.696875,3.67656
-1.7324e-02,0.694687,3.67687
-1.7320e-02,0.693125,3.67844
-1.7316e-02,0.694687,3.68094
-1.7312e-02,0.69375,3.68063
-1.7308e-02,0.69375,3.68063
-1.7304e-02,0.690625,3.68312
-1.7300e-02,0.692813,3.68312
-1.7296e-02,0.693125,3.68406
-1.7292e-02,0.695312,3.68625
-1.7288e-02,0.695625,3.68562
-1.7284e-02,0.69375,3.68656
-1.7280e-02,0.694375,3.68812
-1.7276e-02,0.692813,3.69062
-1.7272e-02,0.692188,3.69125
-1.7268e-02,0.695312,3.69188
-1.7264e-02,0.692188,3.69219
-1.7260e-02,0.692188,3.69219
-1.7256e-02,0.694687,3.69375
-1.7252e-02,0.69625,3.69594
-1.7248e-02,0.69375,3.69625
-1.7244e-02,0.69375,3.69937
