Lab 1 331/Limiter Sub-circuits/Circuit 1/tek0001.csv

Model,MSO3012
Firmware Version,2.40

Waveform Type,ANALOG,
Point Format,Y,
Horizontal Units,s,
Horizontal Scale,0.002,
Horizontal Delay,0,
Sample Interval,2e-06,
Record Length,10000,
Gating,0.0% to 100.0%,
Probe Attenuation,1,
Vertical Units,V,
Vertical Offset,0,
Vertical Scale,0.05,
Vertical Position,2,
,,
,,
,,
Label,,
TIME,CH1,CH2
-1.000e-02,-0.00577344,0.185156
-9.998e-03,-0.00463281,0.1875
-9.996e-03,-0.00351563,0.199219
-9.994e-03,-0.00248437,0.215625
-9.992e-03,-0.00150781,0.225781
-9.990e-03,-0.000414063,0.232031
-9.988e-03,0.000835937,0.252344
-9.986e-03,0.00192188,0.270312
-9.984e-03,0.00310156,0.271875
-9.982e-03,0.0041875,0.292187
-9.980e-03,0.00544531,0.294531
-9.978e-03,0.00653906,0.315625
-9.976e-03,0.00763281,0.329687
-9.974e-03,0.00877344,0.341406
-9.972e-03,0.00986719,0.360156
-9.970e-03,0.0109219,0.361719
-9.968e-03,0.0120234,0.380469
-9.966e-03,0.0130391,0.392187
-9.964e-03,0.0141953,0.398438
-9.962e-03,0.0152891,0.420312
-9.960e-03,0.0163047,0.425
-9.958e-03,0.0174687,0.43125
-9.956e-03,0.0186094,0.442969
-9.954e-03,0.0197656,0.460938
-9.952e-03,0.0208203,0.477344
-9.950e-03,0.0218516,0.482031
-9.948e-03,0.0228516,0.498437
-9.946e-03,0.0238047,0.505469
-9.944e-03,0.0248437,0.51875
-9.942e-03,0.0258203,0.542187
-9.940e-03,0.0269297,0.539062
-9.938e-03,0.0278438,0.5625
-9.936e-03,0.0288203,0.576562
-9.934e-03,0.0297187,0.5875
-9.932e-03,0.0307344,0.603125
-9.930e-03,0.0317891,0.607031
-9.928e-03,0.0329453,0.628125
-9.926e-03,0.0340391,0.635937
-9.924e-03,0.0351562,0.653906
-9.922e-03,0.0360781,0.650781
-9.920e-03,0.03725,0.66875
-9.918e-03,0.0382422,0.685156
-9.916e-03,0.0393672,0.700781
-9.914e-03,0.0403359,0.708594
-9.912e-03,0.0414766,0.725781
-9.910e-03,0.0424453,0.735938
-9.908e-03,0.0434844,0.75625
-9.906e-03,0.0444844,0.769531
-9.904e-03,0.0455,0.767969
-9.902e-03,0.0464141,0.786719
-9.900e-03,0.0473828,0.792969
-9.898e-03,0.0482344,0.820312
-9.896e-03,0.0491094,0.820312
-9.894e-03,0.0499219,0.828906
-9.892e-03,0.0506406,0.842969
-9.890e-03,0.0514062,0.863281
-9.888e-03,0.052125,0.877344
-9.886e-03,0.0527734,0.884375
-9.884e-03,0.0534219,0.9
-9.882e-03,0.0540078,0.903906
-9.880e-03,0.0545937,0.917969
-9.878e-03,0.0550391,0.938281
-9.876e-03,0.0554531,0.946875
-9.874e-03,0.0558984,0.959375
-9.872e-03,0.0564219,0.965625
-9.870e-03,0.05675,0.973437
-9.868e-03,0.0571172,0.9875
-9.866e-03,0.0575234,1.00156
-9.864e-03,0.0578906,1.02031
-9.862e-03,0.0583203,1.01562
-9.860e-03,0.0586641,1.04219
-9.858e-03,0.0589453,1.05078
-9.856e-03,0.0592891,1.06484
-9.854e-03,0.0595547,1.0875
-9.852e-03,0.0597578,1.09922
-9.850e-03,0.0600469,1.11094
-9.848e-03,0.0603203,1.12344
-9.846e-03,0.0606094,1.12734
-9.844e-03,0.0607891,1.14375
-9.842e-03,0.0611172,1.15547
-9.840e-03,0.0613594,1.17266
-9.838e-03,0.0615625,1.18594
-9.836e-03,0.0617734,1.19844
-9.834e-03,0.0618906,1.21719
-9.832e-03,0.0620781,1.22656
-9.830e-03,0.0622109,1.24922
-9.828e-03,0.0625391,1.24687
-9.826e-03,0.0626875,1.26719
-9.824e-03,0.0628672,1.27969
-9.822e-03,0.0631484,1.28359
-9.820e-03,0.0632266,1.30859
-9.818e-03,0.0635156,1.31484
-9.816e-03,0.0636172,1.32109
-9.814e-03,0.0637734,1.33828
-9.812e-03,0.064,1.35469
-9.810e-03,0.0642109,1.36562
-9.808e-03,0.0643516,1.375
-9.806e-03,0.0645156,1.39219
-9.804e-03,0.0646953,1.39766
-9.802e-03,0.0649219,1.40547
-9.800e-03,0.0649531,1.42422
-9.798e-03,0.065125,1.43437
-9.796e-03,0.0653281,1.45312
-9.794e-03,0.0654219,1.45859
-9.792e-03,0.0655625,1.47266
-9.790e-03,0.0656719,1.48672
-9.788e-03,0.0658906,1.50078
-9.786e-03,0.0659297,1.51953
-9.784e-03,0.0660938,1.52344
-9.782e-03,0.0663203,1.54141
-9.780e-03,0.0663984,1.55391
-9.778e-03,0.0664141,1.56484
-9.776e-03,0.0665625,1.58047
-9.774e-03,0.0667187,1.58516
-9.772e-03,0.0668203,1.60078
-9.770e-03,0.0669219,1.61328
-9.768e-03,0.0671328,1.63281
-9.766e-03,0.0672109,1.63906
-9.764e-03,0.067375,1.65391
-9.762e-03,0.0674375,1.66641
-9.760e-03,0.0675156,1.66641
-9.758e-03,0.0676563,1.68828
-9.756e-03,0.0676016,1.69453
-9.754e-03,0.0677969,1.7125
-9.752e-03,0.0679453,1.73672
-9.750e-03,0.0679844,1.74297
-9.748e-03,0.0680625,1.76172
-9.746e-03,0.0682109,1.76719
-9.744e-03,0.0683281,1.77734
-9.742e-03,0.0684063,1.79766
-9.740e-03,0.0685547,1.80156
-9.738e-03,0.0685312,1.81875
-9.736e-03,0.0686719,1.82891
-9.734e-03,0.0687812,1.84062
-9.732e-03,0.0687812,1.85469
-9.730e-03,0.0689844,1.86484
-9.728e-03,0.0690859,1.87891
-9.726e-03,0.0691406,1.89766
-9.724e-03,0.0693047,1.89297
-9.722e-03,0.0693203,1.91953
-9.720e-03,0.0693672,1.92812
-9.718e-03,0.0694453,1.93984
-9.716e-03,0.0694453,1.95625
-9.714e-03,0.0696094,1.9625
-9.712e-03,0.069625,1.97656
-9.710e-03,0.0698359,1.97813
-9.708e-03,0.0698984,2.01094
-9.706e-03,0.0700156,2.01172
-9.704e-03,0.0700938,2.01484
-9.702e-03,0.0702031,2.0375
-9.700e-03,0.0702187,2.05
-9.698e-03,0.0702187,2.05781
-9.696e-03,0.0703438,2.06172
-9.694e-03,0.0703984,2.07812
-9.692e-03,0.0704375,2.09062
-9.690e-03,0.0707031,2.10234
-9.688e-03,0.0706406,2.12266
-9.686e-03,0.0706875,2.13047
-9.684e-03,0.0708125,2.14922
-9.682e-03,0.0707812,2.15781
-9.680e-03,0.0708281,2.16562
-9.678e-03,0.07075,2.18125
-9.676e-03,0.0709063,2.19219
-9.674e-03,0.0710156,2.2
-9.672e-03,0.0710703,2.21797
-9.670e-03,0.0712187,2.225
-9.668e-03,0.0712187,2.24297
-9.666e-03,0.0714219,2.24922
-9.664e-03,0.0713906,2.25469
-9.662e-03,0.0713906,2.27266
-9.660e-03,0.0714766,2.28281
-9.658e-03,0.0715781,2.29531
-9.656e-03,0.071625,2.30312
-9.654e-03,0.071625,2.31562
-9.652e-03,0.0717812,2.32187
-9.650e-03,0.0717656,2.33594
-9.648e-03,0.0718672,2.36016
-9.646e-03,0.0720625,2.35078
-9.644e-03,0.0720703,2.37656
-9.642e-03,0.0719687,2.38672
-9.640e-03,0.0720859,2.39531
-9.638e-03,0.0721328,2.40937
-9.636e-03,0.0723281,2.41719
-9.634e-03,0.0723359,2.43516
-9.632e-03,0.0723359,2.44531
-9.630e-03,0.0723359,2.44766
-9.628e-03,0.0724922,2.4625
-9.626e-03,0.0726797,2.47031
-9.624e-03,0.0726172,2.49609
-9.622e-03,0.0726328,2.49844
-9.620e-03,0.0726797,2.50703
-9.618e-03,0.0727578,2.52266
-9.616e-03,0.0728125,2.5375
-9.614e-03,0.0728359,2.54297
-9.612e-03,0.0729453,2.55312
-9.610e-03,0.073,2.56328
-9.608e-03,0.0730859,2.58359
-9.606e-03,0.0731016,2.58437
-9.604e-03,0.0730469,2.60234
-9.602e-03,0.0731641,2.60781
-9.600e-03,0.0732422,2.62422
-9.598e-03,0.0732422,2.63047
-9.596e-03,0.0732891,2.63906
-9.594e-03,0.0733047,2.65703
-9.592e-03,0.0735547,2.67188
-9.590e-03,0.0734922,2.67969
-9.588e-03,0.0735859,2.69141
-9.586e-03,0.0735703,2.7
-9.584e-03,0.0735547,2.71641
-9.582e-03,0.0737266,2.72266
-9.580e-03,0.0736875,2.72969
-9.578e-03,0.0737109,2.74219
-9.576e-03,0.0737891,2.76094
-9.574e-03,0.0739141,2.77031
-9.572e-03,0.0738984,2.78047
-9.570e-03,0.0739922,2.79375
-9.568e-03,0.0739609,2.80312
-9.566e-03,0.0739609,2.81094
-9.564e-03,0.0740625,2.81797
-9.562e-03,0.0740156,2.82969
-9.560e-03,0.0741016,2.84453
-9.558e-03,0.0742344,2.85625
-9.556e-03,0.0742344,2.86875
-9.554e-03,0.0743359,2.88516
-9.552e-03,0.0743437,2.88437
-9.550e-03,0.0743984,2.90469
-9.548e-03,0.0743828,2.90547
-9.546e-03,0.0745391,2.92344
-9.544e-03,0.0745078,2.9375
-9.542e-03,0.0745391,2.94531
-9.540e-03,0.0745469,2.95781
-9.538e-03,0.0746641,2.96016
-9.536e-03,0.0747266,2.97969
-9.534e-03,0.0748281,2.98203
-9.532e-03,0.0748437,2.99609
-9.530e-03,0.07475,3.00859
-9.528e-03,0.0749297,3.00859
-9.526e-03,0.074875,3.03516
-9.524e-03,0.0749063,3.04688
-9.522e-03,0.0749297,3.05078
-9.520e-03,0.0750156,3.06719
-9.518e-03,0.0750703,3.07109
-9.516e-03,0.0751484,3.08203
-9.514e-03,0.0751719,3.09531
-9.512e-03,0.0752109,3.10156
-9.510e-03,0.0752969,3.11172
-9.508e-03,0.0752734,3.12266
-9.506e-03,0.0752578,3.13594
-9.504e-03,0.0752578,3.13906
-9.502e-03,0.0752969,3.15703
-9.500e-03,0.0754531,3.15703
-9.498e-03,0.0753359,3.16719
-9.496e-03,0.0753516,3.17969
-9.494e-03,0.0754766,3.18359
-9.492e-03,0.0754844,3.19297
-9.490e-03,0.0754844,3.20937
-9.488e-03,0.0755234,3.22578
-9.486e-03,0.0755234,3.22969
-9.484e-03,0.0756563,3.23984
-9.482e-03,0.0756563,3.24766
-9.480e-03,0.075625,3.26406
-9.478e-03,0.0757578,3.27031
-9.476e-03,0.0757656,3.28125
-9.474e-03,0.0758437,3.28672
-9.472e-03,0.0758437,3.30312
-9.470e-03,0.0759063,3.31875
-9.468e-03,0.0759297,3.32109
-9.466e-03,0.0758672,3.33359
-9.464e-03,0.0758203,3.34531
-9.462e-03,0.0759609,3.35156
-9.460e-03,0.0760625,3.36016
-9.458e-03,0.0760312,3.36953
-9.456e-03,0.0760469,3.37187
-9.454e-03,0.0761719,3.38047
-9.452e-03,0.0761484,3.40312
-9.450e-03,0.0761719,3.40078
-9.448e-03,0.0761875,3.42109
-9.446e-03,0.0762266,3.425
-9.444e-03,0.0763125,3.44062
-9.442e-03,0.0762891,3.45078
-9.440e-03,0.0763906,3.44922
-9.438e-03,0.076375,3.46406
-9.436e-03,0.0764531,3.47109
-9.434e-03,0.0764297,3.48125
-9.432e-03,0.0765156,3.49844
-9.430e-03,0.0765156,3.50625
-9.428e-03,0.0764766,3.52187
-9.426e-03,0.0765703,3.52422
-9.424e-03,0.0766172,3.53906
-9.422e-03,0.0766328,3.53906
-9.420e-03,0.0766172,3.54062
-9.418e-03,0.0766797,3.55234
-9.416e-03,0.0767422,3.56094
-9.414e-03,0.0767031,3.57344
-9.412e-03,0.0767031,3.5875
-9.410e-03,0.0767578,3.59609
-9.408e-03,0.0767969,3.60625
-9.406e-03,0.0768047,3.61328
-9.404e-03,0.0767422,3.62422
-9.402e-03,0.0767969,3.62578
-9.400e-03,0.0769375,3.63203
-9.398e-03,0.0769453,3.64453
-9.396e-03,0.0770234,3.65469
-9.394e-03,0.0769063,3.66484
-9.392e-03,0.0769453,3.67109
-9.390e-03,0.0770781,3.68047
-9.388e-03,0.0769844,3.69062
-9.386e-03,0.0770781,3.68672
-9.384e-03,0.0770625,3.70937
-9.382e-03,0.0772031,3.70703
-9.380e-03,0.0771875,3.72187
-9.378e-03,0.0771641,3.72734
-9.376e-03,0.0771641,3.73359
-9.374e-03,0.0771797,3.74531
-9.372e-03,0.0772422,3.75547
-9.370e-03,0.0772266,3.76641
-9.368e-03,0.0772266,3.76875
-9.366e-03,0.0772812,3.78203
-9.364e-03,0.0773281,3.79062
-9.362e-03,0.0774141,3.79609
-9.360e-03,0.0774453,3.80312
-9.358e-03,0.0774531,3.81094
-9.356e-03,0.0774688,3.8125
-9.354e-03,0.0773906,3.83125
-9.352e-03,0.0775312,3.84297
-9.350e-03,0.0775156,3.84687
-9.348e-03,0.0775547,3.85781
-9.346e-03,0.0775469,3.86172
-9.344e-03,0.0775469,3.86953
-9.342e-03,0.0776719,3.87812
-9.340e-03,0.0776328,3.88203
-9.338e-03,0.0777578,3.88437
-9.336e-03,0.0777891,3.88594
-9.334e-03,0.0776953,3.89453
-9.332e-03,0.0776953,3.90781
-9.330e-03,0.0777188,3.92812
-9.328e-03,0.0777969,3.93516
-9.326e-03,0.0777969,3.94687
-9.324e-03,0.077875,3.95469
-9.322e-03,0.077875,3.96875
-9.320e-03,0.0778125,3.97578
-9.318e-03,0.0778984,3.98203
-9.316e-03,0.0779766,3.975
-9.314e-03,0.078,3.99766
-9.312e-03,0.0779531,4
-9.310e-03,0.0779609,4.00937
-9.308e-03,0.0780234,4.02031
-9.306e-03,0.0780391,4.02578
-9.304e-03,0.0781016,4.03047
-9.302e-03,0.0781563,4.03672
-9.300e-03,0.0780781,4.05234
-9.298e-03,0.0781172,4.05234
-9.296e-03,0.0780391,4.06328
-9.294e-03,0.0781641,4.07031
-9.292e-03,0.0781953,4.08047
-9.290e-03,0.078125,4.08125
-9.288e-03,0.078125,4.0875
-9.286e-03,0.0782031,4.09922
-9.284e-03,0.0782812,4.10391
-9.282e-03,0.0783281,4.11562
-9.280e-03,0.0784063,4.12578
-9.278e-03,0.0784609,4.13437
-9.276e-03,0.0783594,4.14609
-9.274e-03,0.0784297,4.14766
-9.272e-03,0.0783437,4.16016
-9.270e-03,0.0784219,4.16875
-9.268e-03,0.0783984,4.17266
-9.266e-03,0.0783203,4.18437
-9.264e-03,0.0785,4.18672
-9.262e-03,0.0785078,4.19687
-9.260e-03,0.0786016,4.20703
-9.258e-03,0.0785625,4.20703
-9.256e-03,0.0784688,4.22344
-9.254e-03,0.0785469,4.22578
-9.252e-03,0.0785234,4.22969
-9.250e-03,0.0785312,4.23516
-9.248e-03,0.0785703,4.23984
-9.246e-03,0.0786094,4.24766
-9.244e-03,0.0786016,4.25156
-9.242e-03,0.0786484,4.25937
-9.240e-03,0.0787344,4.26406
-9.238e-03,0.0787266,4.27969
-9.236e-03,0.0786875,4.29844
-9.234e-03,0.0787266,4.30391
-9.232e-03,0.0787344,4.30625
-9.230e-03,0.0787656,4.31484
-9.228e-03,0.0788047,4.33437
-9.226e-03,0.07875,4.33672
-9.224e-03,0.0789688,4.33906
-9.222e-03,0.0788125,4.34766
-9.220e-03,0.0789375,4.34453
-9.218e-03,0.0788281,4.35781
-9.216e-03,0.0788672,4.36953
-9.214e-03,0.0788906,4.37969
-9.212e-03,0.078875,4.38984
-9.210e-03,0.0788516,4.39609
-9.208e-03,0.078875,4.40625
-9.206e-03,0.078875,4.40625
-9.204e-03,0.0788906,4.4125
-9.202e-03,0.0790078,4.42422
-9.200e-03,0.0789531,4.43047
-9.198e-03,0.0788906,4.43828
-9.196e-03,0.0789922,4.43281
-9.194e-03,0.0791094,4.43437
-9.192e-03,0.0790156,4.45703
-9.190e-03,0.0789922,4.45625
-9.188e-03,0.0790391,4.46875
-9.186e-03,0.0790937,4.46953
-9.184e-03,0.0791094,4.47734
-9.182e-03,0.0791328,4.49297
-9.180e-03,0.0791719,4.49531
-9.178e-03,0.0791563,4.50703
-9.176e-03,0.0791719,4.50781
-9.174e-03,0.0791172,4.51328
-9.172e-03,0.0792578,4.53047
-9.170e-03,0.0792734,4.53437
-9.168e-03,0.0792734,4.54062
-9.166e-03,0.0793359,4.54062
-9.164e-03,0.0793828,4.54609
-9.162e-03,0.0793828,4.55234
-9.160e-03,0.079375,4.55781
-9.158e-03,0.0793203,4.56797
-9.156e-03,0.0794219,4.56641
-9.154e-03,0.0793828,4.58906
-9.152e-03,0.079375,4.58516
-9.150e-03,0.0793359,4.60312
-9.148e-03,0.0794609,4.59531
-9.146e-03,0.0794453,4.60156
-9.144e-03,0.0794766,4.61328
-9.142e-03,0.0795,4.60859
-9.140e-03,0.0794141,4.60547
-9.138e-03,0.0794375,4.61484
-9.136e-03,0.0794766,4.61328
-9.134e-03,0.0794609,4.62578
-9.132e-03,0.0794375,4.62734
-9.130e-03,0.0795234,4.6375
-9.128e-03,0.0795469,4.64766
-9.126e-03,0.0795859,4.65391
-9.124e-03,0.0794766,4.66953
-9.122e-03,0.0795625,4.68437
-9.120e-03,0.0795781,4.67969
-9.118e-03,0.0795391,4.69687
-9.116e-03,0.0796016,4.69687
-9.114e-03,0.0796797,4.70234
-9.112e-03,0.0796484,4.70234
-9.110e-03,0.0797031,4.72031
-9.108e-03,0.0797266,4.725
-9.106e-03,0.07975,4.72031
-9.104e-03,0.0797656,4.725
-9.102e-03,0.0797812,4.73359
-9.100e-03,0.0796875,4.74141
-9.098e-03,0.0797188,4.74375
-9.096e-03,0.0796484,4.75391
-9.094e-03,0.0797266,4.76172
-9.092e-03,0.0798047,4.75156
-9.090e-03,0.07975,4.76562
-9.088e-03,0.0798281,4.76719
-9.086e-03,0.0797656,4.77812
-9.084e-03,0.0797812,4.78984
-9.082e-03,0.0798203,4.78203
-9.080e-03,0.0797266,4.79766
-9.078e-03,0.0797422,4.79609
-9.076e-03,0.0796641,4.80859
-9.074e-03,0.0798828,4.80234
-9.072e-03,0.0798906,4.81016
-9.070e-03,0.0798047,4.81484
-9.068e-03,0.0798516,4.82187
-9.066e-03,0.0797422,4.82266
-9.064e-03,0.0798437,4.82422
-9.062e-03,0.0797188,4.83516
-9.060e-03,0.07975,4.84062
-9.058e-03,0.0798828,4.84297
-9.056e-03,0.0797812,4.85234
-9.054e-03,0.0799063,4.85859
-9.052e-03,0.0799688,4.87266
-9.050e-03,0.0798906,4.87109
-9.048e-03,0.0800312,4.87734
-9.046e-03,0.0799844,4.87578
-9.044e-03,0.0800312,4.88906
-9.042e-03,0.0799844,4.89141
-9.040e-03,0.0799844,4.9
-9.038e-03,0.0800078,4.90391
-9.036e-03,0.0799453,4.89922
-9.034e-03,0.0800078,4.90937
-9.032e-03,0.0800312,4.90937
-9.030e-03,0.0801484,4.91953
-9.028e-03,0.0800859,4.91406
-9.026e-03,0.0800234,4.92344
-9.024e-03,0.0800469,4.93437
-9.022e-03,0.0800234,4.93672
-9.020e-03,0.0801094,4.94062
-9.018e-03,0.0800937,4.94687
-9.016e-03,0.0800547,4.95
-9.014e-03,0.0801094,4.96016
-9.012e-03,0.0801094,4.96719
-9.010e-03,0.0801719,4.96875
-9.008e-03,0.0801562,4.97656
-9.006e-03,0.0801328,4.97031
-9.004e-03,0.0802109,4.97031
-9.002e-03,0.0801328,4.98281
-9.000e-03,0.0800937,4.98125
-8.998e-03,0.0801562,4.99062
-8.996e-03,0.0802266,4.98672
-8.994e-03,0.0802344,4.99766
-8.992e-03,0.0801875,4.99297
-8.990e-03,0.0802969,4.98906
-8.988e-03,0.0802891,4.99141
-8.986e-03,0.080125,5.00156
-8.984e-03,0.0800937,4.99766
-8.982e-03,0.0801328,5.00312
-8.980e-03,0.0800703,5.01328
-8.978e-03,0.0801484,5.00937
-8.976e-03,0.0802578,5.01484
-8.974e-03,0.0802734,5.02187
-8.972e-03,0.0801953,5.02812
-8.970e-03,0.08025,5.03359
-8.968e-03,0.0801953,5.0375
-8.966e-03,0.0802344,5.03984
-8.964e-03,0.0802578,5.04844
-8.962e-03,0.08025,5.05547
-8.960e-03,0.0803281,5.06172
-8.958e-03,0.0802344,5.06016
-8.956e-03,0.0803594,5.06016
-8.954e-03,0.080375,5.06641
-8.952e-03,0.0803359,5.07031
-8.950e-03,0.080375,5.08203
-8.948e-03,0.0803125,5.07891
-8.946e-03,0.0803359,5.08437
-8.944e-03,0.0803516,5.08906
-8.942e-03,0.0802734,5.09062
-8.940e-03,0.0803906,5.09297
-8.938e-03,0.0803125,5.09297
-8.936e-03,0.0804922,5.09453
-8.934e-03,0.0804531,5.09219
-8.932e-03,0.080375,5.10469
-8.930e-03,0.0804531,5.1125
-8.928e-03,0.0802969,5.10938
-8.926e-03,0.0803516,5.10859
-8.924e-03,0.0802969,5.1125
-8.922e-03,0.080375,5.11484
-8.920e-03,0.0804375,5.11953
-8.918e-03,0.0803594,5.11719
-8.916e-03,0.0804531,5.11953
-8.914e-03,0.0804609,5.12656
-8.912e-03,0.0804922,5.125
-8.910e-03,0.080375,5.13125
-8.908e-03,0.0804141,5.12969
-8.906e-03,0.0803359,5.1375
-8.904e-03,0.0803594,5.13984
-8.902e-03,0.0804922,5.13672
-8.900e-03,0.0805,5.14531
-8.898e-03,0.0804297,5.15156
-8.896e-03,0.0805547,5.15312
-8.894e-03,0.0804922,5.15312
-8.892e-03,0.0805781,5.15156
-8.890e-03,0.0805391,5.15703
-8.888e-03,0.0805156,5.16172
-8.886e-03,0.0805312,5.16328
-8.884e-03,0.0805156,5.16406
-8.882e-03,0.0805391,5.17031
-8.880e-03,0.0805312,5.17344
-8.878e-03,0.0805625,5.17031
-8.876e-03,0.0805391,5.17578
-8.874e-03,0.0805937,5.17734
-8.872e-03,0.0805312,5.17422
-8.870e-03,0.0804609,5.17734
-8.868e-03,0.0805625,5.17422
-8.866e-03,0.0804141,5.17812
-8.864e-03,0.0804922,5.18047
-8.862e-03,0.0805625,5.17734
-8.860e-03,0.0805312,5.18437
-8.858e-03,0.0807031,5.17578
-8.856e-03,0.0805625,5.18203
-8.854e-03,0.0806797,5.18437
-8.852e-03,0.0806953,5.18984
-8.850e-03,0.0805312,5.19453
-8.848e-03,0.0806172,5.19609
-8.846e-03,0.0804922,5.19375
-8.844e-03,0.0805547,5.20234
-8.842e-03,0.0806172,5.20391
-8.840e-03,0.0805156,5.2
-8.838e-03,0.0806953,5.2
-8.836e-03,0.0805781,5.20469
-8.834e-03,0.0805625,5.2
-8.832e-03,0.0806016,5.20234
-8.830e-03,0.0804922,5.20625
-8.828e-03,0.0805937,5.20859
-8.826e-03,0.0806172,5.21016
-8.824e-03,0.0805625,5.20859
-8.822e-03,0.0806172,5.2125
-8.820e-03,0.0805937,5.21016
-8.818e-03,0.0807188,5.21406
-8.816e-03,0.0806172,5.21797
-8.814e-03,0.0807422,5.21484
-8.812e-03,0.0806328,5.21875
-8.810e-03,0.0805937,5.22031
-8.808e-03,0.0805781,5.22031
-8.806e-03,0.0805156,5.22109
-8.804e-03,0.0807422,5.2125
-8.802e-03,0.0806641,5.22422
-8.800e-03,0.0807188,5.22031
-8.798e-03,0.0807031,5.22266
-8.796e-03,0.0806406,5.22812
-8.794e-03,0.0807031,5.225
-8.792e-03,0.0805547,5.22422
-8.790e-03,0.0805781,5.23672
-8.788e-03,0.0806016,5.23672
-8.786e-03,0.0806172,5.23828
-8.784e-03,0.0806172,5.22656
-8.782e-03,0.0805156,5.23438
-8.780e-03,0.0806172,5.22891
-8.778e-03,0.0807031,5.23125
-8.776e-03,0.0806953,5.23906
-8.774e-03,0.0807422,5.23047
-8.772e-03,0.0805625,5.24297
-8.770e-03,0.0806406,5.23828
-8.768e-03,0.0806797,5.24844
-8.766e-03,0.0806562,5.24688
-8.764e-03,0.0807812,5.24297
-8.762e-03,0.0806953,5.23672
-8.760e-03,0.0806641,5.24297
-8.758e-03,0.0807656,5.23828
-8.756e-03,0.0807578,5.23672
-8.754e-03,0.0807578,5.23047
-8.752e-03,0.0807578,5.24141
-8.750e-03,0.0806953,5.24531
-8.748e-03,0.0806641,5.24844
-8.746e-03,0.0808047,5.23516
-8.744e-03,0.0807344,5.24531
-8.742e-03,0.0807344,5.24297
-8.740e-03,0.0807656,5.24688
-8.738e-03,0.0807656,5.24531
-8.736e-03,0.0807344,5.24141
-8.734e-03,0.0807031,5.24062
-8.732e-03,0.0805937,5.24141
-8.730e-03,0.0807344,5.23672
-8.728e-03,0.0806797,5.24531
-8.726e-03,0.0807031,5.23906
-8.724e-03,0.0806953,5.24062
-8.722e-03,0.0806406,5.24062
-8.720e-03,0.0807344,5.23672
-8.718e-03,0.0807578,5.23672
-8.716e-03,0.0806406,5.23516
-8.714e-03,0.0806562,5.23828
-8.712e-03,0.0805937,5.24141
-8.710e-03,0.0806562,5.23516
-8.708e-03,0.0805547,5.23516
-8.706e-03,0.0806641,5.23047
-8.704e-03,0.0806172,5.23281
-8.702e-03,0.0806562,5.23516
-8.700e-03,0.0807344,5.23516
-8.698e-03,0.0805937,5.23672
-8.696e-03,0.0806641,5.23125
-8.694e-03,0.0806172,5.22422
-8.692e-03,0.0805156,5.22656
-8.690e-03,0.0806953,5.225
-8.688e-03,0.0806328,5.225
-8.686e-03,0.0807188,5.22266
-8.684e-03,0.0806797,5.22109
-8.682e-03,0.0806406,5.22031
-8.680e-03,0.0805781,5.21641
-8.678e-03,0.0806016,5.22109
-8.676e-03,0.0806172,5.22031
-8.674e-03,0.0805156,5.21797
-8.672e-03,0.0805547,5.21484
-8.670e-03,0.0806016,5.21797
-8.668e-03,0.0805312,5.22031
-8.666e-03,0.0806172,5.20625
-8.664e-03,0.0806172,5.21484
-8.662e-03,0.0805547,5.21094
-8.660e-03,0.0806172,5.20625
-8.658e-03,0.0806641,5.20625
-8.656e-03,0.0806797,5.20234
-8.654e-03,0.0805312,5.20859
-8.652e-03,0.0806641,5.20234
-8.650e-03,0.0805937,5.19609
-8.648e-03,0.0806016,5.20781
-8.646e-03,0.0805625,5.19609
-8.644e-03,0.0805391,5.19375
-8.642e-03,0.0806328,5.18828
