Lab 1 331/Limiter Sub-circuits/Circuit 3/tek0000.csv

Model,MSO3012
Firmware Version,2.40

Waveform Type,ANALOG,
Point Format,Y,
Horizontal Units,s,
Horizontal Scale,0.002,
Horizontal Delay,0,
Sample Interval,2e-06,
Record Length,10000,
Gating,0.0% to 100.0%,
Probe Attenuation,1,
Vertical Units,V,
Vertical Offset,0,
Vertical Scale,0.2,
Vertical Position,2,
,,
,,
,,
Label,,
TIME,CH1,CH2
-1.000e-02,-0.0265,0.0265625
-9.998e-03,-0.0246875,0.0382812
-9.996e-03,-0.0234688,0.046875
-9.994e-03,-0.0221875,0.0617187
-9.992e-03,-0.0216875,0.075
-9.990e-03,-0.0202188,0.0953125
-9.988e-03,-0.0190312,0.0914062
-9.986e-03,-0.0176563,0.1125
-9.984e-03,-0.0166563,0.117969
-9.982e-03,-0.0155938,0.132031
-9.980e-03,-0.0147188,0.152344
-9.978e-03,-0.0138125,0.163281
-9.976e-03,-0.0128437,0.178906
-9.974e-03,-0.0119375,0.190625
-9.972e-03,-0.0112187,0.199219
-9.970e-03,-0.00978125,0.213281
-9.968e-03,-0.008125,0.221875
-9.966e-03,-0.00796875,0.241406
-9.964e-03,-0.00634375,0.24375
-9.962e-03,-0.00559375,0.252344
-9.960e-03,-0.00425,0.276562
-9.958e-03,-0.00303125,0.286719
-9.956e-03,-0.00259375,0.303125
-9.954e-03,-0.001,0.309375
-9.952e-03,-0.0003125,0.321094
-9.950e-03,0.001375,0.332812
-9.948e-03,0.002,0.346094
-9.946e-03,0.00325,0.360156
-9.944e-03,0.0049375,0.370312
-9.942e-03,0.0063125,0.384375
-9.940e-03,0.007375,0.396875
-9.938e-03,0.00834375,0.407031
-9.936e-03,0.00971875,0.427344
-9.934e-03,0.0106562,0.4375
-9.932e-03,0.0113437,0.442969
-9.930e-03,0.0129687,0.464844
-9.928e-03,0.0137188,0.475781
-9.926e-03,0.0147812,0.491406
-9.924e-03,0.0163437,0.501563
-9.922e-03,0.0169063,0.51875
-9.920e-03,0.0179687,0.521875
-9.918e-03,0.0191875,0.540625
-9.916e-03,0.0204062,0.549219
-9.914e-03,0.02175,0.560937
-9.912e-03,0.0225,0.578906
-9.910e-03,0.0241875,0.585156
-9.908e-03,0.0249375,0.599219
-9.906e-03,0.0264687,0.610156
-9.904e-03,0.0274375,0.619531
-9.902e-03,0.0285,0.6375
-9.900e-03,0.0299687,0.64375
-9.898e-03,0.0310313,0.6625
-9.896e-03,0.0319375,0.6625
-9.894e-03,0.0335313,0.685156
-9.892e-03,0.0338125,0.707031
-9.890e-03,0.03525,0.710938
-9.888e-03,0.03625,0.725
-9.886e-03,0.0371875,0.741406
-9.884e-03,0.03875,0.745312
-9.882e-03,0.0397812,0.761719
-9.880e-03,0.0406875,0.771875
-9.878e-03,0.0416563,0.785937
-9.876e-03,0.04275,0.794531
-9.874e-03,0.0441875,0.802344
-9.872e-03,0.0455625,0.821094
-9.870e-03,0.046875,0.828906
-9.868e-03,0.0478437,0.850781
-9.866e-03,0.0488437,0.859375
-9.864e-03,0.0494062,0.864062
-9.862e-03,0.050375,0.8875
-9.860e-03,0.0515625,0.897656
-9.858e-03,0.0524688,0.90625
-9.856e-03,0.0535312,0.921875
-9.854e-03,0.0546875,0.940625
-9.852e-03,0.0564375,0.942969
-9.850e-03,0.0574375,0.954688
-9.848e-03,0.0585,0.983594
-9.846e-03,0.0597813,0.985938
-9.844e-03,0.0600312,0.992969
-9.842e-03,0.0611562,1.01328
-9.840e-03,0.062375,1.02031
-9.838e-03,0.0632187,1.03828
-9.836e-03,0.0645938,1.04609
-9.834e-03,0.0655625,1.06406
-9.832e-03,0.066875,1.07031
-9.830e-03,0.0683437,1.09141
-9.828e-03,0.0689063,1.10313
-9.826e-03,0.0703437,1.11484
-9.824e-03,0.0706875,1.13359
-9.822e-03,0.0724687,1.14375
-9.820e-03,0.0734375,1.15781
-9.818e-03,0.0745938,1.1625
-9.816e-03,0.0759687,1.18047
-9.814e-03,0.076625,1.19688
-9.812e-03,0.0782188,1.20234
-9.810e-03,0.0787812,1.21875
-9.808e-03,0.0795937,1.22891
-9.806e-03,0.0808437,1.24141
-9.804e-03,0.0819687,1.25391
-9.802e-03,0.08325,1.26328
-9.800e-03,0.0843125,1.28437
-9.798e-03,0.0851562,1.29219
-9.796e-03,0.0863437,1.29766
-9.794e-03,0.0875937,1.32031
-9.792e-03,0.0887812,1.31641
-9.790e-03,0.0894375,1.34453
-9.788e-03,0.0909062,1.35156
-9.786e-03,0.0914687,1.36094
-9.784e-03,0.092375,1.37578
-9.782e-03,0.0935313,1.3875
-9.780e-03,0.0940625,1.40391
-9.778e-03,0.095375,1.41172
-9.776e-03,0.0958438,1.42812
-9.774e-03,0.09725,1.43281
-9.772e-03,0.0983125,1.44844
-9.770e-03,0.0989375,1.46641
-9.768e-03,0.100156,1.47344
-9.766e-03,0.100906,1.48359
-9.764e-03,0.102031,1.49766
-9.762e-03,0.103344,1.51172
-9.760e-03,0.104469,1.52187
-9.758e-03,0.105938,1.52812
-9.756e-03,0.106281,1.55156
-9.754e-03,0.107156,1.55781
-9.752e-03,0.108156,1.57266
-9.750e-03,0.108781,1.58906
-9.748e-03,0.109906,1.59844
-9.746e-03,0.110719,1.62266
-9.744e-03,0.111687,1.62891
-9.742e-03,0.112625,1.63906
-9.740e-03,0.113313,1.64922
-9.738e-03,0.114062,1.66328
-9.736e-03,0.114938,1.68359
-9.734e-03,0.116281,1.68047
-9.732e-03,0.116906,1.70469
-9.730e-03,0.117625,1.71016
-9.728e-03,0.118719,1.72656
-9.726e-03,0.119281,1.74141
-9.724e-03,0.1205,1.75078
-9.722e-03,0.121375,1.77109
-9.720e-03,0.122656,1.78203
-9.718e-03,0.124,1.78984
-9.716e-03,0.124687,1.81562
-9.714e-03,0.125844,1.81875
-9.712e-03,0.126406,1.84219
-9.710e-03,0.127625,1.84687
-9.708e-03,0.128875,1.85859
-9.706e-03,0.130094,1.86641
-9.704e-03,0.131531,1.88281
-9.702e-03,0.132656,1.89297
-9.700e-03,0.133875,1.90156
-9.698e-03,0.134938,1.91328
-9.696e-03,0.135344,1.93359
-9.694e-03,0.136594,1.93984
-9.692e-03,0.137406,1.95625
-9.690e-03,0.13875,1.9625
-9.688e-03,0.139406,1.97031
-9.686e-03,0.140969,1.99062
-9.684e-03,0.1425,1.99297
-9.682e-03,0.142844,2.01719
-9.680e-03,0.143656,2.025
-9.678e-03,0.144594,2.03906
-9.676e-03,0.145406,2.05156
-9.674e-03,0.14675,2.0625
-9.672e-03,0.147625,2.08203
-9.670e-03,0.14875,2.08594
-9.668e-03,0.149906,2.10078
-9.666e-03,0.150969,2.10859
-9.664e-03,0.151781,2.11719
-9.662e-03,0.152188,2.13125
-9.660e-03,0.153813,2.13906
-9.658e-03,0.154687,2.14922
-9.656e-03,0.155562,2.15937
-9.654e-03,0.156875,2.17578
-9.652e-03,0.157594,2.19375
-9.650e-03,0.159,2.2
-9.648e-03,0.15975,2.21406
-9.646e-03,0.160875,2.22422
-9.644e-03,0.162,2.23438
-9.642e-03,0.162813,2.24922
-9.640e-03,0.164031,2.2625
-9.638e-03,0.164438,2.27891
-9.636e-03,0.166,2.28281
-9.634e-03,0.166125,2.29531
-9.632e-03,0.166969,2.30937
-9.630e-03,0.168969,2.31641
-9.628e-03,0.169625,2.34062
-9.626e-03,0.170844,2.34062
-9.624e-03,0.1715,2.35703
-9.622e-03,0.172625,2.37656
-9.620e-03,0.173531,2.38125
-9.618e-03,0.174531,2.39453
-9.616e-03,0.176,2.40469
-9.614e-03,0.176281,2.41719
-9.612e-03,0.177937,2.42344
-9.610e-03,0.179,2.44219
-9.608e-03,0.179625,2.45156
-9.606e-03,0.180875,2.46016
-9.604e-03,0.181344,2.48203
-9.602e-03,0.182625,2.48281
-9.600e-03,0.182813,2.48828
-9.598e-03,0.183531,2.50078
-9.596e-03,0.18525,2.52266
-9.594e-03,0.186156,2.53672
-9.592e-03,0.187281,2.54531
-9.590e-03,0.187906,2.55156
-9.588e-03,0.189312,2.56016
-9.586e-03,0.189969,2.56953
-9.584e-03,0.190781,2.5875
-9.582e-03,0.191969,2.59453
-9.580e-03,0.192719,2.61484
-9.578e-03,0.193531,2.61875
-9.576e-03,0.194406,2.62656
-9.574e-03,0.195,2.64297
-9.572e-03,0.196375,2.65547
-9.570e-03,0.197531,2.67109
-9.568e-03,0.197406,2.66562
-9.566e-03,0.198625,2.675
-9.564e-03,0.199219,2.69375
-9.562e-03,0.200594,2.70391
-9.560e-03,0.20125,2.72656
-9.558e-03,0.202125,2.73281
-9.556e-03,0.203375,2.74297
-9.554e-03,0.204594,2.75234
-9.552e-03,0.20525,2.76641
-9.550e-03,0.205375,2.77344
-9.548e-03,0.207094,2.78672
-9.546e-03,0.207844,2.79922
-9.544e-03,0.208313,2.81328
-9.542e-03,0.209219,2.82109
-9.540e-03,0.210094,2.83594
-9.538e-03,0.211406,2.84766
-9.536e-03,0.211969,2.86406
-9.534e-03,0.212219,2.8625
-9.532e-03,0.2135,2.86797
-9.530e-03,0.214344,2.89062
-9.528e-03,0.215219,2.89922
-9.526e-03,0.215281,2.91094
-9.524e-03,0.216594,2.92109
-9.522e-03,0.21725,2.92734
-9.520e-03,0.217812,2.93906
-9.518e-03,0.218313,2.94766
-9.516e-03,0.218812,2.95937
-9.514e-03,0.21975,2.97031
-9.512e-03,0.220562,2.98047
-9.510e-03,0.220688,3
-9.508e-03,0.221781,3.00469
-9.506e-03,0.222437,3.02031
-9.504e-03,0.2235,3.025
-9.502e-03,0.223906,3.0375
-9.500e-03,0.22425,3.04453
-9.498e-03,0.225031,3.05312
-9.496e-03,0.225219,3.06328
-9.494e-03,0.226281,3.06797
-9.492e-03,0.226656,3.09141
-9.490e-03,0.227594,3.09609
-9.488e-03,0.228688,3.10156
-9.486e-03,0.228969,3.12187
-9.484e-03,0.230406,3.12656
-9.482e-03,0.23025,3.13828
-9.480e-03,0.231625,3.13828
-9.478e-03,0.232375,3.15078
-9.476e-03,0.232781,3.1625
-9.474e-03,0.233594,3.17734
-9.472e-03,0.234375,3.18984
-9.470e-03,0.234313,3.20312
-9.468e-03,0.234969,3.20547
-9.466e-03,0.235125,3.22031
-9.464e-03,0.235687,3.22422
-9.462e-03,0.236094,3.22578
-9.460e-03,0.237062,3.24375
-9.458e-03,0.238062,3.25859
-9.456e-03,0.238687,3.27422
-9.454e-03,0.23925,3.27812
-9.452e-03,0.239594,3.28516
-9.450e-03,0.240156,3.29297
-9.448e-03,0.240594,3.30312
-9.446e-03,0.241375,3.31328
-9.444e-03,0.241812,3.32891
-9.442e-03,0.242437,3.33359
-9.440e-03,0.243094,3.34609
-9.438e-03,0.24325,3.36016
-9.436e-03,0.244062,3.36641
-9.434e-03,0.244781,3.38047
-9.432e-03,0.244938,3.39062
-9.430e-03,0.246094,3.39687
-9.428e-03,0.246188,3.39687
-9.426e-03,0.246844,3.41094
-9.424e-03,0.2475,3.42344
-9.422e-03,0.247781,3.43516
-9.420e-03,0.248594,3.45391
-9.418e-03,0.248938,3.45703
-9.416e-03,0.24925,3.46953
-9.414e-03,0.250094,3.47344
-9.412e-03,0.24975,3.48359
-9.410e-03,0.250875,3.49453
-9.408e-03,0.251062,3.49453
-9.406e-03,0.251844,3.51406
-9.404e-03,0.252906,3.51406
-9.402e-03,0.252844,3.52656
-9.400e-03,0.253563,3.53516
-9.398e-03,0.25375,3.54062
-9.396e-03,0.254125,3.55703
-9.394e-03,0.254312,3.56719
-9.392e-03,0.254375,3.58125
-9.390e-03,0.254781,3.575
-9.388e-03,0.255344,3.58359
-9.386e-03,0.256188,3.58594
-9.384e-03,0.256188,3.6
-9.382e-03,0.257062,3.62578
-9.380e-03,0.257969,3.62656
-9.378e-03,0.258062,3.63828
-9.376e-03,0.259,3.63984
-9.374e-03,0.258875,3.66016
-9.372e-03,0.259687,3.66641
-9.370e-03,0.260156,3.67422
-9.368e-03,0.260469,3.68047
-9.366e-03,0.261375,3.6875
-9.364e-03,0.261312,3.69687
-9.362e-03,0.262188,3.70078
-9.360e-03,0.262188,3.71172
-9.358e-03,0.262687,3.72812
-9.356e-03,0.263062,3.72969
-9.354e-03,0.263219,3.74375
-9.352e-03,0.263875,3.74375
-9.350e-03,0.263875,3.75156
-9.348e-03,0.264563,3.75391
-9.346e-03,0.265531,3.76562
-9.344e-03,0.265781,3.77891
-9.342e-03,0.26625,3.78203
-9.340e-03,0.266563,3.79609
-9.338e-03,0.266312,3.79297
-9.336e-03,0.266875,3.8125
-9.334e-03,0.266969,3.825
-9.332e-03,0.267937,3.81953
-9.330e-03,0.268031,3.83516
-9.328e-03,0.268344,3.84687
-9.326e-03,0.268781,3.85
-9.324e-03,0.269094,3.86328
-9.322e-03,0.269719,3.87031
-9.320e-03,0.270125,3.87578
-9.318e-03,0.270469,3.88984
-9.316e-03,0.271125,3.89766
-9.314e-03,0.270875,3.90625
-9.312e-03,0.271344,3.91016
-9.310e-03,0.271375,3.91641
-9.308e-03,0.271437,3.91484
-9.306e-03,0.271844,3.92812
-9.304e-03,0.27225,3.92266
-9.302e-03,0.272406,3.94687
-9.300e-03,0.2725,3.95547
-9.298e-03,0.273312,3.96328
-9.296e-03,0.274031,3.97187
-9.294e-03,0.273719,3.98359
-9.292e-03,0.274531,3.99766
-9.290e-03,0.274594,3.99766
-9.288e-03,0.274438,4.00937
-9.286e-03,0.274531,4.01641
-9.284e-03,0.275281,4.02422
-9.282e-03,0.275937,4.03672
-9.280e-03,0.276062,4.05078
-9.278e-03,0.276469,4.05234
-9.276e-03,0.276344,4.0625
-9.274e-03,0.277281,4.05859
-9.272e-03,0.277563,4.075
-9.270e-03,0.277312,4.08516
-9.268e-03,0.277719,4.09062
-9.266e-03,0.278094,4.10312
-9.264e-03,0.278281,4.10547
-9.262e-03,0.278531,4.11094
-9.260e-03,0.2785,4.12109
-9.258e-03,0.278687,4.12344
-9.256e-03,0.27875,4.13437
-9.254e-03,0.28,4.14375
-9.252e-03,0.279875,4.15469
-9.250e-03,0.280531,4.16484
-9.248e-03,0.281188,4.17188
-9.246e-03,0.281031,4.18516
-9.244e-03,0.28175,4.18203
-9.242e-03,0.281687,4.18828
-9.240e-03,0.28175,4.19922
-9.238e-03,0.282031,4.20547
-9.236e-03,0.282156,4.21328
-9.234e-03,0.2825,4.22578
-9.232e-03,0.2825,4.225
-9.230e-03,0.282719,4.24141
-9.228e-03,0.283156,4.24922
-9.226e-03,0.283156,4.26406
-9.224e-03,0.283625,4.26172
-9.222e-03,0.283531,4.26641
-9.220e-03,0.283969,4.28047
-9.218e-03,0.284531,4.27656
-9.216e-03,0.283562,4.28359
-9.214e-03,0.284062,4.28828
-9.212e-03,0.284438,4.29844
-9.210e-03,0.28525,4.31016
-9.208e-03,0.285438,4.31406
-9.206e-03,0.28575,4.34062
-9.204e-03,0.286469,4.34062
-9.202e-03,0.286625,4.34297
-9.200e-03,0.286625,4.35156
-9.198e-03,0.286719,4.36484
-9.196e-03,0.287062,4.36719
-9.194e-03,0.287687,4.37812
-9.192e-03,0.287375,4.38203
-9.190e-03,0.287687,4.39375
-9.188e-03,0.28825,4.4
-9.186e-03,0.288438,4.4
-9.184e-03,0.288937,4.4
-9.182e-03,0.289094,4.41797
-9.180e-03,0.289469,4.42656
-9.178e-03,0.289156,4.43672
-9.176e-03,0.289469,4.44297
-9.174e-03,0.288937,4.45312
-9.172e-03,0.289062,4.45859
-9.170e-03,0.28975,4.45703
-9.168e-03,0.289562,4.47109
-9.166e-03,0.289906,4.47109
-9.164e-03,0.290562,4.48125
-9.162e-03,0.290875,4.48672
-9.160e-03,0.291438,4.49141
-9.158e-03,0.291031,4.50391
-9.156e-03,0.291531,4.51719
-9.154e-03,0.291094,4.52422
-9.152e-03,0.291844,4.52734
-9.150e-03,0.2925,4.53437
-9.148e-03,0.292312,4.5375
-9.146e-03,0.292594,4.53828
-9.144e-03,0.292594,4.55078
-9.142e-03,0.292656,4.55625
-9.140e-03,0.29225,4.55859
-9.138e-03,0.292344,4.575
-9.136e-03,0.292906,4.57266
-9.134e-03,0.292562,4.58125
-9.132e-03,0.293125,4.58516
-9.130e-03,0.293625,4.59297
-9.128e-03,0.293625,4.59687
-9.126e-03,0.294344,4.60312
-9.124e-03,0.293969,4.61484
-9.122e-03,0.294219,4.62344
-9.120e-03,0.2945,4.63203
-9.118e-03,0.294344,4.63906
-9.116e-03,0.294906,4.63906
-9.114e-03,0.2945,4.64922
-9.112e-03,0.294625,4.65781
-9.110e-03,0.294906,4.65547
-9.108e-03,0.295188,4.65547
-9.106e-03,0.2955,4.65391
-9.104e-03,0.29525,4.66016
-9.102e-03,0.295844,4.66797
-9.100e-03,0.296125,4.67031
-9.098e-03,0.296063,4.67422
-9.096e-03,0.296125,4.68594
-9.094e-03,0.295969,4.7
-9.092e-03,0.297125,4.70234
-9.090e-03,0.296875,4.71328
-9.088e-03,0.297219,4.71328
-9.086e-03,0.297531,4.72109
-9.084e-03,0.297031,4.73516
-9.082e-03,0.297375,4.74375
-9.080e-03,0.297281,4.74531
-9.078e-03,0.297531,4.74297
-9.076e-03,0.29775,4.75547
-9.074e-03,0.297625,4.76406
-9.072e-03,0.297844,4.76172
-9.070e-03,0.297625,4.76172
-9.068e-03,0.298344,4.77187
-9.066e-03,0.29825,4.77422
-9.064e-03,0.298281,4.79219
-9.062e-03,0.298344,4.78828
-9.060e-03,0.298,4.81016
-9.058e-03,0.29925,4.80156
-9.056e-03,0.299,4.80391
-9.054e-03,0.2995,4.82031
-9.052e-03,0.300438,4.8125
-9.050e-03,0.299719,4.82812
-9.048e-03,0.300125,4.83047
-9.046e-03,0.299719,4.83281
-9.044e-03,0.299906,4.83672
-9.042e-03,0.300187,4.83906
-9.040e-03,0.299969,4.84297
-9.038e-03,0.300625,4.84844
-9.036e-03,0.300281,4.85859
-9.034e-03,0.301031,4.85703
-9.032e-03,0.300844,4.86953
-9.030e-03,0.300438,4.875
-9.028e-03,0.301344,4.88359
-9.026e-03,0.301281,4.8875
-9.024e-03,0.301438,4.88594
-9.022e-03,0.301281,4.89609
-9.020e-03,0.3015,4.9
-9.018e-03,0.30225,4.91016
-9.016e-03,0.301656,4.91328
-9.014e-03,0.302219,4.91641
-9.012e-03,0.3025,4.91953
-9.010e-03,0.302312,4.93203
-9.008e-03,0.302156,4.93359
-9.006e-03,0.301687,4.93359
-9.004e-03,0.302469,4.93828
-9.002e-03,0.302719,4.94219
-9.000e-03,0.302094,4.95078
-8.998e-03,0.302719,4.94687
-8.996e-03,0.302906,4.95391
-8.994e-03,0.303438,4.95859
-8.992e-03,0.303156,4.96406
-8.990e-03,0.302656,4.975
-8.988e-03,0.303031,4.97656
-8.986e-03,0.303375,4.98047
-8.984e-03,0.303312,4.98281
-8.982e-03,0.303219,4.98672
-8.980e-03,0.303469,4.98906
-8.978e-03,0.303531,4.99922
-8.976e-03,0.303531,5.00312
-8.974e-03,0.303844,4.99922
-8.972e-03,0.303531,5.00781
-8.970e-03,0.303719,5.01094
-8.968e-03,0.303781,5.01562
-8.966e-03,0.303531,5.01484
-8.964e-03,0.304031,5.02109
-8.962e-03,0.303687,5.02344
-8.960e-03,0.303875,5.01719
-8.958e-03,0.30425,5.02578
-8.956e-03,0.303875,5.02812
-8.954e-03,0.303781,5.03984
-8.952e-03,0.303531,5.03984
-8.950e-03,0.30425,5.0375
-8.948e-03,0.304281,5.04609
-8.946e-03,0.304375,5.04531
-8.944e-03,0.304594,5.05156
-8.942e-03,0.304781,5.06016
-8.940e-03,0.305094,5.05156
-8.938e-03,0.305156,5.06641
-8.936e-03,0.304906,5.06406
-8.934e-03,0.305312,5.08672
-8.932e-03,0.305063,5.09062
-8.930e-03,0.30575,5.08906
-8.928e-03,0.305656,5.09219
-8.926e-03,0.30575,5.09062
-8.924e-03,0.306375,5.09687
-8.922e-03,0.305719,5.10312
-8.920e-03,0.306375,5.10469
-8.918e-03,0.306219,5.10859
-8.916e-03,0.306406,5.11875
-8.914e-03,0.306312,5.12109
-8.912e-03,0.306312,5.12656
-8.910e-03,0.306219,5.12656
-8.908e-03,0.306156,5.12109
-8.906e-03,0.306562,5.12891
-8.904e-03,0.306937,5.13281
-8.902e-03,0.306969,5.12891
-8.900e-03,0.307187,5.13281
-8.898e-03,0.306312,5.1375
-8.896e-03,0.306625,5.14531
-8.894e-03,0.307031,5.15156
-8.892e-03,0.307094,5.14766
-8.890e-03,0.307344,5.15156
-8.888e-03,0.306625,5.16328
-8.886e-03,0.307031,5.15547
-8.884e-03,0.307187,5.15391
-8.882e-03,0.307187,5.15703
-8.880e-03,0.307125,5.16562
-8.878e-03,0.307187,5.17188
-8.876e-03,0.307531,5.17031
-8.874e-03,0.306969,5.16953
-8.872e-03,0.307438,5.17031
-8.870e-03,0.30775,5.18047
-8.868e-03,0.3075,5.18437
-8.866e-03,0.307781,5.18203
-8.864e-03,0.30775,5.18203
-8.862e-03,0.308031,5.18437
-8.860e-03,0.3075,5.18828
-8.858e-03,0.307438,5.19375
-8.856e-03,0.307688,5.19453
-8.854e-03,0.307625,5.20234
-8.852e-03,0.30875,5.19453
-8.850e-03,0.308438,5.20391
-8.848e-03,0.308594,5.20234
-8.846e-03,0.309125,5.19844
-8.844e-03,0.308406,5.20469
-8.842e-03,0.308594,5.21641
-8.840e-03,0.308031,5.21875
-8.838e-03,0.308344,5.21406
-8.836e-03,0.308438,5.2125
-8.834e-03,0.308031,5.21094
-8.832e-03,0.308594,5.21484
-8.830e-03,0.308,5.22031
-8.828e-03,0.308438,5.22031
-8.826e-03,0.308562,5.21641
-8.824e-03,0.3085,5.22109
-8.822e-03,0.308656,5.22422
-8.820e-03,0.308094,5.22891
-8.818e-03,0.308187,5.21797
-8.816e-03,0.308156,5.225
-8.814e-03,0.308406,5.23828
-8.812e-03,0.308719,5.23438
-8.810e-03,0.308406,5.23906
-8.808e-03,0.308906,5.24062
-8.806e-03,0.309,5.23125
-8.804e-03,0.309156,5.23438
-8.802e-03,0.308719,5.23906
-8.800e-03,0.308094,5.24531
-8.798e-03,0.308656,5.23516
-8.796e-03,0.308844,5.23906
-8.794e-03,0.308906,5.24141
-8.792e-03,0.309063,5.24453
-8.790e-03,0.308844,5.25156
-8.788e-03,0.309375,5.24531
-8.786e-03,0.308844,5.25312
-8.784e-03,0.308906,5.25156
-8.782e-03,0.308813,5.25312
-8.780e-03,0.308813,5.25703
-8.778e-03,0.309156,5.25703
-8.776e-03,0.308312,5.25469
-8.774e-03,0.309125,5.25469
-8.772e-03,0.309375,5.25937
-8.770e-03,0.309375,5.25937
-8.768e-03,0.309156,5.25703
-8.766e-03,0.309063,5.25937
-8.764e-03,0.309625,5.26953
-8.762e-03,0.308813,5.26484
-8.760e-03,0.309625,5.26562
-8.758e-03,0.309656,5.26719
-8.756e-03,0.309312,5.26719
-8.754e-03,0.309875,5.28203
-8.752e-03,0.308969,5.27891
-8.750e-03,0.309219,5.27734
-8.748e-03,0.308844,5.27734
-8.746e-03,0.30875,5.275
-8.744e-03,0.309375,5.27578
-8.742e-03,0.309469,5.27578
-8.740e-03,0.309656,5.27187
-8.738e-03,0.309781,5.28359
-8.736e-03,0.309625,5.28359
-8.734e-03,0.309656,5.27969
-8.732e-03,0.309,5.27969
-8.730e-03,0.309781,5.27969
-8.728e-03,0.309562,5.28594
-8.726e-03,0.309469,5.28359
-8.724e-03,0.310125,5.27734
-8.722e-03,0.309219,5.28516
-8.720e-03,0.309937,5.27969
-8.718e-03,0.309937,5.28125
-8.716e-03,0.309406,5.28125
-8.714e-03,0.309719,5.27969
-8.712e-03,0.309375,5.29141
-8.710e-03,0.309719,5.275
-8.708e-03,0.309312,5.27969
-8.706e-03,0.309469,5.28359
-8.704e-03,0.309312,5.28125
-8.702e-03,0.309656,5.28203
-8.700e-03,0.310063,5.2875
-8.698e-03,0.309219,5.28125
-8.696e-03,0.308906,5.28125
-8.694e-03,0.30925,5.28516
-8.692e-03,0.309156,5.28594
-8.690e-03,0.309469,5.275
-8.688e-03,0.308813,5.27734
-8.686e-03,0.308656,5.27578
-8.684e-03,0.309781,5.27344
-8.682e-03,0.309063,5.27344
-8.680e-03,0.309312,5.27109
-8.678e-03,0.308906,5.27969
-8.676e-03,0.309406,5.26953
-8.674e-03,0.309813,5.27891
-8.672e-03,0.309312,5.26328
-8.670e-03,0.309375,5.27187
-8.668e-03,0.30925,5.27891
-8.666e-03,0.309781,5.26719
-8.664e-03,0.309312,5.26328
-8.662e-03,0.30925,5.26562
-8.660e-03,0.30925,5.26484
-8.658e-03,0.308969,5.26172
-8.656e-03,0.309,5.26172
-8.654e-03,0.309719,5.26562
-8.652e-03,0.309625,5.25859
-8.650e-03,0.309063,5.25859
-8.648e-03,0.309125,5.25859
-8.646e-03,0.309312,5.25156
-8.644e-03,0.308969,5.25469
-8.642e-03,0.308969,5.25312
-8.640e-03,0.309375,5.25078
-8.638e-03,0.309156,5.25547
-8.636e-03,0.308719,5.24922
-8.634e-03,0.308406,5.25156
-8.632e-03,0.308594,5.24531
-8.630e-03,0.308813,5.25078
-8.628e-03,0.308562,5.24453
-8.626e-03,0.308906,5.24688
-8.624e-03,0.309125,5.24062
-8.622e-03,0.309406,5.24062
-8.620e-03,0.308656,5.23281
-8.618e-03,0.308969,5.23047
-8.616e-03,0.3085,5.23828
-8.614e-03,0.308562,5.23281
-8.612e-03,0.30875,5.23281
-8.610e-03,0.3085,5.23281
-8.608e-03,0.308562,5.22656
-8.606e-03,0.308656,5.22031
-8.604e-03,0.308438,5.22266
-8.602e-03,0.308656,5.22266
-8.600e-03,0.308969,5.225
-8.598e-03,0.309125,5.225
-8.596e-03,0.308562,5.23125
-8.594e-03,0.308094,5.21797
