Lab 1 331/Limiter Sub-circuits/Circuit 2/tek0000.csv

Model,MSO3012
Firmware Version,2.40

Waveform Type,ANALOG,
Point Format,Y,
Horizontal Units,s,
Horizontal Scale,0.002,
Horizontal Delay,0,
Sample Interval,2e-06,
Record Length,10000,
Gating,0.0% to 100.0%,
Probe Attenuation,1,
Vertical Units,V,
Vertical Offset,0,
Vertical Scale,0.005,
Vertical Position,2,
,,
,,
,,
Label,,
TIME,CH1,CH2
-1.000e-02,-0.00118672,-0.0056875
-9.998e-03,-0.00113594,-0.00564844
-9.996e-03,-0.00112969,-0.00552344
-9.994e-03,-0.00108516,-0.00557813
-9.992e-03,-0.00105469,-0.00552344
-9.990e-03,-0.00104062,-0.00542187
-9.988e-03,-0.00101172,-0.0054375
-9.986e-03,-0.00103359,-0.00510156
-9.984e-03,-0.00103047,-0.00475
-9.982e-03,-0.00102344,-0.00436719
-9.980e-03,-0.00101797,-0.003875
-9.978e-03,-0.00102031,-0.00357031
-9.976e-03,-0.000999219,-0.003125
-9.974e-03,-0.000975781,-0.00300781
-9.972e-03,-0.000967187,-0.00296094
-9.970e-03,-0.000934375,-0.00298437
-9.968e-03,-0.000925,-0.00310156
-9.966e-03,-0.0009125,-0.00328906
-9.964e-03,-0.00090625,-0.00326562
-9.962e-03,-0.000911719,-0.00314844
-9.960e-03,-0.000908594,-0.00296875
-9.958e-03,-0.000859375,-0.00286719
-9.956e-03,-0.000845313,-0.0025
-9.954e-03,-0.00080625,-0.0025625
-9.952e-03,-0.000807031,-0.00245313
-9.950e-03,-0.000800781,-0.0024375
-9.948e-03,-0.00080625,-0.00260156
-9.946e-03,-0.00084375,-0.00271875
-9.944e-03,-0.000835156,-0.00263281
-9.942e-03,-0.000833594,-0.00228906
-9.940e-03,-0.000810156,-0.00190625
-9.938e-03,-0.000770313,-0.001625
-9.936e-03,-0.000752344,-0.00129688
-9.934e-03,-0.000723438,-0.00107031
-9.932e-03,-0.000695312,-0.00096875
-9.930e-03,-0.000690625,-0.000726562
-9.928e-03,-0.000675,-0.000523438
-9.926e-03,-0.000660156,-0.000320313
-9.924e-03,-0.000648437,-0.000257812
-9.922e-03,-0.00066875,-0.000101562
-9.920e-03,-0.000647656,0.00028125
-9.918e-03,-0.000657813,0.000367188
-9.916e-03,-0.000650781,0.000570313
-9.914e-03,-0.000646094,0.000554687
-9.912e-03,-0.000671094,0.000609375
-9.910e-03,-0.000640625,0.000554687
-9.908e-03,-0.000617969,0.000789063
-9.906e-03,-0.000605469,0.000953125
-9.904e-03,-0.000605469,0.00109375
-9.902e-03,-0.000592969,0.0010625
-9.900e-03,-0.000563281,0.00124219
-9.898e-03,-0.000552344,0.00120312
-9.896e-03,-0.000515625,0.00124219
-9.894e-03,-0.000496094,0.00126563
-9.892e-03,-0.000515625,0.00116406
-9.890e-03,-0.000485156,0.00121875
-9.888e-03,-0.000475,0.00158594
-9.886e-03,-0.000457031,0.00180469
-9.884e-03,-0.000453125,0.00219531
-9.882e-03,-0.000465625,0.00244531
-9.880e-03,-0.000460937,0.0025
-9.878e-03,-0.000469531,0.00246094
-9.876e-03,-0.000439063,0.00246094
-9.874e-03,-0.0004375,0.00266406
-9.872e-03,-0.000445312,0.00299219
-9.870e-03,-0.000422656,0.00313281
-9.868e-03,-0.0004125,0.00332813
-9.866e-03,-0.000361719,0.00327344
-9.864e-03,-0.000310938,0.00323437
-9.862e-03,-0.000294531,0.00323437
-9.860e-03,-0.000278125,0.00315625
-9.858e-03,-0.000276562,0.0033125
-9.856e-03,-0.000234375,0.00347656
-9.854e-03,-0.000239844,0.00357813
-9.852e-03,-0.000251563,0.00373437
-9.850e-03,-0.00025625,0.00374219
-9.848e-03,-0.000280469,0.00379688
-9.846e-03,-0.000264844,0.00392188
-9.844e-03,-0.000246094,0.00416406
-9.842e-03,-0.000227344,0.00434375
-9.840e-03,-0.000221875,0.00455469
-9.838e-03,-0.000211719,0.00498437
-9.836e-03,-0.000200781,0.005125
-9.834e-03,-0.000186719,0.00539063
-9.832e-03,-0.000170313,0.00538281
-9.830e-03,-0.00016875,0.00536719
-9.828e-03,-0.00015625,0.00553125
-9.826e-03,-0.000139844,0.00589844
-9.824e-03,-0.000134375,0.00627344
-9.822e-03,-0.000121875,0.00647656
-9.820e-03,-0.000120312,0.00667969
-9.818e-03,-0.000116406,0.0068125
-9.816e-03,-1e-04,0.00686719
-9.814e-03,-9.375e-05,0.00708594
-9.812e-03,-0.00010625,0.00701562
-9.810e-03,-8.51562e-05,0.00707031
-9.808e-03,-7.5e-05,0.00700781
-9.806e-03,-5.54687e-05,0.00694531
-9.804e-03,-5.85938e-05,0.00694531
-9.802e-03,-3.04688e-05,0.00711719
-9.800e-03,-3.90625e-05,0.00723438
-9.798e-03,-4.92187e-05,0.00719531
-9.796e-03,-5.3125e-05,0.00717188
-9.794e-03,-5.9375e-05,0.00732031
-9.792e-03,-3.67187e-05,0.00745313
-9.790e-03,-6.25e-06,0.00775781
-9.788e-03,2.8125e-05,0.00785938
-9.786e-03,4.6875e-05,0.0081875
-9.784e-03,7.65625e-05,0.00847656
-9.782e-03,0.000117969,0.0089375
-9.780e-03,0.000127344,0.00914062
-9.778e-03,0.000189062,0.00932813
-9.776e-03,0.000194531,0.00939062
-9.774e-03,0.000192187,0.009125
-9.772e-03,0.000233594,0.00903906
-9.770e-03,0.000223437,0.00949219
-9.768e-03,0.00025,0.00957031
-9.766e-03,0.000242969,0.00996094
-9.764e-03,0.000245313,0.0100156
-9.762e-03,0.000229688,0.009875
-9.760e-03,0.00024375,0.00999219
-9.758e-03,0.000271875,0.00989063
-9.756e-03,0.000279688,0.00985938
-9.754e-03,0.000273438,0.00964844
-9.752e-03,0.00029375,0.00996094
-9.750e-03,0.000271875,0.0103672
-9.748e-03,0.000303906,0.0107734
-9.746e-03,0.000298438,0.0108672
-9.744e-03,0.000308594,0.0109687
-9.742e-03,0.000325,0.0110547
-9.740e-03,0.00033125,0.0112969
-9.738e-03,0.000364844,0.0112969
-9.736e-03,0.000334375,0.0112813
-9.734e-03,0.000345313,0.0112344
-9.732e-03,0.000335156,0.0113516
-9.730e-03,0.000332812,0.0114141
-9.728e-03,0.000328906,0.0115234
-9.726e-03,0.000377344,0.0115859
-9.724e-03,0.00040625,0.0117266
-9.722e-03,0.000415625,0.0119609
-9.720e-03,0.000422656,0.0120313
-9.718e-03,0.000448438,0.0122656
-9.716e-03,0.000482813,0.0126172
-9.714e-03,0.000507812,0.0127578
-9.712e-03,0.000525781,0.0129766
-9.710e-03,0.000542188,0.0131406
-9.708e-03,0.000574219,0.0132031
-9.706e-03,0.000613281,0.0132891
-9.704e-03,0.000613281,0.0133281
-9.702e-03,0.000621875,0.0136719
-9.700e-03,0.000628906,0.0138984
-9.698e-03,0.000617187,0.014125
-9.696e-03,0.000625,0.0142266
-9.694e-03,0.000649219,0.0141953
-9.692e-03,0.000653906,0.0142813
-9.690e-03,0.000651563,0.0142031
-9.688e-03,0.0006375,0.0140938
-9.686e-03,0.000604688,0.014
-9.684e-03,0.000592969,0.0139766
-9.682e-03,0.000615625,0.0140156
-9.680e-03,0.000657813,0.0140625
-9.678e-03,0.000670313,0.0142031
-9.676e-03,0.000696875,0.0144297
-9.674e-03,0.000736719,0.0147344
-9.672e-03,0.000696094,0.0151172
-9.670e-03,0.000696094,0.0154219
-9.668e-03,0.00065625,0.0155
-9.666e-03,0.000688281,0.0156484
-9.664e-03,0.000682031,0.0158828
-9.662e-03,0.000690625,0.0161094
-9.660e-03,0.000710937,0.0162969
-9.658e-03,0.00071875,0.0165625
-9.656e-03,0.000713281,0.0166797
-9.654e-03,0.000717188,0.0166641
-9.652e-03,0.000749219,0.0166641
-9.650e-03,0.000796094,0.0168047
-9.648e-03,0.000814844,0.0169219
-9.646e-03,0.000828125,0.0169609
-9.644e-03,0.00081875,0.0172266
-9.642e-03,0.000820312,0.0176484
-9.640e-03,0.000836719,0.0179844
-9.638e-03,0.000857031,0.0183281
-9.636e-03,0.000897656,0.0184609
-9.634e-03,0.000915625,0.0184297
-9.632e-03,0.000960937,0.0184453
-9.630e-03,0.000977344,0.0185234
-9.628e-03,0.000982813,0.0185078
-9.626e-03,0.000974219,0.0187266
-9.624e-03,0.000974219,0.0187891
-9.622e-03,0.000926563,0.0189922
-9.620e-03,0.000929687,0.0189922
-9.618e-03,0.000944531,0.0191797
-9.616e-03,0.000960156,0.019375
-9.614e-03,0.000995312,0.0195469
-9.612e-03,0.00104219,0.0197422
-9.610e-03,0.00107266,0.0199922
-9.608e-03,0.00108203,0.0202969
-9.606e-03,0.00109688,0.0199688
-9.604e-03,0.00110469,0.0199141
-9.602e-03,0.00109688,0.0197656
-9.600e-03,0.0011125,0.0195469
-9.598e-03,0.00111641,0.0198828
-9.596e-03,0.00117344,0.0202891
-9.594e-03,0.00120469,0.0203125
-9.592e-03,0.00122891,0.0202109
-9.590e-03,0.001225,0.020375
-9.588e-03,0.00122656,0.0203359
-9.586e-03,0.00125859,0.0206172
-9.584e-03,0.00124453,0.0207656
-9.582e-03,0.00123672,0.0209844
-9.580e-03,0.00121484,0.021125
-9.578e-03,0.00118359,0.0213047
-9.576e-03,0.00118359,0.0215781
-9.574e-03,0.00119766,0.0219219
-9.572e-03,0.00122891,0.0219453
-9.570e-03,0.00124844,0.0222266
-9.568e-03,0.00128984,0.0222891
-9.566e-03,0.00129219,0.0224922
-9.564e-03,0.00130391,0.0223906
-9.562e-03,0.00132656,0.0224063
-9.560e-03,0.00134062,0.0223906
-9.558e-03,0.00134609,0.0224297
-9.556e-03,0.00138047,0.0223281
-9.554e-03,0.00135234,0.0224688
-9.552e-03,0.00137891,0.0223906
-9.550e-03,0.00140391,0.0224453
-9.548e-03,0.00145,0.022625
-9.546e-03,0.00145469,0.0228281
-9.544e-03,0.00148203,0.0231953
-9.542e-03,0.00148828,0.0234219
-9.540e-03,0.00147031,0.0238516
-9.538e-03,0.00148203,0.0239688
-9.536e-03,0.00146875,0.0240937
-9.534e-03,0.00147422,0.0242109
-9.532e-03,0.00150703,0.0243594
-9.530e-03,0.00152109,0.0244219
-9.528e-03,0.00153359,0.0244375
-9.526e-03,0.00151953,0.0243828
-9.524e-03,0.00152578,0.0243984
-9.522e-03,0.001525,0.024625
-9.520e-03,0.00154141,0.0249063
-9.518e-03,0.00159063,0.0250078
-9.516e-03,0.00161406,0.0250859
-9.514e-03,0.00160391,0.0250859
-9.512e-03,0.00162422,0.0252969
-9.510e-03,0.00162656,0.0254375
-9.508e-03,0.00164297,0.0257187
-9.506e-03,0.00163125,0.0259063
-9.504e-03,0.00165938,0.0257578
-9.502e-03,0.00167109,0.0258828
-9.500e-03,0.00167187,0.0261797
-9.498e-03,0.00166797,0.0262031
-9.496e-03,0.00165938,0.0262031
-9.494e-03,0.00169531,0.0259766
-9.492e-03,0.00170625,0.0262656
-9.490e-03,0.00170391,0.0265547
-9.488e-03,0.00173437,0.0267344
-9.486e-03,0.00173437,0.0267891
-9.484e-03,0.00175859,0.0266328
-9.482e-03,0.00177266,0.0266328
-9.480e-03,0.00177109,0.0265156
-9.478e-03,0.0018,0.0267187
-9.476e-03,0.00181719,0.0267969
-9.474e-03,0.00185859,0.0271016
-9.472e-03,0.00184766,0.0272187
-9.470e-03,0.00185859,0.0274453
-9.468e-03,0.00185625,0.0277734
-9.466e-03,0.00183203,0.0280156
-9.464e-03,0.00182969,0.0280313
-9.462e-03,0.00185234,0.0282188
-9.460e-03,0.00188125,0.0282422
-9.458e-03,0.00189141,0.0282734
-9.456e-03,0.00188281,0.0282188
-9.454e-03,0.00187422,0.0283203
-9.452e-03,0.00186484,0.0284375
-9.450e-03,0.0018625,0.0284375
-9.448e-03,0.00187031,0.0285469
-9.446e-03,0.00189062,0.0286016
-9.444e-03,0.00191563,0.0287813
-9.442e-03,0.00192344,0.0292969
-9.440e-03,0.00193984,0.0296797
-9.438e-03,0.00193906,0.0298359
-9.436e-03,0.00195156,0.0298594
-9.434e-03,0.00196797,0.0297031
-9.432e-03,0.00196953,0.0296016
-9.430e-03,0.00198203,0.0296406
-9.428e-03,0.00199219,0.0300391
-9.426e-03,0.00201484,0.0301719
-9.424e-03,0.00203516,0.0304531
-9.422e-03,0.00202266,0.0305781
-9.420e-03,0.002025,0.0307188
-9.418e-03,0.00202344,0.0308125
-9.416e-03,0.00200859,0.0307344
-9.414e-03,0.00201328,0.0306797
-9.412e-03,0.00204375,0.0306797
-9.410e-03,0.00206953,0.0307734
-9.408e-03,0.00207734,0.0310547
-9.406e-03,0.00211641,0.0312188
-9.404e-03,0.00214688,0.0312031
-9.402e-03,0.00215547,0.0313203
-9.400e-03,0.00217969,0.0314922
-9.398e-03,0.00216094,0.03175
-9.396e-03,0.00216953,0.0320781
-9.394e-03,0.00215547,0.0323203
-9.392e-03,0.00215703,0.0325
-9.390e-03,0.00219609,0.0325469
-9.388e-03,0.00221328,0.0325391
-9.386e-03,0.00223594,0.0322734
-9.384e-03,0.00223594,0.0322031
-9.382e-03,0.00223438,0.0320781
-9.380e-03,0.00224453,0.0320547
-9.378e-03,0.00225625,0.0321328
-9.376e-03,0.00226875,0.0321797
-9.374e-03,0.00226484,0.0324609
-9.372e-03,0.00227422,0.0325781
-9.370e-03,0.00229141,0.0325781
-9.368e-03,0.00230547,0.0327422
-9.366e-03,0.00235625,0.0327891
-9.364e-03,0.00236406,0.0329453
-9.362e-03,0.00238438,0.0331172
-9.360e-03,0.00239687,0.0336016
-9.358e-03,0.00239922,0.0338984
-9.356e-03,0.00238594,0.034
-9.354e-03,0.00238281,0.0342109
-9.352e-03,0.00238281,0.0340703
-9.350e-03,0.00234844,0.0341875
-9.348e-03,0.00233359,0.0343125
-9.346e-03,0.00236406,0.0341328
-9.344e-03,0.00235859,0.0342344
-9.342e-03,0.00237266,0.0344531
-9.340e-03,0.00237578,0.0345703
-9.338e-03,0.00239922,0.0344688
-9.336e-03,0.00243125,0.0344141
-9.334e-03,0.00242891,0.0344297
-9.332e-03,0.00244141,0.0344297
-9.330e-03,0.0024375,0.0346172
-9.328e-03,0.00246797,0.0346562
-9.326e-03,0.00246953,0.0347812
-9.324e-03,0.00247188,0.0349141
-9.322e-03,0.00245547,0.0351797
-9.320e-03,0.00246016,0.0355859
-9.318e-03,0.00245937,0.0358594
-9.316e-03,0.00249453,0.035875
-9.314e-03,0.00250625,0.0357109
-9.312e-03,0.00250625,0.0355313
-9.310e-03,0.00249453,0.0354688
-9.308e-03,0.0025125,0.0354531
-9.306e-03,0.00249844,0.0356563
-9.304e-03,0.00247344,0.0359297
-9.302e-03,0.00246953,0.0360938
-9.300e-03,0.00243906,0.0361016
-9.298e-03,0.00246719,0.0360391
-9.296e-03,0.00248828,0.0362188
-9.294e-03,0.00254453,0.0362578
-9.292e-03,0.00255859,0.0365
-9.290e-03,0.00256328,0.0368047
-9.288e-03,0.00257734,0.0371328
-9.286e-03,0.00258203,0.0372734
-9.284e-03,0.00259531,0.0372813
-9.282e-03,0.00261406,0.0371953
-9.280e-03,0.00264453,0.0372344
-9.278e-03,0.00267109,0.0372813
-9.276e-03,0.00268125,0.0375859
-9.274e-03,0.00270391,0.0376797
-9.272e-03,0.00271172,0.0377422
-9.270e-03,0.00270781,0.0377656
-9.268e-03,0.00271172,0.0377813
-9.266e-03,0.00271406,0.0377656
-9.264e-03,0.00271953,0.037625
-9.262e-03,0.00271797,0.0375391
-9.260e-03,0.00271797,0.037375
-9.258e-03,0.00274141,0.0375156
-9.256e-03,0.00272344,0.0377422
-9.254e-03,0.00272188,0.0379297
-9.252e-03,0.00270781,0.0381641
-9.250e-03,0.00271719,0.0382969
-9.248e-03,0.00271797,0.0381875
-9.246e-03,0.00270547,0.038125
-9.244e-03,0.00270547,0.0380078
-9.242e-03,0.00271328,0.0381328
-9.240e-03,0.00275391,0.0382969
-9.238e-03,0.002775,0.0384688
-9.236e-03,0.00277891,0.0387578
-9.234e-03,0.00277813,0.0388984
-9.232e-03,0.00276641,0.0393438
-9.230e-03,0.00279531,0.0394922
-9.228e-03,0.00283125,0.0398203
-9.226e-03,0.00284609,0.0399219
-9.224e-03,0.00286172,0.0399141
-9.222e-03,0.00286641,0.0395859
-9.220e-03,0.00286953,0.0396094
-9.218e-03,0.00285781,0.0399375
-9.216e-03,0.00285781,0.0402266
-9.214e-03,0.00287422,0.0402031
-9.212e-03,0.00289219,0.0402188
-9.210e-03,0.00289375,0.04
-9.208e-03,0.00290703,0.0400938
-9.206e-03,0.00287422,0.0400938
-9.204e-03,0.00290703,0.0402813
-9.202e-03,0.00290078,0.0404219
-9.200e-03,0.0029125,0.0402656
-9.198e-03,0.00290234,0.0403047
-9.196e-03,0.00288594,0.0403047
-9.194e-03,0.00290859,0.0403672
-9.192e-03,0.0029125,0.04075
-9.190e-03,0.00293516,0.0408359
-9.188e-03,0.00292031,0.0408359
-9.186e-03,0.00292266,0.0408047
-9.184e-03,0.00294141,0.0405234
-9.182e-03,0.0029375,0.0405625
-9.180e-03,0.00293281,0.0404688
-9.178e-03,0.00295078,0.0407734
-9.176e-03,0.00296484,0.0410547
-9.174e-03,0.00297578,0.0412813
-9.172e-03,0.00297734,0.0413594
-9.170e-03,0.00298359,0.0417188
-9.168e-03,0.00296563,0.0419297
-9.166e-03,0.00298594,0.04225
-9.164e-03,0.00298984,0.0423906
-9.162e-03,0.00301406,0.0425156
-9.160e-03,0.00303438,0.0425156
-9.158e-03,0.00302578,0.0425313
-9.156e-03,0.00300859,0.0422891
-9.154e-03,0.00298594,0.0422109
-9.152e-03,0.00298359,0.042375
-9.150e-03,0.00297578,0.0425156
-9.148e-03,0.00297344,0.0426328
-9.146e-03,0.00299766,0.0427188
-9.144e-03,0.00302188,0.0430078
-9.142e-03,0.00302188,0.0433438
-9.140e-03,0.00302266,0.0433672
-9.138e-03,0.00301797,0.0433906
-9.136e-03,0.00303203,0.0435313
-9.134e-03,0.00304297,0.0438203
-9.132e-03,0.00303281,0.0438359
-9.130e-03,0.00304688,0.0438359
-9.128e-03,0.00304688,0.0436172
-9.126e-03,0.00308125,0.0435156
-9.124e-03,0.00307891,0.0433906
-9.122e-03,0.00311953,0.0432656
-9.120e-03,0.00312422,0.0435469
-9.118e-03,0.00313828,0.0436953
-9.116e-03,0.00314844,0.0436328
-9.114e-03,0.00314844,0.0437344
-9.112e-03,0.00318047,0.0434766
-9.110e-03,0.00317813,0.0433906
-9.108e-03,0.00318672,0.0433125
-9.106e-03,0.00320703,0.0432891
-9.104e-03,0.00321094,0.0435078
-9.102e-03,0.00320703,0.0437344
-9.100e-03,0.00321562,0.044125
-9.098e-03,0.00318672,0.0442422
-9.096e-03,0.00317422,0.0443281
-9.094e-03,0.00314375,0.0445313
-9.092e-03,0.00317266,0.0448906
-9.090e-03,0.00319531,0.0451172
-9.088e-03,0.00320938,0.0451172
-9.086e-03,0.00324609,0.0451172
-9.084e-03,0.00327188,0.0449688
-9.082e-03,0.00328672,0.0448906
-9.080e-03,0.00327812,0.04475
-9.078e-03,0.00327578,0.0447734
-9.076e-03,0.00327031,0.0449297
-9.074e-03,0.00325938,0.0452188
-9.072e-03,0.00327578,0.0456797
-9.070e-03,0.00327656,0.0456484
-9.068e-03,0.00329297,0.0457266
-9.066e-03,0.00327656,0.0456641
-9.064e-03,0.00328281,0.0455625
-9.062e-03,0.00328594,0.0456797
-9.060e-03,0.00325625,0.0456797
-9.058e-03,0.00329453,0.0457656
-9.056e-03,0.00331641,0.0460078
-9.054e-03,0.00332266,0.0460078
-9.052e-03,0.00336094,0.0460469
-9.050e-03,0.00335703,0.0459531
-9.048e-03,0.00336953,0.0457109
-9.046e-03,0.00335781,0.0457266
-9.044e-03,0.00335703,0.0458906
-9.042e-03,0.00336563,0.0459688
-9.040e-03,0.00334531,0.0461328
-9.038e-03,0.00336172,0.0463594
-9.036e-03,0.00334922,0.0465547
-9.034e-03,0.00335703,0.0464609
-9.032e-03,0.00337969,0.0465
-9.030e-03,0.0034,0.0465391
-9.028e-03,0.00341641,0.0466641
-9.026e-03,0.00339453,0.0468281
-9.024e-03,0.00337109,0.0469844
-9.022e-03,0.00336719,0.0471484
-9.020e-03,0.00334922,0.047375
-9.018e-03,0.00335313,0.0473906
-9.016e-03,0.00334766,0.0473047
-9.014e-03,0.00336172,0.0472656
-9.012e-03,0.00338438,0.0473359
-9.010e-03,0.00341641,0.047375
-9.008e-03,0.00344531,0.0473281
-9.006e-03,0.00345703,0.0476563
-9.004e-03,0.00346953,0.0478125
-9.002e-03,0.00347891,0.0479609
-9.000e-03,0.00347109,0.04825
-8.998e-03,0.00346719,0.0483281
-8.996e-03,0.00348516,0.0484219
-8.994e-03,0.00346484,0.0481797
-8.992e-03,0.00344922,0.0477344
-8.990e-03,0.00344531,0.0475078
-8.988e-03,0.00347734,0.0474531
-8.986e-03,0.00349141,0.0476406
-8.984e-03,0.00350625,0.0479375
-8.982e-03,0.00349375,0.0483516
-8.980e-03,0.00348516,0.0485547
-8.978e-03,0.003475,0.0486094
-8.976e-03,0.00348125,0.0485859
-8.974e-03,0.00350391,0.0484531
-8.972e-03,0.00355391,0.0484922
-8.970e-03,0.00360313,0.0483438
-8.968e-03,0.003625,0.0482031
-8.966e-03,0.00361563,0.0483047
-8.964e-03,0.00362813,0.0484922
-8.962e-03,0.00362969,0.0484688
-8.960e-03,0.00361484,0.0483438
-8.958e-03,0.00358438,0.0481875
-8.956e-03,0.00358047,0.0482891
-8.954e-03,0.00358672,0.0485078
-8.952e-03,0.00356875,0.0488594
-8.950e-03,0.00355469,0.0492656
-8.948e-03,0.00356406,0.0495625
-8.946e-03,0.00356875,0.0498516
-8.944e-03,0.003575,0.0501563
-8.942e-03,0.00355625,0.0501719
-8.940e-03,0.00357109,0.0500156
-8.938e-03,0.00357422,0.0498672
-8.936e-03,0.00356875,0.0499141
-8.934e-03,0.00356719,0.0498281
-8.932e-03,0.00352422,0.0498438
-8.930e-03,0.00353359,0.0496484
-8.928e-03,0.00352813,0.0495469
-8.926e-03,0.00355703,0.0494453
-8.924e-03,0.00358516,0.0494453
-8.922e-03,0.00361484,0.0493672
-8.920e-03,0.00363828,0.0492656
-8.918e-03,0.00364219,0.0492188
-8.916e-03,0.00367187,0.0493672
-8.914e-03,0.00368672,0.0495469
-8.912e-03,0.00370312,0.0497891
-8.910e-03,0.00370078,0.0499531
-8.908e-03,0.00367891,0.0499297
-8.906e-03,0.00369063,0.0500781
-8.904e-03,0.00369453,0.0503203
-8.902e-03,0.00370312,0.0505625
-8.900e-03,0.00369922,0.0508047
-8.898e-03,0.00370938,0.0506797
-8.896e-03,0.00372656,0.0505547
-8.894e-03,0.00371953,0.0505859
-8.892e-03,0.00373125,0.0507578
-8.890e-03,0.00372266,0.0507813
-8.888e-03,0.00371328,0.0508906
-8.886e-03,0.00374766,0.0509609
-8.884e-03,0.00378203,0.0508047
-8.882e-03,0.00378594,0.0505
-8.880e-03,0.00379766,0.0503984
-8.878e-03,0.00377578,0.0503359
-8.876e-03,0.0037875,0.0503516
-8.874e-03,0.00375703,0.0504219
-8.872e-03,0.00376406,0.0506875
-8.870e-03,0.00379219,0.0507266
-8.868e-03,0.00377813,0.0507266
-8.866e-03,0.00376328,0.0506016
-8.864e-03,0.00374922,0.0505156
-8.862e-03,0.00378203,0.0505
-8.860e-03,0.00381484,0.0507031
-8.858e-03,0.00381016,0.0508047
-8.856e-03,0.00378828,0.0506875
-8.854e-03,0.00378984,0.0507578
-8.852e-03,0.00382812,0.0508438
-8.850e-03,0.00381406,0.0509844
-8.848e-03,0.00383125,0.051125
-8.846e-03,0.00383828,0.0510938
-8.844e-03,0.00385703,0.0511953
-8.842e-03,0.00385156,0.0513984
-8.840e-03,0.00382656,0.0515
-8.838e-03,0.00383672,0.0516328
-8.836e-03,0.00384531,0.0516328
-8.834e-03,0.00382656,0.0516953
-8.832e-03,0.00383281,0.0517188
-8.830e-03,0.00381094,0.0516406
-8.828e-03,0.00381875,0.0515391
-8.826e-03,0.00380859,0.0513516
-8.824e-03,0.00383906,0.0512969
-8.822e-03,0.00389609,0.0514531
-8.820e-03,0.00389375,0.0516406
-8.818e-03,0.00391563,0.0518359
-8.816e-03,0.00389141,0.0519844
-8.814e-03,0.00387344,0.0519609
-8.812e-03,0.00387578,0.0520469
-8.810e-03,0.00385937,0.0520625
-8.808e-03,0.00385313,0.0522422
-8.806e-03,0.00385703,0.0525547
-8.804e-03,0.00388359,0.0526563
-8.802e-03,0.00390391,0.0527109
-8.800e-03,0.00389219,0.0525938
-8.798e-03,0.00390156,0.0525859
-8.796e-03,0.00388203,0.0525469
-8.794e-03,0.00386563,0.0525156
-8.792e-03,0.00386719,0.0523828
