Report/Part 1.3/Series Opposing Polarities Zener Diode Circuit/tek0000.csv

Model,MSO3012
Firmware Version,2.40

Waveform Type,ANALOG,
Point Format,Y,
Horizontal Units,s,
Horizontal Scale,0.002,
Horizontal Delay,0,
Sample Interval,2e-06,
Record Length,10000,
Gating,0.0% to 100.0%,
Probe Attenuation,1,
Vertical Units,V,
Vertical Offset,0,
Vertical Scale,0.005,
Vertical Position,2,
,,
,,
,,
Label,,
TIME,CH1,CH2
-1.000e-02,-0.00119297,-0.00595313
-9.998e-03,-0.00114766,-0.00560156
-9.996e-03,-0.00115859,-0.00514062
-9.994e-03,-0.00115156,-0.00495313
-9.992e-03,-0.00115781,-0.00496875
-9.990e-03,-0.00114609,-0.00501562
-9.988e-03,-0.00113984,-0.00507031
-9.986e-03,-0.00112969,-0.005
-9.984e-03,-0.00110781,-0.005
-9.982e-03,-0.00111484,-0.00489062
-9.980e-03,-0.00109766,-0.00469531
-9.978e-03,-0.00106875,-0.00469531
-9.976e-03,-0.00107109,-0.00446094
-9.974e-03,-0.00106094,-0.0045625
-9.972e-03,-0.00105234,-0.00442187
-9.970e-03,-0.00104375,-0.00428125
-9.968e-03,-0.00102031,-0.00439062
-9.966e-03,-0.00102188,-0.00432031
-9.964e-03,-0.001,-0.00415625
-9.962e-03,-0.00100937,-0.0038125
-9.960e-03,-0.00099375,-0.00364844
-9.958e-03,-0.000971094,-0.00357813
-9.956e-03,-0.000983594,-0.00342969
-9.954e-03,-0.000971094,-0.00360937
-9.952e-03,-0.000967187,-0.00345313
-9.950e-03,-0.000940625,-0.00349219
-9.948e-03,-0.000924219,-0.00334375
-9.946e-03,-0.000949219,-0.00296875
-9.944e-03,-0.000914062,-0.00269531
-9.942e-03,-0.000928125,-0.00245313
-9.940e-03,-0.00091875,-0.00225
-9.938e-03,-0.000910156,-0.00214844
-9.936e-03,-0.000901562,-0.0021875
-9.934e-03,-0.000884375,-0.002125
-9.932e-03,-0.0008875,-0.00182031
-9.930e-03,-0.000859375,-0.00157812
-9.928e-03,-0.000846875,-0.00141406
-9.926e-03,-0.000840625,-0.00154688
-9.924e-03,-0.000807031,-0.00164062
-9.922e-03,-0.000786719,-0.00166406
-9.920e-03,-0.000767969,-0.00172656
-9.918e-03,-0.000764062,-0.001625
-9.916e-03,-0.000746094,-0.00138281
-9.914e-03,-0.000719531,-0.00114062
-9.912e-03,-0.000727344,-0.000804687
-9.910e-03,-0.000715625,-0.000710937
-9.908e-03,-0.000701562,-0.000609375
-9.906e-03,-0.000703125,-0.000585937
-9.904e-03,-0.000709375,-0.000460937
-9.902e-03,-0.000692969,-0.000429687
-9.900e-03,-0.000647656,-0.000179687
-9.898e-03,-0.000628125,0.000109375
-9.896e-03,-0.000621875,0.00040625
-9.894e-03,-0.0005875,0.000820313
-9.892e-03,-0.000597656,0.001
-9.890e-03,-0.000572656,0.00116406
-9.888e-03,-0.000601562,0.00138281
-9.886e-03,-0.000573437,0.00154688
-9.884e-03,-0.000554687,0.00177344
-9.882e-03,-0.000516406,0.00197656
-9.880e-03,-0.0005125,0.00199219
-9.878e-03,-0.000517969,0.00185156
-9.876e-03,-0.000520312,0.00195312
-9.874e-03,-0.000534375,0.00229688
-9.872e-03,-0.000546875,0.00253906
-9.870e-03,-0.000530469,0.00278906
-9.868e-03,-0.00051875,0.00304688
-9.866e-03,-0.000498438,0.00307031
-9.864e-03,-0.000485156,0.00332813
-9.862e-03,-0.000495312,0.00327344
-9.860e-03,-0.000495312,0.00307031
-9.858e-03,-0.000485156,0.00289063
-9.856e-03,-0.000457031,0.00285156
-9.854e-03,-0.000461719,0.00280469
-9.852e-03,-0.000441406,0.00286719
-9.850e-03,-0.000430469,0.00307031
-9.848e-03,-0.000432812,0.0035
-9.846e-03,-0.000421094,0.00389844
-9.844e-03,-0.000408594,0.00414844
-9.842e-03,-0.000385937,0.00408594
-9.840e-03,-0.000379687,0.00404688
-9.838e-03,-0.000378125,0.00408594
-9.836e-03,-0.000365625,0.00424219
-9.834e-03,-0.000366406,0.00439063
-9.832e-03,-0.000335937,0.00447656
-9.830e-03,-0.000325,0.00457031
-9.828e-03,-0.000304687,0.00460937
-9.826e-03,-0.000276562,0.00467188
-9.824e-03,-0.000238281,0.00497656
-9.822e-03,-0.000199219,0.00514063
-9.820e-03,-0.000182812,0.0051875
-9.818e-03,-0.000178906,0.00526563
-9.816e-03,-0.000167187,0.005125
-9.814e-03,-0.000164844,0.00544531
-9.812e-03,-0.000140625,0.00566406
-9.810e-03,-0.000116406,0.00599219
-9.808e-03,-0.000105469,0.00642188
-9.806e-03,-7.89062e-05,0.00647656
-9.804e-03,-0.000105469,0.00628125
-9.802e-03,-8.59375e-05,0.00607813
-9.800e-03,-8.75e-05,0.00605469
-9.798e-03,-9.21875e-05,0.00599219
-9.796e-03,-0.000119531,0.00619531
-9.794e-03,-0.000119531,0.00650781
-9.792e-03,-0.000103906,0.0066875
-9.790e-03,-9.375e-05,0.0071875
-9.788e-03,-5.15625e-05,0.00747656
-9.786e-03,-3.51562e-05,0.00790625
-9.784e-03,-7.8125e-06,0.00807031
-9.782e-03,1.95312e-05,0.00810156
-9.780e-03,2.42188e-05,0.00802344
-9.778e-03,7.5e-05,0.00784375
-9.776e-03,0.000113281,0.00790625
-9.774e-03,0.0001375,0.0083125
-9.772e-03,0.000146094,0.00846875
-9.770e-03,0.000133594,0.00857031
-9.768e-03,0.000135938,0.00857813
-9.766e-03,0.000139844,0.00851562
-9.764e-03,0.000135938,0.00849219
-9.762e-03,0.000124219,0.00861719
-9.760e-03,0.000132031,0.00883594
-9.758e-03,0.000129687,0.00902344
-9.756e-03,0.000117188,0.00935156
-9.754e-03,0.000142187,0.00946875
-9.752e-03,0.00015625,0.00949219
-9.750e-03,0.000195313,0.00946875
-9.748e-03,0.000257813,0.00940625
-9.746e-03,0.000270312,0.00942969
-9.744e-03,0.000298438,0.00967188
-9.742e-03,0.000289844,0.00985156
-9.740e-03,0.000289844,0.0100156
-9.738e-03,0.000302344,0.0103984
-9.736e-03,0.000298438,0.0107031
-9.734e-03,0.000279688,0.0108516
-9.732e-03,0.000298438,0.0111094
-9.730e-03,0.000284375,0.0110156
-9.728e-03,0.000276563,0.0111172
-9.726e-03,0.000285937,0.0113125
-9.724e-03,0.000339063,0.0114375
-9.722e-03,0.000342969,0.0116172
-9.720e-03,0.000379687,0.0114531
-9.718e-03,0.000385938,0.0118281
-9.716e-03,0.000403906,0.0121328
-9.714e-03,0.000416406,0.0124531
-9.712e-03,0.000405469,0.0124766
-9.710e-03,0.000426562,0.0126016
-9.708e-03,0.000432813,0.0126406
-9.706e-03,0.000432813,0.0128438
-9.704e-03,0.000428125,0.0127969
-9.702e-03,0.000420313,0.0127188
-9.700e-03,0.000425781,0.0127031
-9.698e-03,0.000432031,0.0126328
-9.696e-03,0.000420313,0.0127422
-9.694e-03,0.000442187,0.0128984
-9.692e-03,0.000457031,0.0130234
-9.690e-03,0.000492969,0.0129453
-9.688e-03,0.000505469,0.0129063
-9.686e-03,0.000539844,0.0130469
-9.684e-03,0.000571094,0.0133125
-9.682e-03,0.000554687,0.0136875
-9.680e-03,0.000558594,0.0139141
-9.678e-03,0.00055,0.0140938
-9.676e-03,0.000575,0.0142266
-9.674e-03,0.000605469,0.0144453
-9.672e-03,0.000599219,0.0147344
-9.670e-03,0.000632031,0.0150156
-9.668e-03,0.000660156,0.0153359
-9.666e-03,0.00065625,0.0156484
-9.664e-03,0.000660156,0.0158047
-9.662e-03,0.000659375,0.01575
-9.660e-03,0.000708594,0.0157891
-9.658e-03,0.000710937,0.0159297
-9.656e-03,0.000713281,0.0160859
-9.654e-03,0.0007375,0.0161719
-9.652e-03,0.000742969,0.0159688
-9.650e-03,0.000769531,0.0158672
-9.648e-03,0.000798438,0.0160938
-9.646e-03,0.000820312,0.0162969
-9.644e-03,0.000814844,0.0165547
-9.642e-03,0.000814063,0.0168438
-9.640e-03,0.000828906,0.017
-9.638e-03,0.000821875,0.0168203
-9.636e-03,0.000846875,0.0169375
-9.634e-03,0.000842188,0.0169844
-9.632e-03,0.000791406,0.0171875
-9.630e-03,0.000784375,0.0174062
-9.628e-03,0.000767969,0.0176797
-9.626e-03,0.000769531,0.0176484
-9.624e-03,0.000778125,0.0176719
-9.622e-03,0.000814063,0.0175938
-9.620e-03,0.000842188,0.0176719
-9.618e-03,0.000889063,0.017875
-9.616e-03,0.000924219,0.0180781
-9.614e-03,0.000946094,0.0186328
-9.612e-03,0.000991406,0.0190312
-9.610e-03,0.00100313,0.0192031
-9.608e-03,0.00101094,0.0192188
-9.606e-03,0.00102344,0.0191406
-9.604e-03,0.00100703,0.0191406
-9.602e-03,0.000995312,0.0191172
-9.600e-03,0.000996875,0.0192031
-9.598e-03,0.000986719,0.0192969
-9.596e-03,0.000974219,0.0191328
-9.594e-03,0.000980469,0.0191953
-9.592e-03,0.00100469,0.0192578
-9.590e-03,0.000990625,0.0193438
-9.588e-03,0.000985156,0.0195234
-9.586e-03,0.00103359,0.0199453
-9.584e-03,0.00105547,0.0201953
-9.582e-03,0.00107187,0.0203906
-9.580e-03,0.00105547,0.0203359
-9.578e-03,0.00105781,0.0204609
-9.576e-03,0.00107031,0.0203594
-9.574e-03,0.00109609,0.0205625
-9.572e-03,0.00113125,0.0207813
-9.570e-03,0.00117734,0.0210703
-9.568e-03,0.00120078,0.0213672
-9.566e-03,0.00118984,0.0215078
-9.564e-03,0.00117422,0.0216328
-9.562e-03,0.00117578,0.0213516
-9.560e-03,0.00117422,0.0212344
-9.558e-03,0.00118984,0.0213672
-9.556e-03,0.00120859,0.021375
-9.554e-03,0.00122656,0.0214766
-9.552e-03,0.00124453,0.0217109
-9.550e-03,0.00124844,0.0219453
-9.548e-03,0.00125313,0.0222813
-9.546e-03,0.00125938,0.02225
-9.544e-03,0.00127109,0.0224219
-9.542e-03,0.00129219,0.0224297
-9.540e-03,0.00129219,0.0226563
-9.538e-03,0.00133438,0.0229531
-9.536e-03,0.00134609,0.0232422
-9.534e-03,0.00137734,0.0236719
-9.532e-03,0.00140078,0.0239922
-9.530e-03,0.00138047,0.0240547
-9.528e-03,0.00140703,0.0241563
-9.526e-03,0.00141406,0.0241484
-9.524e-03,0.00144766,0.0244141
-9.522e-03,0.00143359,0.0245859
-9.520e-03,0.00142813,0.0247656
-9.518e-03,0.00140312,0.0247578
-9.516e-03,0.00142109,0.0246172
-9.514e-03,0.00141563,0.0246172
-9.512e-03,0.00143437,0.0245391
-9.510e-03,0.00142187,0.0246875
-9.508e-03,0.00145781,0.0247422
-9.506e-03,0.00145625,0.0248828
-9.504e-03,0.00148281,0.0248047
-9.502e-03,0.00148047,0.0248047
-9.500e-03,0.00147813,0.0250859
-9.498e-03,0.00150469,0.0251484
-9.496e-03,0.00149687,0.0252891
-9.494e-03,0.00153281,0.0252344
-9.492e-03,0.00155547,0.0252344
-9.490e-03,0.00158047,0.0250859
-9.488e-03,0.00158672,0.0250313
-9.486e-03,0.00156953,0.0250625
-9.484e-03,0.00156797,0.0251484
-9.482e-03,0.00157422,0.0255313
-9.480e-03,0.00156563,0.0259844
-9.478e-03,0.00159688,0.0261875
-9.476e-03,0.00161484,0.0264141
-9.474e-03,0.00163516,0.0261484
-9.472e-03,0.00161641,0.0262031
-9.470e-03,0.00162891,0.0263906
-9.468e-03,0.00164062,0.0267187
-9.466e-03,0.00165469,0.0269766
-9.464e-03,0.00166953,0.0270391
-9.462e-03,0.001675,0.0272578
-9.460e-03,0.001675,0.0275
-9.458e-03,0.00167344,0.0277891
-9.456e-03,0.00166484,0.0279375
-9.454e-03,0.00166797,0.0277891
-9.452e-03,0.00166094,0.0277891
-9.450e-03,0.00168516,0.0277891
-9.448e-03,0.00170391,0.0280156
-9.446e-03,0.00173828,0.0279297
-9.444e-03,0.00176719,0.0279297
-9.442e-03,0.00176875,0.0281328
-9.440e-03,0.00180547,0.0282422
-9.438e-03,0.00182422,0.0284844
-9.436e-03,0.00181406,0.0286484
-9.434e-03,0.00186406,0.0289063
-9.432e-03,0.00187812,0.0290703
-9.430e-03,0.00188828,0.0290469
-9.428e-03,0.00189531,0.0289453
-9.426e-03,0.00190859,0.0289844
-9.424e-03,0.00192187,0.0291094
-9.422e-03,0.00191172,0.0293125
-9.420e-03,0.00193359,0.0297656
-9.418e-03,0.00194375,0.0299844
-9.416e-03,0.00196016,0.0301016
-9.414e-03,0.00197031,0.0300703
-9.412e-03,0.00195938,0.0301875
-9.410e-03,0.00197656,0.0303125
-9.408e-03,0.00198047,0.0306563
-9.406e-03,0.00199453,0.0309219
-9.404e-03,0.002,0.0310625
-9.402e-03,0.00199609,0.0310859
-9.400e-03,0.00201875,0.0309219
-9.398e-03,0.00203047,0.0308125
-9.396e-03,0.00202734,0.0308125
-9.394e-03,0.00204375,0.0307109
-9.392e-03,0.00206406,0.0309844
-9.390e-03,0.00208359,0.0311563
-9.388e-03,0.00209453,0.0313047
-9.386e-03,0.00211797,0.0313828
-9.384e-03,0.00212812,0.0315234
-9.382e-03,0.00214531,0.0316094
-9.380e-03,0.00215234,0.0315234
-9.378e-03,0.00213516,0.0314297
-9.376e-03,0.00215547,0.03175
-9.374e-03,0.00214844,0.0321797
-9.372e-03,0.00212656,0.0323047
-9.370e-03,0.00213203,0.0324766
-9.368e-03,0.0021125,0.0326094
-9.366e-03,0.002125,0.0326797
-9.364e-03,0.00213828,0.0327031
-9.362e-03,0.00216875,0.0326797
-9.360e-03,0.00218516,0.0329922
-9.358e-03,0.00220547,0.0332344
-9.356e-03,0.00223047,0.0332969
-9.354e-03,0.00223828,0.0335391
-9.352e-03,0.00225625,0.0336016
-9.350e-03,0.00226406,0.0336953
-9.348e-03,0.00224844,0.0337266
-9.346e-03,0.00225078,0.0336953
-9.344e-03,0.00231094,0.0338984
-9.342e-03,0.00232969,0.0339062
-9.340e-03,0.00230938,0.0338672
-9.338e-03,0.00231953,0.0340859
-9.336e-03,0.00232969,0.0343125
-9.334e-03,0.00234844,0.0344766
-9.332e-03,0.00236406,0.0346797
-9.330e-03,0.00232578,0.0347344
-9.328e-03,0.00231328,0.0348203
-9.326e-03,0.00230547,0.0349141
-9.324e-03,0.002325,0.0348203
-9.322e-03,0.00234141,0.0345547
-9.320e-03,0.00234531,0.0345078
-9.318e-03,0.00238828,0.0344297
-9.316e-03,0.00240625,0.0345703
-9.314e-03,0.00240703,0.0348359
-9.312e-03,0.00243359,0.0351875
-9.310e-03,0.00240859,0.0353438
-9.308e-03,0.00246406,0.0354453
-9.306e-03,0.00245,0.0354531
-9.304e-03,0.00245156,0.0357734
-9.302e-03,0.00244766,0.0358125
-9.300e-03,0.00244375,0.0357344
-9.298e-03,0.00246016,0.0357969
-9.296e-03,0.00246797,0.0358594
-9.294e-03,0.00247422,0.0360547
-9.292e-03,0.00249375,0.0362422
-9.290e-03,0.00245156,0.0364063
-9.288e-03,0.00246172,0.0364219
-9.286e-03,0.00246172,0.0366484
-9.284e-03,0.00247578,0.0368281
-9.282e-03,0.00249766,0.0369688
-9.280e-03,0.00250391,0.0371719
-9.278e-03,0.00251406,0.0372344
-9.276e-03,0.002525,0.0372188
-9.274e-03,0.00250234,0.0371563
-9.272e-03,0.00248984,0.0371484
-9.270e-03,0.00249766,0.0371719
-9.268e-03,0.00253438,0.0371953
-9.266e-03,0.00254453,0.0373203
-9.264e-03,0.00253906,0.037375
-9.262e-03,0.00255703,0.0374609
-9.260e-03,0.00257109,0.0374141
-9.258e-03,0.00259609,0.0371719
-9.256e-03,0.0025875,0.0373359
-9.254e-03,0.00260391,0.0375547
-9.252e-03,0.00261562,0.0378438
-9.250e-03,0.00260938,0.0380703
-9.248e-03,0.00258516,0.038125
-9.246e-03,0.00260391,0.0379609
-9.244e-03,0.00263828,0.0375625
-9.242e-03,0.00264453,0.0374766
-9.240e-03,0.00265469,0.0376406
-9.238e-03,0.0026625,0.0377813
-9.236e-03,0.00264219,0.0381328
-9.234e-03,0.00265313,0.0383672
-9.232e-03,0.00264687,0.0385781
-9.230e-03,0.00268672,0.0388047
-9.228e-03,0.00269297,0.0390781
-9.226e-03,0.00270313,0.0393672
-9.224e-03,0.00272188,0.0395547
-9.222e-03,0.00274141,0.0395156
-9.220e-03,0.00275,0.0394844
-9.218e-03,0.00275156,0.0395156
-9.216e-03,0.00274219,0.0393906
-9.214e-03,0.00273984,0.0392422
-9.212e-03,0.00273359,0.0394297
-9.210e-03,0.00275391,0.0395547
-9.208e-03,0.00278438,0.0396328
-9.206e-03,0.00276406,0.0394297
-9.204e-03,0.00278828,0.0393672
-9.202e-03,0.00275156,0.0395938
-9.200e-03,0.00276875,0.0398359
-9.198e-03,0.00277422,0.0401172
-9.196e-03,0.00277656,0.0401797
-9.194e-03,0.00281875,0.0402969
-9.192e-03,0.00280703,0.0401563
-9.190e-03,0.002825,0.0402813
-9.188e-03,0.00285156,0.0405703
-9.186e-03,0.00288047,0.0405078
-9.184e-03,0.00288437,0.0405
-9.182e-03,0.00286641,0.040625
-9.180e-03,0.00287578,0.0408906
-9.178e-03,0.00288437,0.0409297
-9.176e-03,0.00288828,0.0410156
-9.174e-03,0.00289219,0.0409063
-9.172e-03,0.00291719,0.0408906
-9.170e-03,0.00291406,0.0408906
-9.168e-03,0.00291719,0.0413125
-9.166e-03,0.00294297,0.0417422
-9.164e-03,0.00293125,0.0420938
-9.162e-03,0.0029375,0.0423984
-9.160e-03,0.00293047,0.042375
-9.158e-03,0.00292734,0.0425547
-9.156e-03,0.00293281,0.0425938
-9.154e-03,0.00294453,0.0427188
-9.152e-03,0.00295703,0.0426328
-9.150e-03,0.00296953,0.0426328
-9.148e-03,0.00297578,0.0423984
-9.146e-03,0.00303203,0.0420938
-9.144e-03,0.00305703,0.0420938
-9.142e-03,0.00305625,0.042125
-9.140e-03,0.00304844,0.0420859
-9.138e-03,0.00303594,0.0422344
-9.136e-03,0.00302422,0.0424766
-9.134e-03,0.00299375,0.0429219
-9.132e-03,0.00298203,0.0432266
-9.130e-03,0.00300156,0.0433281
-9.128e-03,0.00300625,0.0435078
-9.126e-03,0.00302188,0.0434766
-9.124e-03,0.00302422,0.0433906
-9.122e-03,0.00300156,0.0430703
-9.120e-03,0.00300391,0.0431016
-9.118e-03,0.00300859,0.0432109
-9.116e-03,0.00303203,0.0433516
-9.114e-03,0.00302578,0.04325
-9.112e-03,0.00303203,0.0433516
-9.110e-03,0.00302891,0.0433047
-9.108e-03,0.00302656,0.0431484
-9.106e-03,0.00302031,0.0431094
-9.104e-03,0.00302891,0.04325
-9.102e-03,0.00304922,0.04325
-9.100e-03,0.0030625,0.0434297
-9.098e-03,0.00307109,0.0435547
-9.096e-03,0.00309922,0.0434688
-9.094e-03,0.00312187,0.0436094
-9.092e-03,0.003175,0.043875
-9.090e-03,0.00316797,0.0443203
-9.088e-03,0.00317422,0.0443906
-9.086e-03,0.00317266,0.0444297
-9.084e-03,0.00317656,0.0446875
-9.082e-03,0.00317813,0.0447891
-9.080e-03,0.00315859,0.0451172
-9.078e-03,0.00315078,0.0451563
-9.076e-03,0.00319063,0.0452031
-9.074e-03,0.00318437,0.0453359
-9.072e-03,0.00319844,0.0451719
-9.070e-03,0.00318516,0.0451328
-9.068e-03,0.00317891,0.0452188
-9.066e-03,0.00316875,0.0452031
-9.064e-03,0.00316406,0.0453203
-9.062e-03,0.00320313,0.0452578
-9.060e-03,0.00323359,0.0454375
-9.058e-03,0.00327266,0.045375
-9.056e-03,0.00328828,0.0454844
-9.054e-03,0.00330625,0.0456016
-9.052e-03,0.00330703,0.0457031
-9.050e-03,0.00327656,0.0455391
-9.048e-03,0.00326563,0.0455625
-9.046e-03,0.00321719,0.0453984
-9.044e-03,0.00324141,0.0453594
-9.042e-03,0.00324766,0.0453438
-9.040e-03,0.00324219,0.0454766
-9.038e-03,0.00325234,0.04575
-9.036e-03,0.00322969,0.0460547
-9.034e-03,0.00324141,0.04625
-9.032e-03,0.00325547,0.0464141
-9.030e-03,0.00324609,0.0465391
-9.028e-03,0.00329297,0.046625
-9.026e-03,0.00331641,0.0468984
-9.024e-03,0.003325,0.0468203
-9.022e-03,0.00334062,0.0468672
-9.020e-03,0.00333906,0.0468672
-9.018e-03,0.00332734,0.0468047
-9.016e-03,0.00328828,0.0468828
-9.014e-03,0.00330078,0.0470703
-9.012e-03,0.00334297,0.0473516
-9.010e-03,0.00336094,0.0475313
-9.008e-03,0.00337344,0.0475391
-9.006e-03,0.00338203,0.0473672
-9.004e-03,0.00339219,0.0470859
-9.002e-03,0.00340156,0.0470234
-9.000e-03,0.00340391,0.047125
-8.998e-03,0.00338828,0.0473125
-8.996e-03,0.00339141,0.0475156
-8.994e-03,0.00338203,0.0477578
-8.992e-03,0.00338125,0.0479766
-8.990e-03,0.00338828,0.0480781
-8.988e-03,0.0034125,0.0481641
-8.986e-03,0.00343203,0.0481875
-8.984e-03,0.00348594,0.0481641
-8.982e-03,0.00350391,0.0484688
-8.980e-03,0.00352344,0.04875
-8.978e-03,0.00353047,0.0488359
-8.976e-03,0.00350938,0.0488906
-8.974e-03,0.00351406,0.0486484
-8.972e-03,0.00348516,0.0485703
-8.970e-03,0.00347266,0.0484922
-8.968e-03,0.00347891,0.0483281
-8.966e-03,0.00346328,0.0483906
-8.964e-03,0.00350547,0.0483516
-8.962e-03,0.00348125,0.0484688
-8.960e-03,0.00351406,0.0484453
-8.958e-03,0.00352344,0.0484219
-8.956e-03,0.00352969,0.0482031
-8.954e-03,0.00354453,0.0480469
-8.952e-03,0.00351328,0.0481484
-8.950e-03,0.00350625,0.0482891
-8.948e-03,0.00348281,0.0485703
-8.946e-03,0.00348125,0.0487891
-8.944e-03,0.00348906,0.0490547
-8.942e-03,0.00348984,0.0491016
-8.940e-03,0.00351406,0.0489922
-8.938e-03,0.00355078,0.0489297
-8.936e-03,0.00353438,0.0490625
-8.934e-03,0.00356094,0.0491563
-8.932e-03,0.00355,0.0492422
-8.930e-03,0.00358672,0.0492813
-8.928e-03,0.00360781,0.0494609
-8.926e-03,0.00361797,0.0495703
-8.924e-03,0.00362734,0.0496406
-8.922e-03,0.00362578,0.0495
-8.920e-03,0.00363828,0.0494688
-8.918e-03,0.00362578,0.0496094
-8.916e-03,0.00362734,0.0495859
-8.914e-03,0.00362344,0.0497734
-8.912e-03,0.00357891,0.0501328
-8.910e-03,0.00356016,0.0501094
-8.908e-03,0.00357109,0.050375
-8.906e-03,0.00357656,0.0503594
-8.904e-03,0.00357656,0.0504844
-8.902e-03,0.00356719,0.0507656
-8.900e-03,0.00359297,0.0509063
-8.898e-03,0.00360469,0.0508438
-8.896e-03,0.00363359,0.0505156
-8.894e-03,0.00365625,0.0503516
-8.892e-03,0.00368281,0.0500781
-8.890e-03,0.00370703,0.0500547
-8.888e-03,0.00374297,0.0502344
-8.886e-03,0.00375,0.0503203
-8.884e-03,0.00374688,0.0505
-8.882e-03,0.00372656,0.050625
-8.880e-03,0.00369922,0.050625
-8.878e-03,0.00369688,0.0508828
-8.876e-03,0.00368594,0.0508281
-8.874e-03,0.00365859,0.0507188
-8.872e-03,0.00367266,0.0508672
-8.870e-03,0.00369453,0.0510938
-8.868e-03,0.00369688,0.0511328
-8.866e-03,0.00370938,0.0511094
-8.864e-03,0.00370312,0.0511094
-8.862e-03,0.00370234,0.0512734
-8.860e-03,0.00370938,0.0513906
-8.858e-03,0.00371328,0.0512969
-8.856e-03,0.00372734,0.0512109
-8.854e-03,0.00373359,0.0511641
-8.852e-03,0.00376719,0.0511094
-8.850e-03,0.00372969,0.0510313
-8.848e-03,0.00371875,0.0511094
-8.846e-03,0.00372109,0.0511719
-8.844e-03,0.00369609,0.051375
-8.842e-03,0.00370703,0.0514531
-8.840e-03,0.00373359,0.0515
-8.838e-03,0.003725,0.051375
-8.836e-03,0.00373906,0.0513125
-8.834e-03,0.00372734,0.0513984
-8.832e-03,0.00372969,0.0513125
-8.830e-03,0.00372656,0.0513984
-8.828e-03,0.00372266,0.0515391
-8.826e-03,0.00373672,0.0516563
-8.824e-03,0.00373906,0.0518594
-8.822e-03,0.00375156,0.0519063
-8.820e-03,0.00375547,0.0514922
-8.818e-03,0.00378359,0.0514688
-8.816e-03,0.0037875,0.0514375
-8.814e-03,0.00379844,0.0516328
-8.812e-03,0.00383906,0.0517813
-8.810e-03,0.00384453,0.0519453
-8.808e-03,0.00383281,0.0520078
-8.806e-03,0.00383516,0.0521016
-8.804e-03,0.00383047,0.0521406
-8.802e-03,0.00382266,0.0522266
-8.800e-03,0.00380625,0.0521875
-8.798e-03,0.00381094,0.0521406
-8.796e-03,0.00382812,0.0523125
-8.794e-03,0.00383125,0.0522891
