Lab 1 331/Full Rectifier circuits/Full Wave Bridge/tek0000.csv

Model,MSO3012
Firmware Version,2.40

Waveform Type,ANALOG,,,Waveform Type,ANALOG
Point Format,Y,,,Point Format,Y
Horizontal Units,s,,,Horizontal Units,s
Horizontal Scale,0.004,,,Horizontal Scale,0.004
Horizontal Delay,0,,,Horizontal Delay,0
Sample Interval,4e-06,,,Sample Interval,4e-06
Record Length,10000,,,Record Length,10000
Gating,0.0% to 100.0%,,,Gating,0.0% to 100.0%
Probe Attenuation,1,,,Probe Attenuation,1
Vertical Units,V,,,Vertical Units,V
Vertical Offset,0,,,Vertical Offset,0
Vertical Scale,0.2,,,Vertical Scale,2
Vertical Position,2,,,Vertical Position,0
,,,,,
,,,,,
,,,,,
Label,,,,Label,
TIME,CH1,CH2,,TIME,"MATH<CH1-CH2>"
-2.0000e-02,0.185344,2.94375,,-2.0000e-02,-2.75687
-1.9996e-02,0.186688,2.95391,,-1.9996e-02,-2.77406
-1.9992e-02,0.187656,2.96172,,-1.9992e-02,-2.77594
-1.9988e-02,0.188312,2.97187,,-1.9988e-02,-2.78844
-1.9984e-02,0.189281,2.98594,,-1.9984e-02,-2.79937
-1.9980e-02,0.189812,3,,-1.9980e-02,-2.81125
-1.9976e-02,0.1905,3.00703,,-1.9976e-02,-2.82187
-1.9972e-02,0.191594,3.01875,,-1.9972e-02,-2.82469
-1.9968e-02,0.192719,3.02656,,-1.9968e-02,-2.835
-1.9964e-02,0.194031,3.0375,,-1.9964e-02,-2.84375
-1.9960e-02,0.194344,3.04766,,-1.9960e-02,-2.84656
-1.9956e-02,0.194688,3.06328,,-1.9956e-02,-2.85781
-1.9952e-02,0.196063,3.07187,,-1.9952e-02,-2.87469
-1.9948e-02,0.197812,3.08359,,-1.9948e-02,-2.88344
-1.9944e-02,0.198469,3.09219,,-1.9944e-02,-2.89469
-1.9940e-02,0.199375,3.10781,,-1.9940e-02,-2.90219
-1.9936e-02,0.200437,3.11406,,-1.9936e-02,-2.91063
-1.9932e-02,0.201344,3.11641,,-1.9932e-02,-2.92437
-1.9928e-02,0.202406,3.12578,,-1.9928e-02,-2.92969
-1.9924e-02,0.203594,3.13594,,-1.9924e-02,-2.93531
-1.9920e-02,0.2045,3.14609,,-1.9920e-02,-2.94594
-1.9916e-02,0.205719,3.15703,,-1.9916e-02,-2.95375
-1.9912e-02,0.206937,3.17266,,-1.9912e-02,-2.96813
-1.9908e-02,0.207656,3.18281,,-1.9908e-02,-2.97188
-1.9904e-02,0.208906,3.19766,,-1.9904e-02,-2.98438
-1.9900e-02,0.209531,3.20547,,-1.9900e-02,-2.99688
-1.9896e-02,0.210344,3.21953,,-1.9896e-02,-3.00062
-1.9892e-02,0.211344,3.22187,,-1.9892e-02,-3.01313
-1.9888e-02,0.211812,3.22734,,-1.9888e-02,-3.01562
-1.9884e-02,0.212469,3.23203,,-1.9884e-02,-3.02281
-1.9880e-02,0.213531,3.24844,,-1.9880e-02,-3.03563
-1.9876e-02,0.215063,3.26406,,-1.9876e-02,-3.04688
-1.9872e-02,0.216094,3.27031,,-1.9872e-02,-3.05781
-1.9868e-02,0.217187,3.28125,,-1.9868e-02,-3.0675
-1.9864e-02,0.218062,3.29531,,-1.9864e-02,-3.07063
-1.9860e-02,0.219375,3.30156,,-1.9860e-02,-3.08656
-1.9856e-02,0.22,3.30859,,-1.9856e-02,-3.09563
-1.9852e-02,0.220906,3.31953,,-1.9852e-02,-3.10438
-1.9848e-02,0.221406,3.33359,,-1.9848e-02,-3.11344
-1.9844e-02,0.222375,3.34141,,-1.9844e-02,-3.12062
-1.9840e-02,0.223437,3.35547,,-1.9840e-02,-3.13031
-1.9836e-02,0.22425,3.35781,,-1.9836e-02,-3.13719
-1.9832e-02,0.225156,3.37031,,-1.9832e-02,-3.14719
-1.9828e-02,0.225437,3.37578,,-1.9828e-02,-3.15313
-1.9824e-02,0.226844,3.38047,,-1.9824e-02,-3.165
-1.9820e-02,0.228281,3.39453,,-1.9820e-02,-3.17313
-1.9816e-02,0.229031,3.4,,-1.9816e-02,-3.17813
-1.9812e-02,0.229594,3.40703,,-1.9812e-02,-3.19313
-1.9808e-02,0.229844,3.41875,,-1.9808e-02,-3.20031
-1.9804e-02,0.230844,3.42891,,-1.9804e-02,-3.20562
-1.9800e-02,0.232594,3.44297,,-1.9800e-02,-3.21781
-1.9796e-02,0.233406,3.45156,,-1.9796e-02,-3.22688
-1.9792e-02,0.234094,3.46328,,-1.9792e-02,-3.23281
-1.9788e-02,0.235187,3.46797,,-1.9788e-02,-3.24125
-1.9784e-02,0.23625,3.48203,,-1.9784e-02,-3.24688
-1.9780e-02,0.237313,3.48828,,-1.9780e-02,-3.25719
-1.9776e-02,0.238281,3.49844,,-1.9776e-02,-3.26562
-1.9772e-02,0.238844,3.50234,,-1.9772e-02,-3.27937
-1.9768e-02,0.239344,3.5125,,-1.9768e-02,-3.28625
-1.9764e-02,0.2405,3.52891,,-1.9764e-02,-3.29563
-1.9760e-02,0.241406,3.53906,,-1.9760e-02,-3.30281
-1.9756e-02,0.242031,3.54844,,-1.9756e-02,-3.31438
-1.9752e-02,0.243094,3.55703,,-1.9752e-02,-3.31906
-1.9748e-02,0.24425,3.56719,,-1.9748e-02,-3.33375
-1.9744e-02,0.244656,3.57266,,-1.9744e-02,-3.33906
-1.9740e-02,0.245031,3.575,,-1.9740e-02,-3.32969
-1.9736e-02,0.245188,3.58516,,-1.9736e-02,-3.34156
-1.9732e-02,0.245844,3.59531,,-1.9732e-02,-3.35031
-1.9728e-02,0.247313,3.60156,,-1.9728e-02,-3.36531
-1.9724e-02,0.249125,3.61406,,-1.9724e-02,-3.38094
-1.9720e-02,0.249812,3.62656,,-1.9720e-02,-3.38406
-1.9716e-02,0.25075,3.64219,,-1.9716e-02,-3.39344
-1.9712e-02,0.251844,3.64844,,-1.9712e-02,-3.405
-1.9708e-02,0.252906,3.65234,,-1.9708e-02,-3.40531
-1.9704e-02,0.253906,3.66406,,-1.9704e-02,-3.415
-1.9700e-02,0.255094,3.66875,,-1.9700e-02,-3.42188
-1.9696e-02,0.255781,3.67891,,-1.9696e-02,-3.42563
-1.9692e-02,0.2565,3.68516,,-1.9692e-02,-3.43688
-1.9688e-02,0.257312,3.69297,,-1.9688e-02,-3.44469
-1.9684e-02,0.258437,3.69922,,-1.9684e-02,-3.45375
-1.9680e-02,0.259188,3.71328,,-1.9680e-02,-3.46
-1.9676e-02,0.259906,3.72109,,-1.9676e-02,-3.46781
-1.9672e-02,0.260719,3.73203,,-1.9672e-02,-3.47875
-1.9668e-02,0.262031,3.73203,,-1.9668e-02,-3.48031
-1.9664e-02,0.262656,3.73984,,-1.9664e-02,-3.48563
-1.9660e-02,0.263625,3.75,,-1.9660e-02,-3.49
-1.9656e-02,0.264031,3.75391,,-1.9656e-02,-3.49313
-1.9652e-02,0.265344,3.76406,,-1.9652e-02,-3.50313
-1.9648e-02,0.266406,3.77266,,-1.9648e-02,-3.51688
-1.9644e-02,0.267281,3.78437,,-1.9644e-02,-3.51875
-1.9640e-02,0.268125,3.79219,,-1.9640e-02,-3.53094
-1.9636e-02,0.268937,3.79844,,-1.9636e-02,-3.53688
-1.9632e-02,0.269312,3.80859,,-1.9632e-02,-3.54625
-1.9628e-02,0.270875,3.81719,,-1.9628e-02,-3.55187
-1.9624e-02,0.271375,3.82656,,-1.9624e-02,-3.56188
-1.9620e-02,0.272344,3.83359,,-1.9620e-02,-3.56781
-1.9616e-02,0.272906,3.84297,,-1.9616e-02,-3.57063
-1.9612e-02,0.273625,3.85156,,-1.9612e-02,-3.5775
-1.9608e-02,0.274875,3.85938,,-1.9608e-02,-3.5825
-1.9604e-02,0.275531,3.86953,,-1.9604e-02,-3.59406
-1.9600e-02,0.276813,3.87969,,-1.9600e-02,-3.60438
-1.9596e-02,0.277687,3.88359,,-1.9596e-02,-3.61531
-1.9592e-02,0.277719,3.89062,,-1.9592e-02,-3.61969
-1.9588e-02,0.278844,3.9,,-1.9588e-02,-3.63125
-1.9584e-02,0.279875,3.90469,,-1.9584e-02,-3.63156
-1.9580e-02,0.27975,3.91484,,-1.9580e-02,-3.63469
-1.9576e-02,0.280687,3.91406,,-1.9576e-02,-3.63656
-1.9572e-02,0.2815,3.925,,-1.9572e-02,-3.64938
-1.9568e-02,0.281906,3.93437,,-1.9568e-02,-3.65687
-1.9564e-02,0.282813,3.94531,,-1.9564e-02,-3.6675
-1.9560e-02,0.284188,3.96172,,-1.9560e-02,-3.68469
-1.9556e-02,0.28575,3.97109,,-1.9556e-02,-3.68781
-1.9552e-02,0.286375,3.98125,,-1.9552e-02,-3.68906
-1.9548e-02,0.286969,3.98594,,-1.9548e-02,-3.70188
-1.9544e-02,0.288281,3.99141,,-1.9544e-02,-3.7075
-1.9540e-02,0.28925,3.99922,,-1.9540e-02,-3.71687
-1.9536e-02,0.289813,4.00625,,-1.9536e-02,-3.72313
-1.9532e-02,0.290156,4.01953,,-1.9532e-02,-3.72906
-1.9528e-02,0.290844,4.02969,,-1.9528e-02,-3.73125
-1.9524e-02,0.292188,4.03594,,-1.9524e-02,-3.74
-1.9520e-02,0.292594,4.04219,,-1.9520e-02,-3.75062
-1.9516e-02,0.293469,4.05625,,-1.9516e-02,-3.76
-1.9512e-02,0.294219,4.05625,,-1.9512e-02,-3.76906
-1.9508e-02,0.295656,4.06719,,-1.9508e-02,-3.775
-1.9504e-02,0.296219,4.07266,,-1.9504e-02,-3.78125
-1.9500e-02,0.296781,4.08047,,-1.9500e-02,-3.78469
-1.9496e-02,0.297594,4.09297,,-1.9496e-02,-3.79625
-1.9492e-02,0.297687,4.10547,,-1.9492e-02,-3.79281
-1.9488e-02,0.298281,4.09766,,-1.9488e-02,-3.8025
-1.9484e-02,0.299094,4.10938,,-1.9484e-02,-3.81406
-1.9480e-02,0.299969,4.11562,,-1.9480e-02,-3.81937
-1.9476e-02,0.300781,4.12734,,-1.9476e-02,-3.82625
-1.9472e-02,0.301438,4.13437,,-1.9472e-02,-3.82969
-1.9468e-02,0.303562,4.14375,,-1.9468e-02,-3.84094
-1.9464e-02,0.303937,4.15234,,-1.9464e-02,-3.85094
-1.9460e-02,0.304531,4.16797,,-1.9460e-02,-3.85406
-1.9456e-02,0.305187,4.17422,,-1.9456e-02,-3.86656
-1.9452e-02,0.306469,4.17812,,-1.9452e-02,-3.86906
-1.9448e-02,0.307125,4.18906,,-1.9448e-02,-3.87906
-1.9444e-02,0.308187,4.19062,,-1.9444e-02,-3.88531
-1.9440e-02,0.308406,4.19687,,-1.9440e-02,-3.89438
-1.9436e-02,0.308187,4.20937,,-1.9436e-02,-3.89531
-1.9432e-02,0.309469,4.21484,,-1.9432e-02,-3.90344
-1.9428e-02,0.309875,4.22109,,-1.9428e-02,-3.91688
-1.9424e-02,0.310844,4.23125,,-1.9424e-02,-3.93063
-1.9420e-02,0.311562,4.24375,,-1.9420e-02,-3.93156
-1.9416e-02,0.312063,4.24922,,-1.9416e-02,-3.93531
-1.9412e-02,0.312969,4.25312,,-1.9412e-02,-3.94719
-1.9408e-02,0.313781,4.26016,,-1.9408e-02,-3.95469
-1.9404e-02,0.3145,4.26406,,-1.9404e-02,-3.96437
-1.9400e-02,0.314844,4.28203,,-1.9400e-02,-3.96625
-1.9396e-02,0.315312,4.27969,,-1.9396e-02,-3.96844
-1.9392e-02,0.316125,4.27656,,-1.9392e-02,-3.97094
-1.9388e-02,0.316375,4.28984,,-1.9388e-02,-3.98375
-1.9384e-02,0.316844,4.28984,,-1.9384e-02,-3.99313
-1.9380e-02,0.317781,4.29844,,-1.9380e-02,-3.99438
-1.9376e-02,0.318719,4.3125,,-1.9376e-02,-4.00625
-1.9372e-02,0.319625,4.325,,-1.9372e-02,-4.01438
-1.9368e-02,0.320937,4.33281,,-1.9368e-02,-4.0175
-1.9364e-02,0.321656,4.3375,,-1.9364e-02,-4.0275
-1.9360e-02,0.322531,4.35078,,-1.9360e-02,-4.03281
-1.9356e-02,0.323594,4.35938,,-1.9356e-02,-4.04063
-1.9352e-02,0.324344,4.36328,,-1.9352e-02,-4.04969
-1.9348e-02,0.324,4.375,,-1.9348e-02,-4.05094
-1.9344e-02,0.324812,4.37578,,-1.9344e-02,-4.05625
-1.9340e-02,0.325906,4.38516,,-1.9340e-02,-4.06375
-1.9336e-02,0.326719,4.38984,,-1.9336e-02,-4.07125
-1.9332e-02,0.327438,4.40234,,-1.9332e-02,-4.07875
-1.9328e-02,0.327688,4.4125,,-1.9328e-02,-4.08188
-1.9324e-02,0.328313,4.41641,,-1.9324e-02,-4.08938
-1.9320e-02,0.329375,4.42422,,-1.9320e-02,-4.09687
-1.9316e-02,0.330281,4.43437,,-1.9316e-02,-4.10031
-1.9312e-02,0.330844,4.44219,,-1.9312e-02,-4.11156
-1.9308e-02,0.331094,4.45703,,-1.9308e-02,-4.11656
-1.9304e-02,0.332063,4.4625,,-1.9304e-02,-4.12875
-1.9300e-02,0.332875,4.46641,,-1.9300e-02,-4.135
-1.9296e-02,0.333187,4.47109,,-1.9296e-02,-4.13687
-1.9292e-02,0.333688,4.47266,,-1.9292e-02,-4.13875
-1.9288e-02,0.333844,4.47656,,-1.9288e-02,-4.14656
-1.9284e-02,0.3345,4.48672,,-1.9284e-02,-4.14875
-1.9280e-02,0.33525,4.4875,,-1.9280e-02,-4.15094
-1.9276e-02,0.336187,4.49687,,-1.9276e-02,-4.16063
-1.9272e-02,0.336688,4.50781,,-1.9272e-02,-4.16469
-1.9268e-02,0.33725,4.52031,,-1.9268e-02,-4.17594
-1.9264e-02,0.338219,4.51953,,-1.9264e-02,-4.18594
-1.9260e-02,0.339313,4.5375,,-1.9260e-02,-4.19562
-1.9256e-02,0.339437,4.54062,,-1.9256e-02,-4.19813
-1.9252e-02,0.340531,4.55,,-1.9252e-02,-4.20188
-1.9248e-02,0.34125,4.55391,,-1.9248e-02,-4.21531
-1.9244e-02,0.341812,4.54844,,-1.9244e-02,-4.2175
-1.9240e-02,0.342219,4.56406,,-1.9240e-02,-4.22313
-1.9236e-02,0.342219,4.56016,,-1.9236e-02,-4.23031
-1.9232e-02,0.342719,4.56641,,-1.9232e-02,-4.23344
-1.9228e-02,0.343594,4.57812,,-1.9228e-02,-4.24313
-1.9224e-02,0.344187,4.58672,,-1.9224e-02,-4.245
-1.9220e-02,0.344719,4.58828,,-1.9220e-02,-4.24937
-1.9216e-02,0.345125,4.59687,,-1.9216e-02,-4.25594
-1.9212e-02,0.345875,4.60156,,-1.9212e-02,-4.26375
-1.9208e-02,0.3465,4.60469,,-1.9208e-02,-4.27125
-1.9204e-02,0.347656,4.61562,,-1.9204e-02,-4.27781
-1.9200e-02,0.34775,4.61875,,-1.9200e-02,-4.28437
-1.9196e-02,0.347906,4.62734,,-1.9196e-02,-4.28656
-1.9192e-02,0.348875,4.63516,,-1.9192e-02,-4.29312
-1.9188e-02,0.349375,4.63984,,-1.9188e-02,-4.29625
-1.9184e-02,0.349031,4.64609,,-1.9184e-02,-4.30719
-1.9180e-02,0.349125,4.64609,,-1.9180e-02,-4.30438
-1.9176e-02,0.349375,4.65234,,-1.9176e-02,-4.30125
-1.9172e-02,0.350156,4.65391,,-1.9172e-02,-4.30594
-1.9168e-02,0.350594,4.66172,,-1.9168e-02,-4.31187
-1.9164e-02,0.351625,4.66797,,-1.9164e-02,-4.31531
-1.9160e-02,0.351625,4.67188,,-1.9160e-02,-4.32375
-1.9156e-02,0.352625,4.67422,,-1.9156e-02,-4.32906
-1.9152e-02,0.35325,4.68281,,-1.9152e-02,-4.33688
-1.9148e-02,0.35375,4.69453,,-1.9148e-02,-4.35313
-1.9144e-02,0.354906,4.70625,,-1.9144e-02,-4.35781
-1.9140e-02,0.355875,4.71484,,-1.9140e-02,-4.36062
-1.9136e-02,0.356594,4.72031,,-1.9136e-02,-4.36719
-1.9132e-02,0.356656,4.72656,,-1.9132e-02,-4.37375
-1.9128e-02,0.357406,4.73281,,-1.9128e-02,-4.37344
-1.9124e-02,0.357594,4.74141,,-1.9124e-02,-4.38187
-1.9120e-02,0.35775,4.74375,,-1.9120e-02,-4.38563
-1.9116e-02,0.358625,4.74531,,-1.9116e-02,-4.3925
-1.9112e-02,0.359281,4.75312,,-1.9112e-02,-4.39844
-1.9108e-02,0.359781,4.75547,,-1.9108e-02,-4.39781
-1.9104e-02,0.359688,4.76328,,-1.9104e-02,-4.41344
-1.9100e-02,0.360406,4.76719,,-1.9100e-02,-4.41375
-1.9096e-02,0.361406,4.76953,,-1.9096e-02,-4.42031
-1.9092e-02,0.361781,4.77734,,-1.9092e-02,-4.42281
-1.9088e-02,0.361781,4.78828,,-1.9088e-02,-4.43187
-1.9084e-02,0.362125,4.79609,,-1.9084e-02,-4.43438
-1.9080e-02,0.362344,4.80156,,-1.9080e-02,-4.43969
-1.9076e-02,0.363406,4.80234,,-1.9076e-02,-4.44062
-1.9072e-02,0.363906,4.80625,,-1.9072e-02,-4.44
-1.9068e-02,0.364625,4.81172,,-1.9068e-02,-4.4475
-1.9064e-02,0.364906,4.81875,,-1.9064e-02,-4.45
-1.9060e-02,0.365375,4.82266,,-1.9060e-02,-4.46281
-1.9056e-02,0.365875,4.83047,,-1.9056e-02,-4.46906
-1.9052e-02,0.365687,4.83516,,-1.9052e-02,-4.47281
-1.9048e-02,0.366,4.83437,,-1.9048e-02,-4.47031
-1.9044e-02,0.366406,4.84219,,-1.9044e-02,-4.47875
-1.9040e-02,0.367219,4.84219,,-1.9040e-02,-4.48188
-1.9036e-02,0.3675,4.84844,,-1.9036e-02,-4.48375
-1.9032e-02,0.367656,4.85703,,-1.9032e-02,-4.48531
-1.9028e-02,0.367719,4.85859,,-1.9028e-02,-4.49656
-1.9024e-02,0.368531,4.86562,,-1.9024e-02,-4.505
-1.9020e-02,0.368969,4.87266,,-1.9020e-02,-4.51094
-1.9016e-02,0.369687,4.875,,-1.9016e-02,-4.51187
-1.9012e-02,0.370094,4.88906,,-1.9012e-02,-4.51656
-1.9008e-02,0.370062,4.88906,,-1.9008e-02,-4.52781
-1.9004e-02,0.371125,4.90156,,-1.9004e-02,-4.53094
-1.9000e-02,0.371938,4.90625,,-1.9000e-02,-4.52875
-1.8996e-02,0.372375,4.90625,,-1.8996e-02,-4.53219
-1.8992e-02,0.372219,4.91797,,-1.8992e-02,-4.54219
-1.8988e-02,0.372938,4.92422,,-1.8988e-02,-4.55344
-1.8984e-02,0.373656,4.92578,,-1.8984e-02,-4.55375
-1.8980e-02,0.373812,4.93359,,-1.8980e-02,-4.55594
-1.8976e-02,0.37425,4.93984,,-1.8976e-02,-4.55
-1.8972e-02,0.374375,4.93672,,-1.8972e-02,-4.55938
-1.8968e-02,0.375188,4.94375,,-1.8968e-02,-4.57156
-1.8964e-02,0.375531,4.94453,,-1.8964e-02,-4.575
-1.8960e-02,0.375531,4.95078,,-1.8960e-02,-4.57031
-1.8956e-02,0.375594,4.95391,,-1.8956e-02,-4.57437
-1.8952e-02,0.376094,4.9625,,-1.8952e-02,-4.57594
-1.8948e-02,0.377219,4.95859,,-1.8948e-02,-4.58844
-1.8944e-02,0.377656,4.97031,,-1.8944e-02,-4.58781
-1.8940e-02,0.377563,4.97266,,-1.8940e-02,-4.59531
-1.8936e-02,0.377656,4.97734,,-1.8936e-02,-4.59594
-1.8932e-02,0.377781,4.98438,,-1.8932e-02,-4.59813
-1.8928e-02,0.378469,4.98672,,-1.8928e-02,-4.60906
-1.8924e-02,0.378938,4.99453,,-1.8924e-02,-4.61156
-1.8920e-02,0.379344,5.00156,,-1.8920e-02,-4.61062
-1.8916e-02,0.380062,5.00078,,-1.8916e-02,-4.62156
-1.8912e-02,0.380719,5.00781,,-1.8912e-02,-4.62281
-1.8908e-02,0.381125,5.01094,,-1.8908e-02,-4.63063
-1.8904e-02,0.381312,5.01562,,-1.8904e-02,-4.63031
-1.8900e-02,0.381938,5.02109,,-1.8900e-02,-4.63625
-1.8896e-02,0.382188,5.01797,,-1.8896e-02,-4.64125
-1.8892e-02,0.381625,5.02109,,-1.8892e-02,-4.64594
-1.8888e-02,0.381469,5.02344,,-1.8888e-02,-4.64969
-1.8884e-02,0.381312,5.02344,,-1.8884e-02,-4.64406
-1.8880e-02,0.382094,5.02109,,-1.8880e-02,-4.64375
-1.8876e-02,0.382656,5.03125,,-1.8876e-02,-4.64344
-1.8872e-02,0.38275,5.02812,,-1.8872e-02,-4.65094
-1.8868e-02,0.383094,5.04219,,-1.8868e-02,-4.65188
-1.8864e-02,0.383344,5.04531,,-1.8864e-02,-4.65781
-1.8860e-02,0.383875,5.04531,,-1.8860e-02,-4.65469
-1.8856e-02,0.384281,5.04766,,-1.8856e-02,-4.66844
-1.8852e-02,0.385125,5.05234,,-1.8852e-02,-4.66719
-1.8848e-02,0.384813,5.05781,,-1.8848e-02,-4.6725
-1.8844e-02,0.384969,5.06172,,-1.8844e-02,-4.67063
-1.8840e-02,0.38575,5.06562,,-1.8840e-02,-4.67188
-1.8836e-02,0.386156,5.06406,,-1.8836e-02,-4.67969
-1.8832e-02,0.386594,5.07422,,-1.8832e-02,-4.69094
-1.8828e-02,0.386312,5.08906,,-1.8828e-02,-4.70156
-1.8824e-02,0.387625,5.08594,,-1.8824e-02,-4.69781
-1.8820e-02,0.388437,5.09609,,-1.8820e-02,-4.69906
-1.8816e-02,0.388781,5.09297,,-1.8816e-02,-4.70812
-1.8812e-02,0.389,5.10234,,-1.8812e-02,-4.71344
-1.8808e-02,0.389406,5.10078,,-1.8808e-02,-4.70844
-1.8804e-02,0.389906,5.10703,,-1.8804e-02,-4.71312
-1.8800e-02,0.3905,5.10938,,-1.8800e-02,-4.71594
-1.8796e-02,0.390312,5.11484,,-1.8796e-02,-4.7225
-1.8792e-02,0.390875,5.11328,,-1.8792e-02,-4.72406
-1.8788e-02,0.390781,5.12266,,-1.8788e-02,-4.72969
-1.8784e-02,0.391219,5.125,,-1.8784e-02,-4.73344
-1.8780e-02,0.391781,5.12891,,-1.8780e-02,-4.73594
-1.8776e-02,0.392,5.12109,,-1.8776e-02,-4.73719
-1.8772e-02,0.392094,5.12344,,-1.8772e-02,-4.74094
-1.8768e-02,0.392281,5.12891,,-1.8768e-02,-4.7425
-1.8764e-02,0.392406,5.13359,,-1.8764e-02,-4.74688
-1.8760e-02,0.393344,5.13984,,-1.8760e-02,-4.74437
-1.8756e-02,0.393406,5.14687,,-1.8756e-02,-4.7475
-1.8752e-02,0.393719,5.14766,,-1.8752e-02,-4.75344
-1.8748e-02,0.394156,5.14922,,-1.8748e-02,-4.75875
-1.8744e-02,0.394437,5.14375,,-1.8744e-02,-4.755
-1.8740e-02,0.394719,5.14922,,-1.8740e-02,-4.76344
-1.8736e-02,0.394687,5.15781,,-1.8736e-02,-4.76281
-1.8732e-02,0.394312,5.15703,,-1.8732e-02,-4.76156
-1.8728e-02,0.395125,5.16016,,-1.8728e-02,-4.76625
-1.8724e-02,0.395344,5.15937,,-1.8724e-02,-4.77156
-1.8720e-02,0.395531,5.16016,,-1.8720e-02,-4.77188
-1.8716e-02,0.395531,5.16406,,-1.8716e-02,-4.77406
-1.8712e-02,0.395906,5.16562,,-1.8712e-02,-4.77781
-1.8708e-02,0.396656,5.17188,,-1.8708e-02,-4.78062
-1.8704e-02,0.397062,5.17734,,-1.8704e-02,-4.7875
-1.8700e-02,0.396813,5.17969,,-1.8700e-02,-4.79063
-1.8696e-02,0.397062,5.18359,,-1.8696e-02,-4.78656
-1.8692e-02,0.397469,5.18359,,-1.8692e-02,-4.79031
-1.8688e-02,0.397781,5.18437,,-1.8688e-02,-4.78969
-1.8684e-02,0.397969,5.18437,,-1.8684e-02,-4.79594
-1.8680e-02,0.398281,5.18984,,-1.8680e-02,-4.79344
-1.8676e-02,0.398094,5.19375,,-1.8676e-02,-4.79719
-1.8672e-02,0.398531,5.19844,,-1.8672e-02,-4.79531
-1.8668e-02,0.398594,5.19766,,-1.8668e-02,-4.79531
-1.8664e-02,0.398906,5.20234,,-1.8664e-02,-4.80281
-1.8660e-02,0.399656,5.20078,,-1.8660e-02,-4.80094
-1.8656e-02,0.3995,5.20234,,-1.8656e-02,-4.80875
-1.8652e-02,0.400219,5.20781,,-1.8652e-02,-4.81062
-1.8648e-02,0.400375,5.20625,,-1.8648e-02,-4.80813
-1.8644e-02,0.39975,5.20625,,-1.8644e-02,-4.81688
-1.8640e-02,0.399438,5.20781,,-1.8640e-02,-4.81625
-1.8636e-02,0.399906,5.21016,,-1.8636e-02,-4.81875
-1.8632e-02,0.399844,5.21094,,-1.8632e-02,-4.81062
-1.8628e-02,0.399844,5.21094,,-1.8628e-02,-4.81313
-1.8624e-02,0.400219,5.21094,,-1.8624e-02,-4.81875
-1.8620e-02,0.400469,5.21875,,-1.8620e-02,-4.81656
-1.8616e-02,0.400969,5.22109,,-1.8616e-02,-4.81969
-1.8612e-02,0.40175,5.22031,,-1.8612e-02,-4.82031
-1.8608e-02,0.402,5.22109,,-1.8608e-02,-4.81937
-1.8604e-02,0.402,5.22656,,-1.8604e-02,-4.82219
-1.8600e-02,0.402281,5.22812,,-1.8600e-02,-4.82594
-1.8596e-02,0.402406,5.22422,,-1.8596e-02,-4.82875
-1.8592e-02,0.402344,5.22891,,-1.8592e-02,-4.83625
-1.8588e-02,0.402438,5.23047,,-1.8588e-02,-4.82563
-1.8584e-02,0.402406,5.23281,,-1.8584e-02,-4.82531
-1.8580e-02,0.402094,5.23125,,-1.8580e-02,-4.82688
-1.8576e-02,0.40225,5.23828,,-1.8576e-02,-4.82812
-1.8572e-02,0.40325,5.23281,,-1.8572e-02,-4.83594
-1.8568e-02,0.403312,5.23516,,-1.8568e-02,-4.83531
-1.8564e-02,0.403312,5.23828,,-1.8564e-02,-4.83312
-1.8560e-02,0.403563,5.23906,,-1.8560e-02,-4.83812
-1.8556e-02,0.403406,5.23828,,-1.8556e-02,-4.84125
-1.8552e-02,0.403406,5.24062,,-1.8552e-02,-4.83656
-1.8548e-02,0.402844,5.24531,,-1.8548e-02,-4.84063
-1.8544e-02,0.403781,5.24688,,-1.8544e-02,-4.84156
-1.8540e-02,0.403781,5.24531,,-1.8540e-02,-4.84312
-1.8536e-02,0.404062,5.24688,,-1.8536e-02,-4.84344
-1.8532e-02,0.404125,5.25547,,-1.8532e-02,-4.85344
-1.8528e-02,0.404188,5.25078,,-1.8528e-02,-4.85094
-1.8524e-02,0.404594,5.25547,,-1.8524e-02,-4.85125
-1.8520e-02,0.404719,5.24844,,-1.8520e-02,-4.84906
-1.8516e-02,0.404469,5.25312,,-1.8516e-02,-4.84219
-1.8512e-02,0.404469,5.25859,,-1.8512e-02,-4.84813
-1.8508e-02,0.404625,5.25859,,-1.8508e-02,-4.84656
-1.8504e-02,0.404375,5.25703,,-1.8504e-02,-4.86062
-1.8500e-02,0.405094,5.26172,,-1.8500e-02,-4.85875
-1.8496e-02,0.404844,5.26172,,-1.8496e-02,-4.8575
-1.8492e-02,0.404937,5.26328,,-1.8492e-02,-4.85688
-1.8488e-02,0.405094,5.26719,,-1.8488e-02,-4.85969
-1.8484e-02,0.405094,5.26719,,-1.8484e-02,-4.86375
-1.8480e-02,0.405406,5.27344,,-1.8480e-02,-4.86375
-1.8476e-02,0.405438,5.27344,,-1.8476e-02,-4.87
