Lab 1 331/Full Rectifier circuits/Bridge With Zener/tek0000.csv

Model,MSO3012
Firmware Version,2.40

Waveform Type,ANALOG,,,Waveform Type,ANALOG
Point Format,Y,,,Point Format,Y
Horizontal Units,s,,,Horizontal Units,s
Horizontal Scale,0.004,,,Horizontal Scale,0.004
Horizontal Delay,0,,,Horizontal Delay,0
Sample Interval,4e-06,,,Sample Interval,4e-06
Record Length,10000,,,Record Length,10000
Gating,0.0% to 100.0%,,,Gating,0.0% to 100.0%
Probe Attenuation,1,,,Probe Attenuation,1
Vertical Units,V,,,Vertical Units,V
Vertical Offset,0,,,Vertical Offset,0
Vertical Scale,2,,,Vertical Scale,1
Vertical Position,0,,,Vertical Position,0
,,,,,
,,,,,
,,,,,
Label,,,,Label,
TIME,CH1,CH2,,TIME,"MATH<CH1-CH2>"
-2.0000e-02,-2.08469,0.83125,,-2.0000e-02,-2.91063
-1.9996e-02,-2.07531,0.841562,,-1.9996e-02,-2.90844
-1.9992e-02,-2.06312,0.850625,,-1.9992e-02,-2.90469
-1.9988e-02,-2.05375,0.86125,,-1.9988e-02,-2.90531
-1.9984e-02,-2.0425,0.871563,,-1.9984e-02,-2.9075
-1.9980e-02,-2.03437,0.882188,,-1.9980e-02,-2.90844
-1.9976e-02,-2.02563,0.88875,,-1.9976e-02,-2.90313
-1.9972e-02,-2.01656,0.899375,,-1.9972e-02,-2.90781
-1.9968e-02,-2.00594,0.906563,,-1.9968e-02,-2.90656
-1.9964e-02,-2.00094,0.91875,,-1.9964e-02,-2.91031
-1.9960e-02,-1.99,0.927188,,-1.9960e-02,-2.90719
-1.9956e-02,-1.97656,0.9375,,-1.9956e-02,-2.905
-1.9952e-02,-1.96562,0.945,,-1.9952e-02,-2.90875
-1.9948e-02,-1.95469,0.958125,,-1.9948e-02,-2.91094
-1.9944e-02,-1.94531,0.968438,,-1.9944e-02,-2.90938
-1.9940e-02,-1.93844,0.976562,,-1.9940e-02,-2.90531
-1.9936e-02,-1.92906,0.984688,,-1.9936e-02,-2.90781
-1.9932e-02,-1.9175,0.995938,,-1.9932e-02,-2.90625
-1.9928e-02,-1.90781,1.00812,,-1.9928e-02,-2.905
-1.9924e-02,-1.90187,1.01719,,-1.9924e-02,-2.90469
-1.9920e-02,-1.89,1.02219,,-1.9920e-02,-2.90156
-1.9916e-02,-1.88031,1.03344,,-1.9916e-02,-2.90187
-1.9912e-02,-1.87031,1.03906,,-1.9912e-02,-2.90719
-1.9908e-02,-1.86125,1.04812,,-1.9908e-02,-2.90344
-1.9904e-02,-1.85156,1.05563,,-1.9904e-02,-2.90375
-1.9900e-02,-1.84125,1.06125,,-1.9900e-02,-2.90563
-1.9896e-02,-1.83219,1.07313,,-1.9896e-02,-2.90187
-1.9892e-02,-1.82719,1.08125,,-1.9892e-02,-2.9025
-1.9888e-02,-1.81937,1.09094,,-1.9888e-02,-2.90125
-1.9884e-02,-1.80469,1.09844,,-1.9884e-02,-2.8975
-1.9880e-02,-1.79812,1.10344,,-1.9880e-02,-2.89344
-1.9876e-02,-1.79,1.11406,,-1.9876e-02,-2.89562
-1.9872e-02,-1.78594,1.11938,,-1.9872e-02,-2.89875
-1.9868e-02,-1.77625,1.1275,,-1.9868e-02,-2.89812
-1.9864e-02,-1.76625,1.13406,,-1.9864e-02,-2.90094
-1.9860e-02,-1.76,1.14156,,-1.9860e-02,-2.89656
-1.9856e-02,-1.75188,1.14969,,-1.9856e-02,-2.89969
-1.9852e-02,-1.74625,1.15938,,-1.9852e-02,-2.89406
-1.9848e-02,-1.73813,1.16406,,-1.9848e-02,-2.89531
-1.9844e-02,-1.73,1.17156,,-1.9844e-02,-2.895
-1.9840e-02,-1.72188,1.17969,,-1.9840e-02,-2.89219
-1.9836e-02,-1.71344,1.18719,,-1.9836e-02,-2.89312
-1.9832e-02,-1.70219,1.1925,,-1.9832e-02,-2.89062
-1.9828e-02,-1.69656,1.19906,,-1.9828e-02,-2.88781
-1.9824e-02,-1.68844,1.20875,,-1.9824e-02,-2.88375
-1.9820e-02,-1.68094,1.21406,,-1.9820e-02,-2.89
-1.9816e-02,-1.67437,1.22094,,-1.9816e-02,-2.88875
-1.9812e-02,-1.66469,1.22687,,-1.9812e-02,-2.88781
-1.9808e-02,-1.66156,1.2325,,-1.9808e-02,-2.88406
-1.9804e-02,-1.65187,1.23719,,-1.9804e-02,-2.88687
-1.9800e-02,-1.6475,1.24531,,-1.9800e-02,-2.88437
-1.9796e-02,-1.63938,1.25219,,-1.9796e-02,-2.88594
-1.9792e-02,-1.63469,1.2575,,-1.9792e-02,-2.88187
-1.9788e-02,-1.62719,1.26156,,-1.9788e-02,-2.88344
-1.9784e-02,-1.62094,1.26406,,-1.9784e-02,-2.88594
-1.9780e-02,-1.61688,1.27219,,-1.9780e-02,-2.88344
-1.9776e-02,-1.61094,1.28125,,-1.9776e-02,-2.88281
-1.9772e-02,-1.60531,1.28375,,-1.9772e-02,-2.88156
-1.9768e-02,-1.5975,1.28844,,-1.9768e-02,-2.87906
-1.9764e-02,-1.59313,1.29406,,-1.9764e-02,-2.88719
-1.9760e-02,-1.59,1.29937,,-1.9760e-02,-2.88375
-1.9756e-02,-1.57969,1.30313,,-1.9756e-02,-2.88437
-1.9752e-02,-1.57563,1.30656,,-1.9752e-02,-2.88594
-1.9748e-02,-1.57125,1.31313,,-1.9748e-02,-2.88531
-1.9744e-02,-1.56812,1.31937,,-1.9744e-02,-2.88406
-1.9740e-02,-1.56313,1.32188,,-1.9740e-02,-2.88313
-1.9736e-02,-1.5575,1.32781,,-1.9736e-02,-2.88031
-1.9732e-02,-1.55656,1.33156,,-1.9732e-02,-2.88281
-1.9728e-02,-1.55188,1.33719,,-1.9728e-02,-2.88531
-1.9724e-02,-1.54719,1.34219,,-1.9724e-02,-2.88437
-1.9720e-02,-1.54313,1.34625,,-1.9720e-02,-2.88656
-1.9716e-02,-1.54281,1.35031,,-1.9716e-02,-2.88437
-1.9712e-02,-1.53375,1.35281,,-1.9712e-02,-2.88594
-1.9708e-02,-1.53063,1.35625,,-1.9708e-02,-2.88813
-1.9704e-02,-1.52687,1.36,,-1.9704e-02,-2.88719
-1.9700e-02,-1.52031,1.36094,,-1.9700e-02,-2.88656
-1.9696e-02,-1.51938,1.36406,,-1.9696e-02,-2.88437
-1.9692e-02,-1.51625,1.36656,,-1.9692e-02,-2.88906
-1.9688e-02,-1.51375,1.36813,,-1.9688e-02,-2.89031
-1.9684e-02,-1.51031,1.37312,,-1.9684e-02,-2.88687
-1.9680e-02,-1.50562,1.37531,,-1.9680e-02,-2.885
-1.9676e-02,-1.50219,1.37531,,-1.9676e-02,-2.88594
-1.9672e-02,-1.50156,1.37969,,-1.9672e-02,-2.88594
-1.9668e-02,-1.50125,1.38344,,-1.9668e-02,-2.88656
-1.9664e-02,-1.49594,1.38469,,-1.9664e-02,-2.88719
-1.9660e-02,-1.49156,1.39,,-1.9660e-02,-2.88781
-1.9656e-02,-1.49031,1.38844,,-1.9656e-02,-2.89
-1.9652e-02,-1.48781,1.39156,,-1.9652e-02,-2.88375
-1.9648e-02,-1.48687,1.39406,,-1.9648e-02,-2.88437
-1.9644e-02,-1.48594,1.395,,-1.9644e-02,-2.88781
-1.9640e-02,-1.48188,1.3975,,-1.9640e-02,-2.89
-1.9636e-02,-1.48125,1.40063,,-1.9636e-02,-2.88844
-1.9632e-02,-1.47813,1.40375,,-1.9632e-02,-2.88563
-1.9628e-02,-1.47562,1.405,,-1.9628e-02,-2.885
-1.9624e-02,-1.47375,1.40375,,-1.9624e-02,-2.88875
-1.9620e-02,-1.47281,1.40469,,-1.9620e-02,-2.88687
-1.9616e-02,-1.46813,1.40781,,-1.9616e-02,-2.88844
-1.9612e-02,-1.46969,1.40969,,-1.9612e-02,-2.8875
-1.9608e-02,-1.47063,1.41219,,-1.9608e-02,-2.88094
-1.9604e-02,-1.46906,1.41063,,-1.9604e-02,-2.88563
-1.9600e-02,-1.46562,1.41219,,-1.9600e-02,-2.88437
-1.9596e-02,-1.46344,1.41531,,-1.9596e-02,-2.88406
-1.9592e-02,-1.46094,1.41844,,-1.9592e-02,-2.88281
-1.9588e-02,-1.45906,1.41781,,-1.9588e-02,-2.88406
-1.9584e-02,-1.46063,1.42094,,-1.9584e-02,-2.88344
-1.9580e-02,-1.45844,1.42125,,-1.9580e-02,-2.8875
-1.9576e-02,-1.45687,1.42437,,-1.9576e-02,-2.88531
-1.9572e-02,-1.455,1.42281,,-1.9572e-02,-2.88437
-1.9568e-02,-1.45281,1.42688,,-1.9568e-02,-2.8825
-1.9564e-02,-1.4525,1.42656,,-1.9564e-02,-2.88813
-1.9560e-02,-1.45281,1.42938,,-1.9560e-02,-2.88469
-1.9556e-02,-1.45125,1.42906,,-1.9556e-02,-2.88406
-1.9552e-02,-1.44844,1.43156,,-1.9552e-02,-2.88344
-1.9548e-02,-1.44781,1.43156,,-1.9548e-02,-2.88531
-1.9544e-02,-1.44844,1.43406,,-1.9544e-02,-2.88563
-1.9540e-02,-1.44562,1.43656,,-1.9540e-02,-2.88281
-1.9536e-02,-1.44281,1.43625,,-1.9536e-02,-2.87969
-1.9532e-02,-1.44312,1.43719,,-1.9532e-02,-2.88125
-1.9528e-02,-1.44156,1.43656,,-1.9528e-02,-2.8825
-1.9524e-02,-1.44281,1.44063,,-1.9524e-02,-2.87938
-1.9520e-02,-1.44312,1.43906,,-1.9520e-02,-2.87969
-1.9516e-02,-1.44281,1.44219,,-1.9516e-02,-2.87938
-1.9512e-02,-1.44031,1.44219,,-1.9512e-02,-2.88281
-1.9508e-02,-1.43969,1.44312,,-1.9508e-02,-2.88125
-1.9504e-02,-1.43906,1.44063,,-1.9504e-02,-2.87813
-1.9500e-02,-1.43969,1.44281,,-1.9500e-02,-2.87875
-1.9496e-02,-1.43719,1.44312,,-1.9496e-02,-2.88094
-1.9492e-02,-1.43719,1.44281,,-1.9492e-02,-2.88219
-1.9488e-02,-1.435,1.44437,,-1.9488e-02,-2.88187
-1.9484e-02,-1.43625,1.44688,,-1.9484e-02,-2.87844
-1.9480e-02,-1.435,1.44531,,-1.9480e-02,-2.87813
-1.9476e-02,-1.43344,1.44437,,-1.9476e-02,-2.87844
-1.9472e-02,-1.43312,1.44562,,-1.9472e-02,-2.87813
-1.9468e-02,-1.43156,1.44875,,-1.9468e-02,-2.87938
-1.9464e-02,-1.43344,1.44437,,-1.9464e-02,-2.87625
-1.9460e-02,-1.43094,1.44688,,-1.9460e-02,-2.87625
-1.9456e-02,-1.42938,1.44437,,-1.9456e-02,-2.87875
-1.9452e-02,-1.42906,1.44844,,-1.9452e-02,-2.88187
-1.9448e-02,-1.43063,1.44875,,-1.9448e-02,-2.87688
-1.9444e-02,-1.42656,1.45031,,-1.9444e-02,-2.87562
-1.9440e-02,-1.42906,1.44781,,-1.9440e-02,-2.87969
-1.9436e-02,-1.43063,1.45125,,-1.9436e-02,-2.87938
-1.9432e-02,-1.435,1.44938,,-1.9432e-02,-2.87844
-1.9428e-02,-1.42938,1.45031,,-1.9428e-02,-2.87813
-1.9424e-02,-1.42938,1.45031,,-1.9424e-02,-2.88187
-1.9420e-02,-1.43063,1.45094,,-1.9420e-02,-2.8825
-1.9416e-02,-1.42938,1.4525,,-1.9416e-02,-2.88031
-1.9412e-02,-1.42813,1.45594,,-1.9412e-02,-2.88187
-1.9408e-02,-1.4275,1.45656,,-1.9408e-02,-2.88031
-1.9404e-02,-1.42594,1.45437,,-1.9404e-02,-2.88344
-1.9400e-02,-1.42813,1.45656,,-1.9400e-02,-2.88563
-1.9396e-02,-1.42531,1.45656,,-1.9396e-02,-2.88531
-1.9392e-02,-1.425,1.4575,,-1.9392e-02,-2.88875
-1.9388e-02,-1.42406,1.45656,,-1.9388e-02,-2.88594
-1.9384e-02,-1.42406,1.45687,,-1.9384e-02,-2.88813
-1.9380e-02,-1.42594,1.45531,,-1.9380e-02,-2.88938
-1.9376e-02,-1.42688,1.45687,,-1.9376e-02,-2.88563
-1.9372e-02,-1.42437,1.45687,,-1.9372e-02,-2.88625
-1.9368e-02,-1.42594,1.45594,,-1.9368e-02,-2.8875
-1.9364e-02,-1.42656,1.45437,,-1.9364e-02,-2.89125
-1.9360e-02,-1.425,1.4575,,-1.9360e-02,-2.89156
-1.9356e-02,-1.42344,1.45656,,-1.9356e-02,-2.88844
-1.9352e-02,-1.4225,1.45781,,-1.9352e-02,-2.88594
-1.9348e-02,-1.42344,1.45781,,-1.9348e-02,-2.88844
-1.9344e-02,-1.42688,1.45938,,-1.9344e-02,-2.88719
-1.9340e-02,-1.42531,1.46063,,-1.9340e-02,-2.88437
-1.9336e-02,-1.42437,1.45906,,-1.9336e-02,-2.87844
-1.9332e-02,-1.42406,1.46063,,-1.9332e-02,-2.88187
-1.9328e-02,-1.42344,1.46063,,-1.9328e-02,-2.88125
-1.9324e-02,-1.42281,1.46156,,-1.9324e-02,-2.88
-1.9320e-02,-1.42125,1.45781,,-1.9320e-02,-2.88
-1.9316e-02,-1.41938,1.46313,,-1.9316e-02,-2.87781
-1.9312e-02,-1.42,1.45906,,-1.9312e-02,-2.87875
-1.9308e-02,-1.42125,1.46156,,-1.9308e-02,-2.87875
-1.9304e-02,-1.4225,1.4625,,-1.9304e-02,-2.88344
-1.9300e-02,-1.4225,1.46406,,-1.9300e-02,-2.87938
-1.9296e-02,-1.42,1.4625,,-1.9296e-02,-2.88
-1.9292e-02,-1.4225,1.46,,-1.9292e-02,-2.88125
-1.9288e-02,-1.42125,1.46,,-1.9288e-02,-2.87781
-1.9284e-02,-1.42094,1.46188,,-1.9284e-02,-2.87969
-1.9280e-02,-1.42031,1.46313,,-1.9280e-02,-2.88125
-1.9276e-02,-1.41938,1.4625,,-1.9276e-02,-2.88156
-1.9272e-02,-1.42094,1.46188,,-1.9272e-02,-2.88344
-1.9268e-02,-1.42,1.46406,,-1.9268e-02,-2.88031
-1.9264e-02,-1.41719,1.46469,,-1.9264e-02,-2.88125
-1.9260e-02,-1.42,1.4625,,-1.9260e-02,-2.87875
-1.9256e-02,-1.41625,1.46063,,-1.9256e-02,-2.8825
-1.9252e-02,-1.41719,1.4625,,-1.9252e-02,-2.88125
-1.9248e-02,-1.42,1.46156,,-1.9248e-02,-2.88187
-1.9244e-02,-1.41938,1.4625,,-1.9244e-02,-2.87844
-1.9240e-02,-1.41938,1.46094,,-1.9240e-02,-2.87688
-1.9236e-02,-1.42,1.46406,,-1.9236e-02,-2.87938
-1.9232e-02,-1.41938,1.46344,,-1.9232e-02,-2.88
-1.9228e-02,-1.41781,1.46406,,-1.9228e-02,-2.88031
-1.9224e-02,-1.42,1.46406,,-1.9224e-02,-2.88
-1.9220e-02,-1.41875,1.46406,,-1.9220e-02,-2.88094
-1.9216e-02,-1.41781,1.46406,,-1.9216e-02,-2.87938
-1.9212e-02,-1.41938,1.46344,,-1.9212e-02,-2.88031
-1.9208e-02,-1.41719,1.46406,,-1.9208e-02,-2.87969
-1.9204e-02,-1.41875,1.46188,,-1.9204e-02,-2.87813
-1.9200e-02,-1.41719,1.46594,,-1.9200e-02,-2.88125
-1.9196e-02,-1.41781,1.46562,,-1.9196e-02,-2.87781
-1.9192e-02,-1.41719,1.46406,,-1.9192e-02,-2.87531
-1.9188e-02,-1.41719,1.46406,,-1.9188e-02,-2.87625
-1.9184e-02,-1.42,1.46156,,-1.9184e-02,-2.87813
-1.9180e-02,-1.41781,1.46562,,-1.9180e-02,-2.88187
-1.9176e-02,-1.41719,1.46313,,-1.9176e-02,-2.87781
-1.9172e-02,-1.41719,1.4625,,-1.9172e-02,-2.87844
-1.9168e-02,-1.41844,1.46156,,-1.9168e-02,-2.88125
-1.9164e-02,-1.41844,1.46188,,-1.9164e-02,-2.87906
-1.9160e-02,-1.42031,1.46313,,-1.9160e-02,-2.88031
-1.9156e-02,-1.41781,1.46406,,-1.9156e-02,-2.87906
-1.9152e-02,-1.41469,1.4625,,-1.9152e-02,-2.87938
-1.9148e-02,-1.41719,1.4625,,-1.9148e-02,-2.88125
-1.9144e-02,-1.41625,1.46313,,-1.9144e-02,-2.88406
-1.9140e-02,-1.41688,1.46344,,-1.9140e-02,-2.88281
-1.9136e-02,-1.41469,1.46313,,-1.9136e-02,-2.87969
-1.9132e-02,-1.41437,1.46188,,-1.9132e-02,-2.88187
-1.9128e-02,-1.41531,1.46469,,-1.9128e-02,-2.88375
-1.9124e-02,-1.41437,1.46594,,-1.9124e-02,-2.88125
-1.9120e-02,-1.41844,1.46594,,-1.9120e-02,-2.87969
-1.9116e-02,-1.41312,1.465,,-1.9116e-02,-2.87688
-1.9112e-02,-1.41469,1.465,,-1.9112e-02,-2.87625
-1.9108e-02,-1.41469,1.4675,,-1.9108e-02,-2.87969
-1.9104e-02,-1.41531,1.46969,,-1.9104e-02,-2.88187
-1.9100e-02,-1.41437,1.47063,,-1.9100e-02,-2.88031
-1.9096e-02,-1.41469,1.46875,,-1.9096e-02,-2.87875
-1.9092e-02,-1.41312,1.47,,-1.9092e-02,-2.88125
-1.9088e-02,-1.41281,1.46906,,-1.9088e-02,-2.8825
-1.9084e-02,-1.41437,1.47,,-1.9084e-02,-2.88063
-1.9080e-02,-1.41187,1.46719,,-1.9080e-02,-2.87688
-1.9076e-02,-1.41063,1.46875,,-1.9076e-02,-2.87688
-1.9072e-02,-1.41063,1.47063,,-1.9072e-02,-2.87625
-1.9068e-02,-1.40875,1.46969,,-1.9068e-02,-2.87781
-1.9064e-02,-1.41219,1.46969,,-1.9064e-02,-2.88281
-1.9060e-02,-1.41125,1.46969,,-1.9060e-02,-2.87969
-1.9056e-02,-1.41469,1.46719,,-1.9056e-02,-2.87906
-1.9052e-02,-1.41469,1.4675,,-1.9052e-02,-2.88094
-1.9048e-02,-1.41625,1.46906,,-1.9048e-02,-2.87781
-1.9044e-02,-1.41469,1.46969,,-1.9044e-02,-2.87656
-1.9040e-02,-1.41469,1.4675,,-1.9040e-02,-2.87688
-1.9036e-02,-1.41469,1.4675,,-1.9036e-02,-2.87969
-1.9032e-02,-1.41594,1.46813,,-1.9032e-02,-2.87719
-1.9028e-02,-1.41625,1.47063,,-1.9028e-02,-2.87813
-1.9024e-02,-1.41437,1.46969,,-1.9024e-02,-2.87688
-1.9020e-02,-1.41469,1.46906,,-1.9020e-02,-2.87906
-1.9016e-02,-1.41469,1.46969,,-1.9016e-02,-2.88094
-1.9012e-02,-1.41594,1.46969,,-1.9012e-02,-2.87813
-1.9008e-02,-1.41469,1.46719,,-1.9008e-02,-2.87719
-1.9004e-02,-1.41437,1.46656,,-1.9004e-02,-2.8775
-1.9000e-02,-1.41594,1.46719,,-1.9000e-02,-2.88
-1.8996e-02,-1.41625,1.4675,,-1.8996e-02,-2.87938
-1.8992e-02,-1.41781,1.46906,,-1.8992e-02,-2.88156
-1.8988e-02,-1.41281,1.4675,,-1.8988e-02,-2.88031
-1.8984e-02,-1.41312,1.46469,,-1.8984e-02,-2.87938
-1.8980e-02,-1.41594,1.46656,,-1.8980e-02,-2.88094
-1.8976e-02,-1.41594,1.46562,,-1.8976e-02,-2.88187
-1.8972e-02,-1.41469,1.46656,,-1.8972e-02,-2.87875
-1.8968e-02,-1.41312,1.46188,,-1.8968e-02,-2.87813
-1.8964e-02,-1.41437,1.46406,,-1.8964e-02,-2.87781
-1.8960e-02,-1.41594,1.46562,,-1.8960e-02,-2.87938
-1.8956e-02,-1.41688,1.46562,,-1.8956e-02,-2.87375
-1.8952e-02,-1.41625,1.46469,,-1.8952e-02,-2.87188
-1.8948e-02,-1.41844,1.46469,,-1.8948e-02,-2.87344
-1.8944e-02,-1.41688,1.465,,-1.8944e-02,-2.87625
-1.8940e-02,-1.41719,1.46562,,-1.8940e-02,-2.87469
-1.8936e-02,-1.41375,1.46313,,-1.8936e-02,-2.875
-1.8932e-02,-1.41437,1.46562,,-1.8932e-02,-2.87844
-1.8928e-02,-1.41469,1.465,,-1.8928e-02,-2.87938
-1.8924e-02,-1.41594,1.465,,-1.8924e-02,-2.88187
-1.8920e-02,-1.41531,1.46594,,-1.8920e-02,-2.88063
-1.8916e-02,-1.41437,1.465,,-1.8916e-02,-2.88
-1.8912e-02,-1.41063,1.46406,,-1.8912e-02,-2.87938
-1.8908e-02,-1.41187,1.46594,,-1.8908e-02,-2.8825
-1.8904e-02,-1.41187,1.46469,,-1.8904e-02,-2.88219
-1.8900e-02,-1.41063,1.46875,,-1.8900e-02,-2.88187
-1.8896e-02,-1.41281,1.46719,,-1.8896e-02,-2.87938
-1.8892e-02,-1.41219,1.46719,,-1.8892e-02,-2.88375
-1.8888e-02,-1.41125,1.46813,,-1.8888e-02,-2.88187
-1.8884e-02,-1.41187,1.46594,,-1.8884e-02,-2.88187
-1.8880e-02,-1.41031,1.46656,,-1.8880e-02,-2.8825
-1.8876e-02,-1.41031,1.46344,,-1.8876e-02,-2.88
-1.8872e-02,-1.41437,1.4675,,-1.8872e-02,-2.88281
-1.8868e-02,-1.41375,1.46719,,-1.8868e-02,-2.88125
-1.8864e-02,-1.41281,1.46562,,-1.8864e-02,-2.8825
-1.8860e-02,-1.41375,1.46594,,-1.8860e-02,-2.88281
-1.8856e-02,-1.41531,1.46406,,-1.8856e-02,-2.88313
-1.8852e-02,-1.41375,1.46469,,-1.8852e-02,-2.88906
-1.8848e-02,-1.41219,1.46594,,-1.8848e-02,-2.88437
-1.8844e-02,-1.41281,1.46469,,-1.8844e-02,-2.87938
-1.8840e-02,-1.41219,1.46656,,-1.8840e-02,-2.88187
-1.8836e-02,-1.41125,1.46656,,-1.8836e-02,-2.88125
-1.8832e-02,-1.41187,1.46813,,-1.8832e-02,-2.88125
-1.8828e-02,-1.41031,1.47,,-1.8828e-02,-2.88125
-1.8824e-02,-1.41031,1.46594,,-1.8824e-02,-2.87875
-1.8820e-02,-1.40781,1.465,,-1.8820e-02,-2.88031
-1.8816e-02,-1.40656,1.46594,,-1.8816e-02,-2.87781
-1.8812e-02,-1.41281,1.4675,,-1.8812e-02,-2.8775
-1.8808e-02,-1.41063,1.46406,,-1.8808e-02,-2.87719
-1.8804e-02,-1.41125,1.46469,,-1.8804e-02,-2.87938
-1.8800e-02,-1.41063,1.46469,,-1.8800e-02,-2.88063
-1.8796e-02,-1.41375,1.46875,,-1.8796e-02,-2.87938
-1.8792e-02,-1.41312,1.4675,,-1.8792e-02,-2.88313
-1.8788e-02,-1.40906,1.4675,,-1.8788e-02,-2.87813
-1.8784e-02,-1.40969,1.46813,,-1.8784e-02,-2.87719
-1.8780e-02,-1.41063,1.4675,,-1.8780e-02,-2.87781
-1.8776e-02,-1.41375,1.46813,,-1.8776e-02,-2.87906
-1.8772e-02,-1.41375,1.46813,,-1.8772e-02,-2.87688
-1.8768e-02,-1.41281,1.46719,,-1.8768e-02,-2.87625
-1.8764e-02,-1.41063,1.46562,,-1.8764e-02,-2.87781
-1.8760e-02,-1.41063,1.46969,,-1.8760e-02,-2.88125
-1.8756e-02,-1.41219,1.46719,,-1.8756e-02,-2.88187
-1.8752e-02,-1.41219,1.46656,,-1.8752e-02,-2.88156
-1.8748e-02,-1.41281,1.46594,,-1.8748e-02,-2.87875
-1.8744e-02,-1.41187,1.465,,-1.8744e-02,-2.87906
-1.8740e-02,-1.41312,1.46344,,-1.8740e-02,-2.87938
-1.8736e-02,-1.41219,1.46406,,-1.8736e-02,-2.87594
-1.8732e-02,-1.40906,1.4625,,-1.8732e-02,-2.87406
-1.8728e-02,-1.41031,1.46406,,-1.8728e-02,-2.87469
-1.8724e-02,-1.41187,1.46594,,-1.8724e-02,-2.8725
-1.8720e-02,-1.41187,1.46594,,-1.8720e-02,-2.87188
-1.8716e-02,-1.41219,1.465,,-1.8716e-02,-2.87281
-1.8712e-02,-1.41063,1.4675,,-1.8712e-02,-2.87281
-1.8708e-02,-1.41031,1.46813,,-1.8708e-02,-2.87625
-1.8704e-02,-1.41063,1.46656,,-1.8704e-02,-2.87625
-1.8700e-02,-1.41187,1.46875,,-1.8700e-02,-2.87594
-1.8696e-02,-1.41219,1.46906,,-1.8696e-02,-2.87406
-1.8692e-02,-1.41063,1.47063,,-1.8692e-02,-2.87562
-1.8688e-02,-1.41125,1.46719,,-1.8688e-02,-2.87688
-1.8684e-02,-1.41187,1.46719,,-1.8684e-02,-2.87938
-1.8680e-02,-1.41437,1.46969,,-1.8680e-02,-2.87281
-1.8676e-02,-1.41281,1.46875,,-1.8676e-02,-2.87625
-1.8672e-02,-1.41312,1.4675,,-1.8672e-02,-2.87938
-1.8668e-02,-1.41312,1.47125,,-1.8668e-02,-2.87688
-1.8664e-02,-1.41125,1.47,,-1.8664e-02,-2.87594
-1.8660e-02,-1.41125,1.46875,,-1.8660e-02,-2.87562
-1.8656e-02,-1.40969,1.4675,,-1.8656e-02,-2.87781
-1.8652e-02,-1.40781,1.4675,,-1.8652e-02,-2.87688
-1.8648e-02,-1.41063,1.46875,,-1.8648e-02,-2.87781
-1.8644e-02,-1.40906,1.47125,,-1.8644e-02,-2.87875
-1.8640e-02,-1.40906,1.46656,,-1.8640e-02,-2.87594
-1.8636e-02,-1.40969,1.46719,,-1.8636e-02,-2.87844
-1.8632e-02,-1.41219,1.46562,,-1.8632e-02,-2.88031
-1.8628e-02,-1.41219,1.4675,,-1.8628e-02,-2.87625
-1.8624e-02,-1.41031,1.46656,,-1.8624e-02,-2.87906
-1.8620e-02,-1.40656,1.46562,,-1.8620e-02,-2.88125
-1.8616e-02,-1.40781,1.46813,,-1.8616e-02,-2.88094
-1.8612e-02,-1.40906,1.47063,,-1.8612e-02,-2.88094
-1.8608e-02,-1.40813,1.46875,,-1.8608e-02,-2.87688
-1.8604e-02,-1.40906,1.47156,,-1.8604e-02,-2.87906
-1.8600e-02,-1.40813,1.47063,,-1.8600e-02,-2.88094
-1.8596e-02,-1.40906,1.46969,,-1.8596e-02,-2.88187
-1.8592e-02,-1.40906,1.46875,,-1.8592e-02,-2.88094
-1.8588e-02,-1.40875,1.4675,,-1.8588e-02,-2.88469
-1.8584e-02,-1.40813,1.47063,,-1.8584e-02,-2.87875
-1.8580e-02,-1.41031,1.46719,,-1.8580e-02,-2.88156
-1.8576e-02,-1.41125,1.46813,,-1.8576e-02,-2.88063
-1.8572e-02,-1.41187,1.46719,,-1.8572e-02,-2.87813
-1.8568e-02,-1.41125,1.46719,,-1.8568e-02,-2.87625
-1.8564e-02,-1.40906,1.46719,,-1.8564e-02,-2.8775
-1.8560e-02,-1.40969,1.46719,,-1.8560e-02,-2.87844
-1.8556e-02,-1.41187,1.4675,,-1.8556e-02,-2.87688
-1.8552e-02,-1.40906,1.47,,-1.8552e-02,-2.87875
-1.8548e-02,-1.40906,1.46969,,-1.8548e-02,-2.87844
-1.8544e-02,-1.41031,1.47,,-1.8544e-02,-2.87844
-1.8540e-02,-1.40969,1.46875,,-1.8540e-02,-2.87813
-1.8536e-02,-1.40906,1.465,,-1.8536e-02,-2.87875
-1.8532e-02,-1.41125,1.46813,,-1.8532e-02,-2.87688
-1.8528e-02,-1.40875,1.47281,,-1.8528e-02,-2.87813
-1.8524e-02,-1.41031,1.46969,,-1.8524e-02,-2.87969
-1.8520e-02,-1.40813,1.47219,,-1.8520e-02,-2.88031
-1.8516e-02,-1.40906,1.47281,,-1.8516e-02,-2.88187
-1.8512e-02,-1.40875,1.47313,,-1.8512e-02,-2.88
-1.8508e-02,-1.40813,1.47562,,-1.8508e-02,-2.88187
-1.8504e-02,-1.40875,1.47562,,-1.8504e-02,-2.88125
-1.8500e-02,-1.40563,1.47719,,-1.8500e-02,-2.88281
-1.8496e-02,-1.4025,1.47813,,-1.8496e-02,-2.87719
-1.8492e-02,-1.40219,1.47875,,-1.8492e-02,-2.87906
-1.8488e-02,-1.4,1.48094,,-1.8488e-02,-2.87875
-1.8484e-02,-1.39969,1.48344,,-1.8484e-02,-2.87781
-1.8480e-02,-1.39813,1.48188,,-1.8480e-02,-2.87594
-1.8476e-02,-1.39094,1.48594,,-1.8476e-02,-2.87656
-1.8472e-02,-1.3875,1.49156,,-1.8472e-02,-2.87875
