Report/Part 1.4/Full Rectifier circuits/Bridge With Zener/tek0001.csv

Model,MSO3012
Firmware Version,2.40

Waveform Type,ANALOG,,,Waveform Type,ANALOG
Point Format,Y,,,Point Format,Y
Horizontal Units,s,,,Horizontal Units,s
Horizontal Scale,0.004,,,Horizontal Scale,0.004
Horizontal Delay,0,,,Horizontal Delay,0
Sample Interval,4e-06,,,Sample Interval,4e-06
Record Length,10000,,,Record Length,10000
Gating,0.0% to 100.0%,,,Gating,0.0% to 100.0%
Probe Attenuation,1,,,Probe Attenuation,1
Vertical Units,V,,,Vertical Units,V
Vertical Offset,0,,,Vertical Offset,0
Vertical Scale,2,,,Vertical Scale,1
Vertical Position,0,,,Vertical Position,0
,,,,,
,,,,,
,,,,,
Label,,,,Label,
TIME,CH1,CH2,,TIME,"MATH<CH1-CH2>"
-2.0000e-02,-1.99625,0.805,,-2.0000e-02,-2.7975
-1.9996e-02,-1.98469,0.814688,,-1.9996e-02,-2.79219
-1.9992e-02,-1.975,0.824688,,-1.9992e-02,-2.79594
-1.9988e-02,-1.96469,0.835313,,-1.9988e-02,-2.79406
-1.9984e-02,-1.95406,0.845625,,-1.9984e-02,-2.79656
-1.9980e-02,-1.94906,0.854063,,-1.9980e-02,-2.79406
-1.9976e-02,-1.93469,0.862187,,-1.9976e-02,-2.79219
-1.9972e-02,-1.92781,0.8725,,-1.9972e-02,-2.79344
-1.9968e-02,-1.92094,0.882188,,-1.9968e-02,-2.79594
-1.9964e-02,-1.91,0.888125,,-1.9964e-02,-2.7925
-1.9960e-02,-1.89625,0.900938,,-1.9960e-02,-2.79656
-1.9956e-02,-1.88813,0.910625,,-1.9956e-02,-2.79656
-1.9952e-02,-1.87781,0.9175,,-1.9952e-02,-2.79469
-1.9948e-02,-1.87094,0.926875,,-1.9948e-02,-2.79531
-1.9944e-02,-1.85906,0.934375,,-1.9944e-02,-2.79156
-1.9940e-02,-1.84781,0.944063,,-1.9940e-02,-2.7925
-1.9936e-02,-1.83781,0.953125,,-1.9936e-02,-2.78938
-1.9932e-02,-1.82969,0.962187,,-1.9932e-02,-2.7925
-1.9928e-02,-1.82,0.971875,,-1.9928e-02,-2.79094
-1.9924e-02,-1.80937,0.98125,,-1.9924e-02,-2.79094
-1.9920e-02,-1.80063,0.988125,,-1.9920e-02,-2.78844
-1.9916e-02,-1.79156,1.00188,,-1.9916e-02,-2.79375
-1.9912e-02,-1.78188,1.00906,,-1.9912e-02,-2.7925
-1.9908e-02,-1.77438,1.01875,,-1.9908e-02,-2.79031
-1.9904e-02,-1.76469,1.02531,,-1.9904e-02,-2.79125
-1.9900e-02,-1.75594,1.03406,,-1.9900e-02,-2.78625
-1.9896e-02,-1.74844,1.04406,,-1.9896e-02,-2.79062
-1.9892e-02,-1.73875,1.05031,,-1.9892e-02,-2.78906
-1.9888e-02,-1.72875,1.05688,,-1.9888e-02,-2.78563
-1.9884e-02,-1.7175,1.065,,-1.9884e-02,-2.78344
-1.9880e-02,-1.71375,1.07406,,-1.9880e-02,-2.78594
-1.9876e-02,-1.70562,1.08219,,-1.9876e-02,-2.7875
-1.9872e-02,-1.69719,1.08875,,-1.9872e-02,-2.78281
-1.9868e-02,-1.6875,1.09438,,-1.9868e-02,-2.77937
-1.9864e-02,-1.67938,1.10344,,-1.9864e-02,-2.77875
-1.9860e-02,-1.67312,1.11156,,-1.9860e-02,-2.78281
-1.9856e-02,-1.66781,1.11938,,-1.9856e-02,-2.78094
-1.9852e-02,-1.65406,1.12375,,-1.9852e-02,-2.77781
-1.9848e-02,-1.6475,1.13094,,-1.9848e-02,-2.77813
-1.9844e-02,-1.64125,1.13969,,-1.9844e-02,-2.77969
-1.9840e-02,-1.63469,1.14906,,-1.9840e-02,-2.78313
-1.9836e-02,-1.62813,1.15375,,-1.9836e-02,-2.78406
-1.9832e-02,-1.62,1.1625,,-1.9832e-02,-2.78187
-1.9828e-02,-1.61281,1.16844,,-1.9828e-02,-2.77687
-1.9824e-02,-1.60813,1.17344,,-1.9824e-02,-2.78344
-1.9820e-02,-1.60281,1.18125,,-1.9820e-02,-2.77906
-1.9816e-02,-1.59187,1.18781,,-1.9816e-02,-2.77781
-1.9812e-02,-1.5875,1.19094,,-1.9812e-02,-2.77687
-1.9808e-02,-1.57719,1.19844,,-1.9808e-02,-2.77875
-1.9804e-02,-1.57281,1.20406,,-1.9804e-02,-2.77781
-1.9800e-02,-1.56625,1.20969,,-1.9800e-02,-2.7775
-1.9796e-02,-1.5575,1.21969,,-1.9796e-02,-2.77625
-1.9792e-02,-1.55031,1.22344,,-1.9792e-02,-2.7775
-1.9788e-02,-1.54313,1.22906,,-1.9788e-02,-2.77406
-1.9784e-02,-1.53906,1.23344,,-1.9784e-02,-2.77531
-1.9780e-02,-1.535,1.23594,,-1.9780e-02,-2.77375
-1.9776e-02,-1.52969,1.2425,,-1.9776e-02,-2.77281
-1.9772e-02,-1.52344,1.24625,,-1.9772e-02,-2.77219
-1.9768e-02,-1.52,1.25125,,-1.9768e-02,-2.77563
-1.9764e-02,-1.51469,1.25687,,-1.9764e-02,-2.775
-1.9760e-02,-1.50938,1.25938,,-1.9760e-02,-2.77406
-1.9756e-02,-1.50406,1.26281,,-1.9756e-02,-2.77125
-1.9752e-02,-1.50125,1.26687,,-1.9752e-02,-2.77219
-1.9748e-02,-1.49844,1.27156,,-1.9748e-02,-2.77188
-1.9744e-02,-1.49406,1.27875,,-1.9744e-02,-2.77188
-1.9740e-02,-1.49094,1.28281,,-1.9740e-02,-2.77062
-1.9736e-02,-1.48781,1.28625,,-1.9736e-02,-2.76938
-1.9732e-02,-1.48438,1.28844,,-1.9732e-02,-2.77469
-1.9728e-02,-1.48125,1.2925,,-1.9728e-02,-2.77062
-1.9724e-02,-1.47625,1.29406,,-1.9724e-02,-2.77219
-1.9720e-02,-1.47219,1.29937,,-1.9720e-02,-2.77125
-1.9716e-02,-1.47,1.30062,,-1.9716e-02,-2.76875
-1.9712e-02,-1.46656,1.30625,,-1.9712e-02,-2.77
-1.9708e-02,-1.46313,1.30906,,-1.9708e-02,-2.77281
-1.9704e-02,-1.45844,1.31156,,-1.9704e-02,-2.76844
-1.9700e-02,-1.45531,1.31531,,-1.9700e-02,-2.76875
-1.9696e-02,-1.45344,1.31563,,-1.9696e-02,-2.77
-1.9692e-02,-1.45125,1.31937,,-1.9692e-02,-2.77094
-1.9688e-02,-1.44875,1.3225,,-1.9688e-02,-2.77125
-1.9684e-02,-1.44625,1.32188,,-1.9684e-02,-2.77219
-1.9680e-02,-1.44281,1.32594,,-1.9680e-02,-2.77312
-1.9676e-02,-1.44125,1.33156,,-1.9676e-02,-2.7775
-1.9672e-02,-1.43906,1.335,,-1.9672e-02,-2.77438
-1.9668e-02,-1.43469,1.33594,,-1.9668e-02,-2.76812
-1.9664e-02,-1.43156,1.33656,,-1.9664e-02,-2.77281
-1.9660e-02,-1.43094,1.33969,,-1.9660e-02,-2.76875
-1.9656e-02,-1.42938,1.34156,,-1.9656e-02,-2.77281
-1.9652e-02,-1.42656,1.34281,,-1.9652e-02,-2.77375
-1.9648e-02,-1.42406,1.34719,,-1.9648e-02,-2.7725
-1.9644e-02,-1.42281,1.34937,,-1.9644e-02,-2.77094
-1.9640e-02,-1.4225,1.35125,,-1.9640e-02,-2.77375
-1.9636e-02,-1.42031,1.355,,-1.9636e-02,-2.77344
-1.9632e-02,-1.41781,1.35375,,-1.9632e-02,-2.77312
-1.9628e-02,-1.41594,1.35531,,-1.9628e-02,-2.77125
-1.9624e-02,-1.41625,1.35625,,-1.9624e-02,-2.76812
-1.9620e-02,-1.41469,1.35938,,-1.9620e-02,-2.77219
-1.9616e-02,-1.41281,1.36187,,-1.9616e-02,-2.77406
-1.9612e-02,-1.41031,1.3625,,-1.9612e-02,-2.77531
-1.9608e-02,-1.40781,1.36312,,-1.9608e-02,-2.7725
-1.9604e-02,-1.40719,1.36844,,-1.9604e-02,-2.77062
-1.9600e-02,-1.40875,1.36906,,-1.9600e-02,-2.775
-1.9596e-02,-1.40563,1.36906,,-1.9596e-02,-2.77469
-1.9592e-02,-1.40406,1.37125,,-1.9592e-02,-2.77531
-1.9588e-02,-1.40469,1.37125,,-1.9588e-02,-2.77625
-1.9584e-02,-1.40312,1.37406,,-1.9584e-02,-2.77563
-1.9580e-02,-1.39906,1.37312,,-1.9580e-02,-2.77563
-1.9576e-02,-1.40063,1.36906,,-1.9576e-02,-2.77563
-1.9572e-02,-1.39906,1.37469,,-1.9572e-02,-2.77687
-1.9568e-02,-1.39969,1.37406,,-1.9568e-02,-2.77719
-1.9564e-02,-1.3975,1.37531,,-1.9564e-02,-2.77781
-1.9560e-02,-1.39594,1.37656,,-1.9560e-02,-2.77844
-1.9556e-02,-1.39344,1.37875,,-1.9556e-02,-2.77563
-1.9552e-02,-1.39406,1.37781,,-1.9552e-02,-2.77656
-1.9548e-02,-1.39688,1.37813,,-1.9548e-02,-2.77719
-1.9544e-02,-1.39656,1.38062,,-1.9544e-02,-2.77844
-1.9540e-02,-1.39187,1.38281,,-1.9540e-02,-2.77656
-1.9536e-02,-1.39187,1.38375,,-1.9536e-02,-2.77781
-1.9532e-02,-1.39187,1.38469,,-1.9532e-02,-2.77937
-1.9528e-02,-1.39156,1.38594,,-1.9528e-02,-2.78125
-1.9524e-02,-1.39031,1.38625,,-1.9524e-02,-2.77906
-1.9520e-02,-1.38844,1.39,,-1.9520e-02,-2.77906
-1.9516e-02,-1.3875,1.38781,,-1.9516e-02,-2.78031
-1.9512e-02,-1.39031,1.38938,,-1.9512e-02,-2.77875
-1.9508e-02,-1.38781,1.39094,,-1.9508e-02,-2.77937
-1.9504e-02,-1.38688,1.38938,,-1.9504e-02,-2.77781
-1.9500e-02,-1.38625,1.39156,,-1.9500e-02,-2.77813
-1.9496e-02,-1.38688,1.39031,,-1.9496e-02,-2.77813
-1.9492e-02,-1.38531,1.39,,-1.9492e-02,-2.77781
-1.9488e-02,-1.38344,1.39094,,-1.9488e-02,-2.77625
-1.9484e-02,-1.38375,1.38938,,-1.9484e-02,-2.77312
-1.9480e-02,-1.38125,1.38781,,-1.9480e-02,-2.77625
-1.9476e-02,-1.38125,1.3925,,-1.9476e-02,-2.77469
-1.9472e-02,-1.38375,1.39,,-1.9472e-02,-2.77813
-1.9468e-02,-1.38062,1.39094,,-1.9468e-02,-2.77844
-1.9464e-02,-1.37781,1.39094,,-1.9464e-02,-2.77687
-1.9460e-02,-1.38031,1.39281,,-1.9460e-02,-2.78125
-1.9456e-02,-1.38062,1.3975,,-1.9456e-02,-2.77969
-1.9452e-02,-1.37969,1.39594,,-1.9452e-02,-2.77375
-1.9448e-02,-1.37625,1.39563,,-1.9448e-02,-2.77312
-1.9444e-02,-1.37625,1.39656,,-1.9444e-02,-2.77375
-1.9440e-02,-1.37719,1.39688,,-1.9440e-02,-2.78
-1.9436e-02,-1.37656,1.39906,,-1.9436e-02,-2.77687
-1.9432e-02,-1.37312,1.39906,,-1.9432e-02,-2.77438
-1.9428e-02,-1.37469,1.39688,,-1.9428e-02,-2.77156
-1.9424e-02,-1.37531,1.39688,,-1.9424e-02,-2.77312
-1.9420e-02,-1.37625,1.3975,,-1.9420e-02,-2.77312
-1.9416e-02,-1.37875,1.39406,,-1.9416e-02,-2.77969
-1.9412e-02,-1.37625,1.3975,,-1.9412e-02,-2.77875
-1.9408e-02,-1.37531,1.39594,,-1.9408e-02,-2.77625
-1.9404e-02,-1.37781,1.39437,,-1.9404e-02,-2.77312
-1.9400e-02,-1.37719,1.39813,,-1.9400e-02,-2.77563
-1.9396e-02,-1.37375,1.39656,,-1.9396e-02,-2.77406
-1.9392e-02,-1.37125,1.39563,,-1.9392e-02,-2.77469
-1.9388e-02,-1.37375,1.39656,,-1.9388e-02,-2.77156
-1.9384e-02,-1.37531,1.39688,,-1.9384e-02,-2.77469
-1.9380e-02,-1.3725,1.39969,,-1.9380e-02,-2.77406
-1.9376e-02,-1.37375,1.39594,,-1.9376e-02,-2.77531
-1.9372e-02,-1.37469,1.3975,,-1.9372e-02,-2.77156
-1.9368e-02,-1.37375,1.3975,,-1.9368e-02,-2.77438
-1.9364e-02,-1.37563,1.395,,-1.9364e-02,-2.77594
-1.9360e-02,-1.37312,1.39844,,-1.9360e-02,-2.77406
-1.9356e-02,-1.37156,1.39813,,-1.9356e-02,-2.77531
-1.9352e-02,-1.37219,1.39594,,-1.9352e-02,-2.77219
-1.9348e-02,-1.37375,1.4,,-1.9348e-02,-2.77219
-1.9344e-02,-1.3725,1.4,,-1.9344e-02,-2.77281
-1.9340e-02,-1.37219,1.39969,,-1.9340e-02,-2.77094
-1.9336e-02,-1.3725,1.39969,,-1.9336e-02,-2.77375
-1.9332e-02,-1.3725,1.39813,,-1.9332e-02,-2.7725
-1.9328e-02,-1.37219,1.39813,,-1.9328e-02,-2.77563
-1.9324e-02,-1.3725,1.39906,,-1.9324e-02,-2.77469
-1.9320e-02,-1.37156,1.4,,-1.9320e-02,-2.77687
-1.9316e-02,-1.37062,1.39906,,-1.9316e-02,-2.77219
-1.9312e-02,-1.37125,1.40063,,-1.9312e-02,-2.77375
-1.9308e-02,-1.37156,1.40219,,-1.9308e-02,-2.77219
-1.9304e-02,-1.3725,1.39969,,-1.9304e-02,-2.77062
-1.9300e-02,-1.37156,1.40094,,-1.9300e-02,-2.77062
-1.9296e-02,-1.36969,1.40094,,-1.9296e-02,-2.77281
-1.9292e-02,-1.37125,1.40375,,-1.9292e-02,-2.77875
-1.9288e-02,-1.36969,1.40219,,-1.9288e-02,-2.77594
-1.9284e-02,-1.36969,1.40406,,-1.9284e-02,-2.77625
-1.9280e-02,-1.37156,1.40156,,-1.9280e-02,-2.77219
-1.9276e-02,-1.37219,1.40219,,-1.9276e-02,-2.77563
-1.9272e-02,-1.37062,1.4025,,-1.9272e-02,-2.77312
-1.9268e-02,-1.37,1.40156,,-1.9268e-02,-2.775
-1.9264e-02,-1.36844,1.40406,,-1.9264e-02,-2.77531
-1.9260e-02,-1.3675,1.4025,,-1.9260e-02,-2.77375
-1.9256e-02,-1.37,1.40469,,-1.9256e-02,-2.77219
-1.9252e-02,-1.36719,1.40375,,-1.9252e-02,-2.77406
-1.9248e-02,-1.36656,1.40156,,-1.9248e-02,-2.77188
-1.9244e-02,-1.36594,1.40563,,-1.9244e-02,-2.77219
-1.9240e-02,-1.36719,1.405,,-1.9240e-02,-2.77312
-1.9236e-02,-1.37,1.40719,,-1.9236e-02,-2.77312
-1.9232e-02,-1.36438,1.40719,,-1.9232e-02,-2.77375
-1.9228e-02,-1.36563,1.40875,,-1.9228e-02,-2.77062
-1.9224e-02,-1.36813,1.40625,,-1.9224e-02,-2.77094
-1.9220e-02,-1.36906,1.40656,,-1.9220e-02,-2.77406
-1.9216e-02,-1.36719,1.40563,,-1.9216e-02,-2.7725
-1.9212e-02,-1.365,1.405,,-1.9212e-02,-2.76875
-1.9208e-02,-1.36656,1.40656,,-1.9208e-02,-2.77469
-1.9204e-02,-1.36906,1.40719,,-1.9204e-02,-2.77375
-1.9200e-02,-1.37,1.40813,,-1.9200e-02,-2.77312
-1.9196e-02,-1.36594,1.40656,,-1.9196e-02,-2.77188
-1.9192e-02,-1.36187,1.40563,,-1.9192e-02,-2.77438
-1.9188e-02,-1.365,1.40781,,-1.9188e-02,-2.77469
-1.9184e-02,-1.36656,1.40813,,-1.9184e-02,-2.77469
-1.9180e-02,-1.36594,1.40906,,-1.9180e-02,-2.77687
-1.9176e-02,-1.3625,1.40875,,-1.9176e-02,-2.77406
-1.9172e-02,-1.36312,1.40969,,-1.9172e-02,-2.77281
-1.9168e-02,-1.36344,1.41125,,-1.9168e-02,-2.77375
-1.9164e-02,-1.36594,1.41219,,-1.9164e-02,-2.77625
-1.9160e-02,-1.3675,1.40969,,-1.9160e-02,-2.77469
-1.9156e-02,-1.36312,1.40969,,-1.9156e-02,-2.77375
-1.9152e-02,-1.365,1.41187,,-1.9152e-02,-2.77375
-1.9148e-02,-1.3675,1.41031,,-1.9148e-02,-2.77719
-1.9144e-02,-1.36312,1.40719,,-1.9144e-02,-2.77469
-1.9140e-02,-1.36156,1.41125,,-1.9140e-02,-2.77188
-1.9136e-02,-1.36156,1.41125,,-1.9136e-02,-2.77156
-1.9132e-02,-1.3625,1.41125,,-1.9132e-02,-2.77031
-1.9128e-02,-1.36438,1.40719,,-1.9128e-02,-2.77469
-1.9124e-02,-1.36312,1.40969,,-1.9124e-02,-2.77406
-1.9120e-02,-1.36031,1.40781,,-1.9120e-02,-2.77062
-1.9116e-02,-1.36031,1.40719,,-1.9116e-02,-2.77219
-1.9112e-02,-1.36344,1.40719,,-1.9112e-02,-2.775
-1.9108e-02,-1.36344,1.40625,,-1.9108e-02,-2.77469
-1.9104e-02,-1.36344,1.40406,,-1.9104e-02,-2.77125
-1.9100e-02,-1.36094,1.40563,,-1.9100e-02,-2.77375
-1.9096e-02,-1.36156,1.40406,,-1.9096e-02,-2.76906
-1.9092e-02,-1.36094,1.405,,-1.9092e-02,-2.77031
-1.9088e-02,-1.36031,1.40406,,-1.9088e-02,-2.77125
-1.9084e-02,-1.3575,1.405,,-1.9084e-02,-2.77125
-1.9080e-02,-1.3575,1.40781,,-1.9080e-02,-2.77406
-1.9076e-02,-1.36156,1.40781,,-1.9076e-02,-2.77062
-1.9072e-02,-1.35906,1.40656,,-1.9072e-02,-2.77563
-1.9068e-02,-1.35844,1.40469,,-1.9068e-02,-2.77
-1.9064e-02,-1.36,1.40312,,-1.9064e-02,-2.76906
-1.9060e-02,-1.36031,1.40469,,-1.9060e-02,-2.7675
-1.9056e-02,-1.36187,1.405,,-1.9056e-02,-2.77219
-1.9052e-02,-1.36156,1.40469,,-1.9052e-02,-2.76906
-1.9048e-02,-1.36031,1.40563,,-1.9048e-02,-2.76812
-1.9044e-02,-1.36,1.40625,,-1.9044e-02,-2.76688
-1.9040e-02,-1.35938,1.40656,,-1.9040e-02,-2.77
-1.9036e-02,-1.36187,1.40656,,-1.9036e-02,-2.76844
-1.9032e-02,-1.36406,1.40469,,-1.9032e-02,-2.76875
-1.9028e-02,-1.36156,1.40469,,-1.9028e-02,-2.7675
-1.9024e-02,-1.36406,1.40719,,-1.9024e-02,-2.76812
-1.9020e-02,-1.365,1.40469,,-1.9020e-02,-2.77156
-1.9016e-02,-1.36656,1.405,,-1.9016e-02,-2.77219
-1.9012e-02,-1.36406,1.40781,,-1.9012e-02,-2.77188
-1.9008e-02,-1.36187,1.40656,,-1.9008e-02,-2.77031
-1.9004e-02,-1.36344,1.405,,-1.9004e-02,-2.77062
-1.9000e-02,-1.36656,1.405,,-1.9000e-02,-2.77
-1.8996e-02,-1.36563,1.405,,-1.8996e-02,-2.77094
-1.8992e-02,-1.36344,1.40406,,-1.8992e-02,-2.76969
-1.8988e-02,-1.36594,1.40094,,-1.8988e-02,-2.76906
-1.8984e-02,-1.36813,1.40375,,-1.8984e-02,-2.77219
-1.8980e-02,-1.36406,1.405,,-1.8980e-02,-2.77406
-1.8976e-02,-1.36312,1.40469,,-1.8976e-02,-2.77219
-1.8972e-02,-1.36344,1.40312,,-1.8972e-02,-2.77438
-1.8968e-02,-1.3625,1.40375,,-1.8968e-02,-2.77469
-1.8964e-02,-1.365,1.4025,,-1.8964e-02,-2.77969
-1.8960e-02,-1.36406,1.405,,-1.8960e-02,-2.77469
-1.8956e-02,-1.36344,1.40406,,-1.8956e-02,-2.77375
-1.8952e-02,-1.36563,1.40156,,-1.8952e-02,-2.76906
-1.8948e-02,-1.36844,1.4025,,-1.8948e-02,-2.77125
-1.8944e-02,-1.3675,1.40219,,-1.8944e-02,-2.76969
-1.8940e-02,-1.36813,1.4025,,-1.8940e-02,-2.76562
-1.8936e-02,-1.3675,1.40219,,-1.8936e-02,-2.7675
-1.8932e-02,-1.36719,1.40469,,-1.8932e-02,-2.76844
-1.8928e-02,-1.36594,1.40375,,-1.8928e-02,-2.77219
-1.8924e-02,-1.36719,1.40312,,-1.8924e-02,-2.77219
-1.8920e-02,-1.36906,1.40375,,-1.8920e-02,-2.77344
-1.8916e-02,-1.36656,1.40063,,-1.8916e-02,-2.77
-1.8912e-02,-1.3675,1.40219,,-1.8912e-02,-2.77375
-1.8908e-02,-1.36844,1.4025,,-1.8908e-02,-2.77219
-1.8904e-02,-1.3675,1.4025,,-1.8904e-02,-2.77031
-1.8900e-02,-1.36656,1.40219,,-1.8900e-02,-2.77156
-1.8896e-02,-1.36844,1.4025,,-1.8896e-02,-2.76719
-1.8892e-02,-1.36844,1.40469,,-1.8892e-02,-2.77375
-1.8888e-02,-1.36719,1.40312,,-1.8888e-02,-2.77281
-1.8884e-02,-1.3675,1.40312,,-1.8884e-02,-2.77219
-1.8880e-02,-1.36563,1.40406,,-1.8880e-02,-2.77031
-1.8876e-02,-1.36656,1.4025,,-1.8876e-02,-2.77188
-1.8872e-02,-1.36906,1.405,,-1.8872e-02,-2.77375
-1.8868e-02,-1.3675,1.40625,,-1.8868e-02,-2.7725
-1.8864e-02,-1.36844,1.40656,,-1.8864e-02,-2.77188
-1.8860e-02,-1.36563,1.40406,,-1.8860e-02,-2.77062
-1.8856e-02,-1.36844,1.40625,,-1.8856e-02,-2.77281
-1.8852e-02,-1.36906,1.405,,-1.8852e-02,-2.77438
-1.8848e-02,-1.365,1.40781,,-1.8848e-02,-2.77031
-1.8844e-02,-1.36594,1.40563,,-1.8844e-02,-2.76906
-1.8840e-02,-1.36719,1.40781,,-1.8840e-02,-2.77125
-1.8836e-02,-1.37062,1.40906,,-1.8836e-02,-2.76844
-1.8832e-02,-1.36813,1.40469,,-1.8832e-02,-2.76594
-1.8828e-02,-1.36594,1.40563,,-1.8828e-02,-2.76375
-1.8824e-02,-1.36813,1.40375,,-1.8824e-02,-2.76938
-1.8820e-02,-1.3675,1.40375,,-1.8820e-02,-2.7675
-1.8816e-02,-1.36438,1.4025,,-1.8816e-02,-2.77
-1.8812e-02,-1.365,1.40469,,-1.8812e-02,-2.7725
-1.8808e-02,-1.36563,1.40563,,-1.8808e-02,-2.76812
-1.8804e-02,-1.36438,1.40375,,-1.8804e-02,-2.7675
-1.8800e-02,-1.365,1.40406,,-1.8800e-02,-2.77281
-1.8796e-02,-1.36563,1.40312,,-1.8796e-02,-2.77062
-1.8792e-02,-1.36344,1.40469,,-1.8792e-02,-2.77156
-1.8788e-02,-1.3625,1.40719,,-1.8788e-02,-2.76875
-1.8784e-02,-1.36156,1.40719,,-1.8784e-02,-2.77188
-1.8780e-02,-1.36438,1.40469,,-1.8780e-02,-2.775
-1.8776e-02,-1.36438,1.405,,-1.8776e-02,-2.77312
-1.8772e-02,-1.36563,1.40563,,-1.8772e-02,-2.77219
-1.8768e-02,-1.36187,1.40563,,-1.8768e-02,-2.76906
-1.8764e-02,-1.36813,1.405,,-1.8764e-02,-2.77062
-1.8760e-02,-1.36594,1.40406,,-1.8760e-02,-2.77094
-1.8756e-02,-1.36438,1.405,,-1.8756e-02,-2.77156
-1.8752e-02,-1.36656,1.405,,-1.8752e-02,-2.77062
-1.8748e-02,-1.3675,1.405,,-1.8748e-02,-2.77188
-1.8744e-02,-1.36906,1.40625,,-1.8744e-02,-2.77031
-1.8740e-02,-1.36844,1.40656,,-1.8740e-02,-2.76781
-1.8736e-02,-1.36719,1.40875,,-1.8736e-02,-2.77125
-1.8732e-02,-1.365,1.40781,,-1.8732e-02,-2.76656
-1.8728e-02,-1.3675,1.40906,,-1.8728e-02,-2.76969
-1.8724e-02,-1.36844,1.40656,,-1.8724e-02,-2.7675
-1.8720e-02,-1.36438,1.40813,,-1.8720e-02,-2.77062
-1.8716e-02,-1.36156,1.40375,,-1.8716e-02,-2.76906
-1.8712e-02,-1.36406,1.40563,,-1.8712e-02,-2.77375
-1.8708e-02,-1.36344,1.40625,,-1.8708e-02,-2.76969
-1.8704e-02,-1.36563,1.40469,,-1.8704e-02,-2.77125
-1.8700e-02,-1.36344,1.40656,,-1.8700e-02,-2.77312
-1.8696e-02,-1.3625,1.40469,,-1.8696e-02,-2.77312
-1.8692e-02,-1.36312,1.40469,,-1.8692e-02,-2.76906
-1.8688e-02,-1.36438,1.40563,,-1.8688e-02,-2.77156
-1.8684e-02,-1.36156,1.40563,,-1.8684e-02,-2.77344
-1.8680e-02,-1.36312,1.40312,,-1.8680e-02,-2.7725
-1.8676e-02,-1.36187,1.40406,,-1.8676e-02,-2.77406
-1.8672e-02,-1.36406,1.40406,,-1.8672e-02,-2.77594
-1.8668e-02,-1.36187,1.40406,,-1.8668e-02,-2.77219
-1.8664e-02,-1.36,1.40469,,-1.8664e-02,-2.76906
-1.8660e-02,-1.35906,1.4025,,-1.8660e-02,-2.77125
-1.8656e-02,-1.36094,1.40219,,-1.8656e-02,-2.77438
-1.8652e-02,-1.36187,1.4025,,-1.8652e-02,-2.77813
-1.8648e-02,-1.36094,1.40219,,-1.8648e-02,-2.77219
-1.8644e-02,-1.36156,1.40219,,-1.8644e-02,-2.77125
-1.8640e-02,-1.36187,1.40156,,-1.8640e-02,-2.77031
-1.8636e-02,-1.36187,1.40375,,-1.8636e-02,-2.775
-1.8632e-02,-1.36156,1.40406,,-1.8632e-02,-2.77062
-1.8628e-02,-1.36187,1.40312,,-1.8628e-02,-2.77125
-1.8624e-02,-1.36187,1.4025,,-1.8624e-02,-2.77375
-1.8620e-02,-1.36187,1.40312,,-1.8620e-02,-2.77156
-1.8616e-02,-1.36438,1.40375,,-1.8616e-02,-2.77344
-1.8612e-02,-1.36187,1.40406,,-1.8612e-02,-2.76906
-1.8608e-02,-1.3625,1.40312,,-1.8608e-02,-2.765
-1.8604e-02,-1.3625,1.405,,-1.8604e-02,-2.77219
-1.8600e-02,-1.36406,1.40563,,-1.8600e-02,-2.77281
-1.8596e-02,-1.3625,1.405,,-1.8596e-02,-2.77219
-1.8592e-02,-1.36031,1.40563,,-1.8592e-02,-2.77
-1.8588e-02,-1.36,1.40656,,-1.8588e-02,-2.77
-1.8584e-02,-1.36031,1.40656,,-1.8584e-02,-2.76938
-1.8580e-02,-1.36344,1.40563,,-1.8580e-02,-2.77125
-1.8576e-02,-1.36031,1.40563,,-1.8576e-02,-2.77094
-1.8572e-02,-1.36156,1.405,,-1.8572e-02,-2.76969
-1.8568e-02,-1.36438,1.40719,,-1.8568e-02,-2.77031
-1.8564e-02,-1.36406,1.40469,,-1.8564e-02,-2.77031
-1.8560e-02,-1.365,1.40656,,-1.8560e-02,-2.76875
-1.8556e-02,-1.36094,1.405,,-1.8556e-02,-2.76469
-1.8552e-02,-1.36344,1.40406,,-1.8552e-02,-2.76688
-1.8548e-02,-1.36312,1.40406,,-1.8548e-02,-2.77156
-1.8544e-02,-1.36563,1.405,,-1.8544e-02,-2.77125
-1.8540e-02,-1.365,1.40469,,-1.8540e-02,-2.77188
-1.8536e-02,-1.36344,1.40656,,-1.8536e-02,-2.76938
-1.8532e-02,-1.365,1.40781,,-1.8532e-02,-2.77031
-1.8528e-02,-1.365,1.40781,,-1.8528e-02,-2.76938
-1.8524e-02,-1.36187,1.40813,,-1.8524e-02,-2.77188
-1.8520e-02,-1.36156,1.40719,,-1.8520e-02,-2.76594
-1.8516e-02,-1.35781,1.40906,,-1.8516e-02,-2.76906
-1.8512e-02,-1.35906,1.40969,,-1.8512e-02,-2.76844
-1.8508e-02,-1.36156,1.41219,,-1.8508e-02,-2.76906
-1.8504e-02,-1.35781,1.41437,,-1.8504e-02,-2.76812
-1.8500e-02,-1.35625,1.41125,,-1.8500e-02,-2.76906
-1.8496e-02,-1.35281,1.41219,,-1.8496e-02,-2.76812
-1.8492e-02,-1.35375,1.41531,,-1.8492e-02,-2.76688
-1.8488e-02,-1.35187,1.41594,,-1.8488e-02,-2.76812
-1.8484e-02,-1.34688,1.41844,,-1.8484e-02,-2.77125
-1.8480e-02,-1.34563,1.42188,,-1.8480e-02,-2.7675
-1.8476e-02,-1.34219,1.42437,,-1.8476e-02,-2.77094
-1.8472e-02,-1.34,1.43,,-1.8472e-02,-2.76656
-1.8468e-02,-1.33656,1.435,,-1.8468e-02,-2.76594
